101 5050
1 2 33
1 3 15
1 4 32
1 5 32
1 6 25
1 7 21
1 8 32
1 9 18
1 10 16
1 11 26
1 12 17
1 13 26
1 14 47
1 15 45
1 16 42
1 17 41
1 18 23
1 19 28
1 20 16
1 21 29
1 22 39
1 23 46
1 24 28
1 25 38
1 26 19
1 27 11
1 28 12
1 29 24
1 30 11
1 31 10
1 32 21
1 33 12
1 34 25
1 35 27
1 36 41
1 37 36
1 38 57
1 39 42
1 40 24
1 41 42
1 42 41
1 43 49
1 44 46
1 45 37
1 46 39
1 47 34
1 48 28
1 49 40
1 50 6
1 51 12
1 52 15
1 53 18
1 54 26
1 55 34
1 56 39
1 57 38
1 58 24
1 59 32
1 60 28
1 61 38
1 62 19
1 63 24
1 64 38
1 65 35
1 66 25
1 67 51
1 68 18
1 69 4
1 70 8
1 71 25
1 72 34
1 73 32
1 74 36
1 75 39
1 76 11
1 77 13
1 78 20
1 79 16
1 80 19
1 81 15
1 82 26
1 83 30
1 84 35
1 85 37
1 86 48
1 87 34
1 88 15
1 89 21
1 90 21
1 91 40
1 92 33
1 93 34
1 94 27
1 95 30
1 96 29
1 97 32
1 98 36
1 99 31
1 100 39
1 101 15
2 3 34
2 4 20
2 5 24
2 6 16
2 7 36
2 8 36
2 9 47
2 10 43
2 11 50
2 12 23
2 13 9
2 14 21
2 15 13
2 16 25
2 17 33
2 18 27
2 19 47
2 20 49
2 21 10
2 22 12
2 23 23
2 24 35
2 25 30
2 26 16
2 27 23
2 28 21
2 29 38
2 30 43
2 31 35
2 32 52
2 33 39
2 34 48
2 35 56
2 36 54
2 37 15
2 38 32
2 39 25
2 40 9
2 41 12
2 42 12
2 43 18
2 44 24
2 45 36
2 46 45
2 47 47
2 48 41
2 49 59
2 50 32
2 51 43
2 52 27
2 53 14
2 54 25
2 55 29
2 56 19
2 57 6
2 58 9
2 59 16
2 60 25
2 61 24
2 62 42
2 63 53
2 64 63
2 65 66
2 66 58
2 67 34
2 68 30
2 69 30
2 70 39
2 71 56
2 72 12
2 73 9
2 74 12
2 75 15
2 76 29
2 77 32
2 78 44
2 79 38
2 80 29
2 81 42
2 82 36
2 83 29
2 84 28
2 85 20
2 86 31
2 87 7
2 88 36
2 89 20
2 90 50
2 91 20
2 92 14
2 93 18
2 94 13
2 95 12
2 96 16
2 97 11
2 98 16
2 99 17
2 100 17
2 101 18
3 4 25
3 5 43
3 6 34
3 7 35
3 8 45
3 9 15
3 10 29
3 11 40
3 12 11
3 13 32
3 14 53
3 15 47
3 16 51
3 17 52
3 18 35
3 19 43
3 20 22
3 21 27
3 22 36
3 23 40
3 24 14
3 25 27
3 26 18
3 27 21
3 28 16
3 29 9
3 30 21
3 31 25
3 32 31
3 33 7
3 34 14
3 35 22
3 36 55
3 37 43
3 38 64
3 39 33
3 40 25
3 41 40
3 42 45
3 43 53
3 44 54
3 45 49
3 46 53
3 47 48
3 48 43
3 49 54
3 50 8
3 51 14
3 52 28
3 53 23
3 54 16
3 55 23
3 56 33
3 57 40
3 58 27
3 59 40
3 60 40
3 61 48
3 62 34
3 63 37
3 64 51
3 65 33
3 66 29
3 67 42
3 68 6
3 69 18
3 70 21
3 71 23
3 72 30
3 73 30
3 74 33
3 75 35
3 76 7
3 77 3
3 78 9
3 79 4
3 80 8
3 81 9
3 82 40
3 83 42
3 84 46
3 85 45
3 86 58
3 87 38
3 88 30
3 89 31
3 90 33
3 91 48
3 92 40
3 93 43
3 94 34
3 95 37
3 96 38
3 97 38
3 98 43
3 99 40
3 100 46
3 101 22
4 5 41
4 6 32
4 7 46
4 8 51
4 9 40
4 10 47
4 11 57
4 12 16
4 13 25
4 14 41
4 15 29
4 16 45
4 17 51
4 18 40
4 19 57
4 20 46
4 21 10
4 22 14
4 23 15
4 24 18
4 25 10
4 26 14
4 27 28
4 28 22
4 29 24
4 30 43
4 31 40
4 32 53
4 33 32
4 34 36
4 35 46
4 36 66
4 37 35
4 38 52
4 39 9
4 40 16
4 41 18
4 42 32
4 43 36
4 44 44
4 45 52
4 46 60
4 47 59
4 48 53
4 49 69
4 50 28
4 51 38
4 52 36
4 53 21
4 54 9
4 55 9
4 56 8
4 57 24
4 58 20
4 59 34
4 60 40
4 61 43
4 62 49
4 63 56
4 64 70
4 65 57
4 66 53
4 67 19
4 68 19
4 69 32
4 70 40
4 71 48
4 72 9
4 73 11
4 74 11
4 75 11
4 76 23
4 77 23
4 78 33
4 79 28
4 80 17
4 81 34
4 82 48
4 83 44
4 84 45
4 85 39
4 86 51
4 87 27
4 88 43
4 89 33
4 90 53
4 91 40
4 92 33
4 93 37
4 94 30
4 95 30
4 96 34
4 97 30
4 98 36
4 99 36
4 100 37
4 101 25
5 6 10
5 7 21
5 8 14
5 9 50
5 10 34
5 11 35
5 12 35
5 13 16
5 14 20
5 15 29
5 16 11
5 17 10
5 18 11
5 19 30
5 20 46
5 21 32
5 22 36
5 23 47
5 24 50
5 25 51
5 26 30
5 27 22
5 28 27
5 29 50
5 30 39
5 31 27
5 32 44
5 33 44
5 34 56
5 35 59
5 36 33
5 37 11
5 38 27
5 39 48
5 40 25
5 41 35
5 42 20
5 43 28
5 44 16
5 45 12
5 46 22
5 47 27
5 48 22
5 49 39
5 50 36
5 51 44
5 52 18
5 53 22
5 54 42
5 55 49
5 56 42
5 57 25
5 58 21
5 59 8
5 60 4
5 61 7
5 62 29
5 63 41
5 64 47
5 65 66
5 66 55
5 67 58
5 68 42
5 69 28
5 70 34
5 71 57
5 72 35
5 73 32
5 74 35
5 75 39
5 76 36
5 77 40
5 78 51
5 79 46
5 80 42
5 81 47
5 82 17
5 83 7
5 84 4
5 85 8
5 86 16
5 87 18
5 88 25
5 89 12
5 90 40
5 91 11
5 92 11
5 93 7
5 94 11
5 95 12
5 96 8
5 97 13
5 98 10
5 99 6
5 100 12
5 101 21
6 7 21
6 8 20
6 9 42
6 10 30
6 11 35
6 12 25
6 13 7
6 14 22
6 15 25
6 16 18
6 17 20
6 18 11
6 19 32
6 20 40
6 21 22
6 22 28
6 23 39
6 24 40
6 25 41
6 26 20
6 27 14
6 28 17
6 29 41
6 30 34
6 31 23
6 32 40
6 33 36
6 34 47
6 35 52
6 36 38
6 37 11
6 38 32
6 39 39
6 40 16
6 41 29
6 42 18
6 43 27
6 44 21
6 45 21
6 46 29
6 47 31
6 48 25
6 49 42
6 50 28
6 51 37
6 52 13
6 53 12
6 54 32
6 55 39
6 56 33
6 57 19
6 58 12
6 59 7
6 60 9
6 61 14
6 62 28
6 63 39
6 64 48
6 65 60
6 66 49
6 67 49
6 68 32
6 69 21
6 70 29
6 71 50
6 72 26
6 73 23
6 74 27
6 75 31
6 76 27
6 77 31
6 78 42
6 79 37
6 80 32
6 81 38
6 82 20
6 83 13
6 84 14
6 85 12
6 86 24
6 87 12
6 88 22
6 89 5
6 90 37
6 91 15
6 92 9
6 93 9
6 94 3
6 95 6
6 96 4
6 97 9
6 98 11
6 99 6
6 100 14
6 101 11
7 8 12
7 9 36
7 10 14
7 11 15
7 12 34
7 13 27
7 14 40
7 15 46
7 16 32
7 17 25
7 18 10
7 19 11
7 20 29
7 21 39
7 22 47
7 23 57
7 24 47
7 25 54
7 26 32
7 27 18
7 28 25
7 29 45
7 30 22
7 31 11
7 32 24
7 33 33
7 34 45
7 35 46
7 36 21
7 37 30
7 38 47
7 39 55
7 40 32
7 41 48
7 42 38
7 43 47
7 44 37
7 45 18
7 46 18
7 47 13
7 48 7
7 49 23
7 50 27
7 51 30
7 52 10
7 53 25
7 54 43
7 55 51
7 56 50
7 57 40
7 58 29
7 59 26
7 60 16
7 61 27
7 62 9
7 63 20
7 64 27
7 65 50
7 66 37
7 67 65
7 68 38
7 69 17
7 70 18
7 71 41
7 72 43
7 73 41
7 74 45
7 75 49
7 76 30
7 77 34
7 78 41
7 79 37
7 80 38
7 81 35
7 82 6
7 83 14
7 84 21
7 85 28
7 86 36
7 87 33
7 88 6
7 89 16
7 90 20
7 91 31
7 92 28
7 93 26
7 94 24
7 95 26
7 96 23
7 97 29
7 98 29
7 99 24
7 100 32
7 101 21
8 9 48
8 10 26
8 11 24
8 12 41
8 13 27
8 14 33
8 15 43
8 16 23
8 17 14
8 18 10
8 19 18
8 20 41
8 21 42
8 22 48
8 23 59
8 24 56
8 25 60
8 26 37
8 27 25
8 28 32
8 29 54
8 30 34
8 31 23
8 32 36
8 33 44
8 34 56
8 35 57
8 36 19
8 37 25
8 38 38
8 39 59
8 40 35
8 41 48
8 42 34
8 43 42
8 44 29
8 45 6
8 46 9
8 47 13
8 48 9
8 49 25
8 50 37
8 51 42
8 52 17
8 53 30
8 54 49
8 55 57
8 56 53
8 57 38
8 58 31
8 59 22
8 60 11
8 61 19
8 62 21
8 63 31
8 64 34
8 65 62
8 66 49
8 67 69
8 68 46
8 69 27
8 70 30
8 71 53
8 72 46
8 73 43
8 74 47
8 75 50
8 76 39
8 77 43
8 78 52
8 79 47
8 80 46
8 81 46
8 82 6
8 83 7
8 84 12
8 85 22
8 86 26
8 87 31
8 88 18
8 89 18
8 90 32
8 91 25
8 92 24
8 93 21
8 94 23
8 95 24
8 96 20
8 97 27
8 98 24
8 99 20
8 100 26
8 101 26
9 10 25
9 11 35
9 12 25
9 13 43
9 14 64
9 15 60
9 16 60
9 17 58
9 18 40
9 19 40
9 20 11
9 21 41
9 22 51
9 23 55
9 24 27
9 25 41
9 26 32
9 27 28
9 28 27
9 29 20
9 30 15
9 31 25
9 32 22
9 33 8
9 34 11
9 35 9
9 36 53
9 37 53
9 38 74
9 39 48
9 40 38
9 41 55
9 42 57
9 43 65
9 44 64
9 45 54
9 46 54
9 47 47
9 48 43
9 49 50
9 50 15
9 51 6
9 52 33
9 53 34
9 54 31
9 55 38
9 56 48
9 57 53
9 58 39
9 59 50
9 60 46
9 61 56
9 62 31
9 63 29
9 64 43
9 65 18
9 66 14
9 67 56
9 68 21
9 69 22
9 70 18
9 71 8
9 72 45
9 73 44
9 74 48
9 75 49
9 76 19
9 77 17
9 78 10
9 79 12
9 80 23
9 81 6
9 82 42
9 83 47
9 84 53
9 85 54
9 86 66
9 87 50
9 88 30
9 89 38
9 90 25
9 91 57
9 92 50
9 93 52
9 94 44
9 95 47
9 96 47
9 97 49
9 98 53
9 99 49
9 100 56
9 101 32
10 11 11
10 12 32
10 13 35
10 14 52
10 15 55
10 16 45
10 17 39
10 18 22
10 19 15
10 20 16
10 21 43
10 22 52
10 23 60
10 24 43
10 25 53
10 26 34
10 27 21
10 28 25
10 29 38
10 30 10
10 31 8
10 32 10
10 33 24
10 34 35
10 35 33
10 36 28
10 37 41
10 38 60
10 39 57
10 40 36
10 41 54
10 42 48
10 43 57
10 44 50
10 45 33
10 46 30
10 47 22
10 48 19
10 49 25
10 50 21
10 51 19
10 52 17
10 53 30
10 54 41
10 55 50
10 56 53
10 57 48
10 58 35
10 59 37
10 60 29
10 61 40
10 62 6
10 63 9
10 64 23
10 65 36
10 66 23
10 67 66
10 68 33
10 69 15
10 70 8
10 71 28
10 72 47
10 73 45
10 74 50
10 75 53
10 76 26
10 77 29
10 78 32
10 79 30
10 80 35
10 81 26
10 82 20
10 83 28
10 84 35
10 85 40
10 86 49
10 87 42
10 88 9
10 89 25
10 90 7
10 91 44
10 92 39
10 93 38
10 94 33
10 95 36
10 96 34
10 97 39
10 98 41
10 99 35
10 100 44
10 101 25
11 12 42
11 13 41
11 14 55
11 15 61
11 16 46
11 17 38
11 18 25
11 19 7
11 20 25
11 21 51
11 22 60
11 23 69
11 24 54
11 25 64
11 26 43
11 27 29
11 28 35
11 29 50
11 30 21
11 31 17
11 32 16
11 33 35
11 34 46
11 35 43
11 36 19
11 37 45
11 38 62
11 39 66
11 40 45
11 41 62
11 42 53
11 43 62
11 44 52
11 45 30
11 46 25
11 47 15
11 48 15
11 49 14
11 50 32
11 51 30
11 52 23
11 53 38
11 54 52
11 55 60
11 56 62
11 57 54
11 58 42
11 59 41
11 60 31
11 61 42
11 62 8
11 63 8
11 64 13
11 65 44
11 66 30
11 67 76
11 68 44
11 69 25
11 70 19
11 71 37
11 72 56
11 73 54
11 74 58
11 75 61
11 76 37
11 77 40
11 78 43
11 79 41
11 80 46
11 81 37
11 82 19
11 83 29
11 84 35
11 85 43
11 86 50
11 87 48
11 88 14
11 89 31
11 90 11
11 91 46
11 92 43
11 93 41
11 94 38
11 95 41
11 96 38
11 97 44
11 98 44
11 99 39
11 100 47
11 101 34
12 13 22
12 14 43
12 15 36
12 16 43
12 17 45
12 18 30
12 19 43
12 20 30
12 21 16
12 22 25
12 23 30
12 24 15
12 25 21
12 26 7
12 27 16
12 28 9
12 29 16
12 30 27
12 31 25
12 32 37
12 33 17
12 34 25
12 35 33
12 36 54
12 37 34
12 38 54
12 39 25
12 40 14
12 41 29
12 42 35
12 43 42
12 44 44
12 45 44
12 46 50
12 47 47
12 48 41
12 49 55
12 50 12
12 51 23
12 52 24
12 53 14
12 54 9
12 55 18
12 56 23
12 57 29
12 58 17
12 59 31
12 60 33
12 61 40
12 62 35
12 63 41
12 64 55
12 65 44
12 66 38
12 67 34
12 68 7
12 69 18
12 70 25
12 71 34
12 72 19
12 73 19
12 74 22
12 75 24
12 76 7
12 77 9
12 78 20
12 79 15
12 80 6
12 81 20
12 82 37
12 83 36
12 84 39
12 85 36
12 86 49
12 87 28
12 88 29
12 89 24
12 90 37
12 91 38
12 92 31
12 93 34
12 94 25
12 95 27
12 96 29
12 97 29
12 98 34
12 99 31
12 100 36
12 101 15
13 14 21
13 15 20
13 16 21
13 17 25
13 18 18
13 19 38
13 20 43
13 21 16
13 22 21
13 23 32
13 24 36
13 25 35
13 26 16
13 27 16
13 28 16
13 29 38
13 30 36
13 31 27
13 32 44
13 33 35
13 34 46
13 35 52
13 36 45
13 37 11
13 38 32
13 39 33
13 40 10
13 41 22
13 42 14
13 43 23
13 44 22
13 45 27
13 46 36
13 47 38
13 48 32
13 49 49
13 50 28
13 51 38
13 52 18
13 53 9
13 54 27
13 55 33
13 56 26
13 57 13
13 58 6
13 59 9
13 60 16
13 61 18
13 62 34
13 63 44
13 64 54
13 65 61
13 66 52
13 67 42
13 68 30
13 69 23
13 70 32
13 71 51
13 72 19
13 73 16
13 74 20
13 75 24
13 76 25
13 77 29
13 78 41
13 79 35
13 80 29
13 81 38
13 82 27
13 83 20
13 84 20
13 85 14
13 86 27
13 87 7
13 88 27
13 89 11
13 90 42
13 91 16
13 92 9
13 93 12
13 94 4
13 95 5
13 96 8
13 97 6
13 98 12
13 99 10
13 100 14
13 101 11
14 15 16
14 16 11
14 17 22
14 18 30
14 19 50
14 20 63
14 21 32
14 22 30
14 23 40
14 24 56
14 25 51
14 26 36
14 27 36
14 28 37
14 29 59
14 30 56
14 31 45
14 32 62
14 33 57
14 34 67
14 35 73
14 36 52
14 37 11
14 38 11
14 39 45
14 40 29
14 41 27
14 42 9
14 43 11
14 44 6
14 45 29
14 46 40
14 47 47
14 48 42
14 49 59
14 50 49
14 51 59
14 52 35
14 53 30
14 54 46
14 55 50
14 56 38
14 57 17
14 58 26
14 59 15
14 60 24
14 61 14
14 62 49
14 63 60
14 64 67
14 65 82
14 66 72
14 67 52
14 68 50
14 69 43
14 70 51
14 71 72
14 72 33
14 73 30
14 74 31
14 75 34
14 76 47
14 77 50
14 78 62
14 79 57
14 80 49
14 81 59
14 82 37
14 83 27
14 84 21
14 85 12
14 86 14
14 87 15
14 88 43
14 89 27
14 90 59
14 91 9
14 92 14
14 93 14
14 94 20
14 95 17
14 96 18
14 97 15
14 98 12
14 99 17
14 100 9
14 101 32
15 16 25
15 17 35
15 18 36
15 19 57
15 20 62
15 21 21
15 22 16
15 23 25
15 24 46
15 25 38
15 26 29
15 27 35
15 28 34
15 29 50
15 30 56
15 31 47
15 32 64
15 33 52
15 34 61
15 35 68
15 36 62
15 37 18
15 38 25
15 39 31
15 40 22
15 41 12
15 42 9
15 43 7
15 44 21
15 45 41
15 46 51
15 47 56
15 48 50
15 49 67
15 50 45
15 51 56
15 52 38
15 53 27
15 54 36
15 55 38
15 56 24
15 57 7
15 58 22
15 59 21
15 60 32
15 61 26
15 62 53
15 63 64
15 64 74
15 65 79
15 66 71
15 67 37
15 68 43
15 69 43
15 70 51
15 71 69
15 72 20
15 73 18
15 74 18
15 75 20
15 76 42
15 77 44
15 78 56
15 79 51
15 80 41
15 81 55
15 82 45
15 83 36
15 84 32
15 85 22
15 86 29
15 87 13
15 88 47
15 89 30
15 90 62
15 91 21
15 92 19
15 93 22
15 94 22
15 95 20
15 96 23
15 97 17
15 98 19
15 99 23
15 100 18
15 101 30
16 17 11
16 18 22
16 19 40
16 20 57
16 21 35
16 22 36
16 23 47
16 24 57
16 25 55
16 26 36
16 27 32
16 28 35
16 29 58
16 30 50
16 31 38
16 32 55
16 33 54
16 34 65
16 35 70
16 36 41
16 37 10
16 38 16
16 39 51
16 40 30
16 41 35
16 42 16
16 43 21
16 44 6
16 45 18
16 46 29
16 47 36
16 48 32
16 49 48
16 50 46
16 51 54
16 52 29
16 53 29
16 54 48
16 55 53
16 56 44
16 57 23
16 58 27
16 59 12
16 60 16
16 61 4
16 62 40
16 63 52
16 64 57
16 65 77
16 66 66
16 67 59
16 68 50
16 69 38
16 70 45
16 71 67
16 72 37
16 73 34
16 74 37
16 75 40
16 76 45
16 77 49
16 78 60
16 79 55
16 80 49
16 81 56
16 82 27
16 83 17
16 84 11
16 85 6
16 86 6
16 87 18
16 88 36
16 89 22
16 90 51
16 91 5
16 92 12
16 93 9
16 94 17
16 95 16
16 96 14
16 97 15
16 98 9
16 99 12
16 100 8
16 101 29
17 18 18
17 19 32
17 20 53
17 21 41
17 22 45
17 23 56
17 24 60
17 25 61
17 26 40
17 27 32
17 28 37
17 29 60
17 30 46
17 31 34
17 32 49
17 33 53
17 34 65
17 35 68
17 36 30
17 37 18
17 38 25
17 39 58
17 40 35
17 41 44
17 42 26
17 43 32
17 44 17
17 45 8
17 46 18
17 47 26
17 48 23
17 49 38
17 50 45
17 51 52
17 52 26
17 53 32
17 54 52
17 55 58
17 56 51
17 57 32
17 58 31
17 59 17
17 60 13
17 61 9
17 62 34
17 63 45
17 64 48
17 65 74
17 66 62
17 67 67
17 68 52
17 69 36
17 70 41
17 71 64
17 72 44
17 73 41
17 74 44
17 75 48
17 76 46
17 77 50
17 78 60
17 79 55
17 80 51
17 81 55
17 82 20
17 83 11
17 84 6
17 85 14
17 86 12
17 87 26
17 88 30
17 89 22
17 90 45
17 91 15
17 92 19
17 93 14
17 94 21
17 95 21
17 96 17
17 97 22
17 98 17
17 99 16
17 100 18
17 101 30
18 19 21
18 20 35
18 21 32
18 22 39
18 23 49
18 24 45
18 25 49
18 26 27
18 27 15
18 28 21
18 29 44
18 30 28
18 31 16
18 32 33
18 33 35
18 34 47
18 35 50
18 36 27
18 37 20
18 38 38
18 39 49
18 40 25
18 41 40
18 42 28
18 43 37
18 44 28
18 45 14
18 46 20
18 47 20
18 48 14
18 49 31
18 50 28
18 51 34
18 52 8
18 53 19
18 54 39
18 55 46
18 56 43
18 57 30
18 58 21
18 59 16
18 60 7
18 61 18
18 62 18
18 63 30
18 64 37
18 65 56
18 66 44
18 67 59
18 68 36
18 69 18
18 70 23
18 71 46
18 72 36
18 73 33
18 74 37
18 75 41
18 76 29
18 77 33
18 78 43
18 79 38
18 80 36
18 81 38
18 82 9
18 83 7
18 84 13
18 85 18
18 86 27
18 87 23
18 88 13
18 89 8
18 90 29
18 91 22
18 92 18
18 93 16
18 94 14
18 95 17
18 96 13
18 97 20
18 98 19
18 99 14
18 100 22
18 101 16
19 20 30
19 21 50
19 22 58
19 23 68
19 24 56
19 25 64
19 26 42
19 27 28
19 28 35
19 29 52
19 30 25
19 31 18
19 32 22
19 33 39
19 34 50
19 35 48
19 36 13
19 37 40
19 38 56
19 39 66
19 40 43
19 41 59
19 42 49
19 43 58
19 44 46
19 45 24
19 46 18
19 47 8
19 48 8
19 49 12
19 50 35
19 51 34
19 52 21
19 53 36
19 54 52
19 55 61
19 56 61
19 57 51
19 58 40
19 59 36
19 60 26
19 61 36
19 62 9
19 63 15
19 64 17
19 65 50
19 66 36
19 67 76
19 68 46
19 69 26
19 70 22
19 71 43
19 72 54
19 73 52
19 74 56
19 75 60
19 76 38
19 77 42
19 78 47
19 79 44
19 80 47
19 81 40
19 82 13
19 83 23
19 84 29
19 85 38
19 86 43
19 87 44
19 88 14
19 89 27
19 90 17
19 91 41
19 92 39
19 93 36
19 94 35
19 95 37
19 96 34
19 97 40
19 98 39
19 99 34
19 100 42
19 101 32
20 21 45
20 22 55
20 23 61
20 24 36
20 25 49
20 26 35
20 27 27
20 28 28
20 29 30
20 30 7
20 31 19
20 32 11
20 33 15
20 34 22
20 35 18
20 36 43
20 37 51
20 38 72
20 39 55
20 40 40
20 41 58
20 42 57
20 43 66
20 44 61
20 45 47
20 46 46
20 47 38
20 48 35
20 49 39
20 50 18
20 51 8
20 52 28
20 53 35
20 54 38
20 55 46
20 56 54
20 57 55
20 58 40
20 59 48
20 60 42
20 61 53
20 62 22
20 63 18
20 64 32
20 65 21
20 66 9
20 67 64
20 68 28
20 69 20
20 70 12
20 71 12
20 72 49
20 73 48
20 74 52
20 75 54
20 76 23
20 77 23
20 78 21
20 79 21
20 80 30
20 81 15
20 82 35
20 83 42
20 84 48
20 85 52
20 86 62
20 87 50
20 88 23
20 89 36
20 90 14
20 91 55
20 92 49
20 93 49
20 94 42
20 95 46
20 96 44
20 97 48
20 98 51
20 99 46
20 100 54
20 101 32
21 22 10
21 23 18
21 24 25
21 25 20
21 26 10
21 27 22
21 28 17
21 29 29
21 30 40
21 31 35
21 32 50
21 33 33
21 34 40
21 35 48
21 36 59
21 37 25
21 38 43
21 39 17
21 40 7
21 41 13
21 42 22
21 43 28
21 44 35
21 45 43
21 46 51
21 47 52
21 48 45
21 49 62
21 50 27
21 51 38
21 52 29
21 53 14
21 54 15
21 55 18
21 56 11
21 57 15
21 58 11
21 59 24
21 60 31
21 61 33
21 62 43
21 63 52
21 64 64
21 65 59
21 66 53
21 67 27
21 68 22
21 69 28
21 70 37
21 71 49
21 72 4
21 73 3
21 74 7
21 75 10
21 76 22
21 77 24
21 78 36
21 79 30
21 80 20
21 81 35
21 82 40
21 83 35
21 84 36
21 85 29
21 86 41
21 87 17
21 88 37
21 89 24
21 90 49
21 91 30
21 92 23
21 93 27
21 94 20
21 95 20
21 96 24
21 97 20
21 98 26
21 99 26
21 100 27
21 101 18
22 23 11
22 24 32
22 25 22
22 26 20
22 27 32
22 28 27
22 29 37
22 30 50
22 31 44
22 32 60
22 33 43
22 34 49
22 35 58
22 36 66
22 37 27
22 38 40
22 39 15
22 40 16
22 41 4
22 42 21
22 43 23
22 44 34
22 45 48
22 46 57
22 47 59
22 48 53
22 49 70
22 50 37
22 51 48
22 52 38
22 53 22
22 54 22
22 55 22
22 56 8
22 57 13
22 58 18
22 59 28
22 60 37
22 61 36
22 62 52
22 63 62
22 64 73
22 65 69
22 66 63
22 67 23
22 68 31
22 69 38
22 70 47
22 71 59
22 72 6
22 73 7
22 74 3
22 75 4
22 76 32
22 77 34
22 78 45
22 79 40
22 80 29
22 81 45
22 82 48
22 83 41
22 84 40
22 85 31
22 86 42
22 87 19
22 88 46
22 89 31
22 90 59
22 91 31
22 92 26
22 93 30
22 94 25
22 95 24
22 96 29
22 97 23
22 98 28
22 99 30
22 100 28
22 101 27
23 24 32
23 25 18
23 26 27
23 27 40
23 28 35
23 29 38
23 30 57
23 31 53
23 32 67
23 33 47
23 34 51
23 35 61
23 36 76
23 37 38
23 38 50
23 39 9
23 40 25
23 41 13
23 42 32
23 43 32
23 44 45
23 45 59
23 46 68
23 47 69
23 48 63
23 49 80
23 50 43
23 51 53
23 52 47
23 53 32
23 54 24
23 55 20
23 56 7
23 57 24
23 58 28
23 59 39
23 60 48
23 61 47
23 62 61
23 63 70
23 64 82
23 65 72
23 66 68
23 67 12
23 68 34
23 69 46
23 70 54
23 71 63
23 72 14
23 73 16
23 74 12
23 75 8
23 76 37
23 77 38
23 78 47
23 79 43
23 80 32
23 81 49
23 82 58
23 83 52
23 84 51
23 85 43
23 86 53
23 87 30
23 88 55
23 89 42
23 90 66
23 91 42
23 92 37
23 93 42
23 94 36
23 95 36
23 96 40
23 97 34
23 98 39
23 99 41
23 100 39
23 101 36
24 25 15
24 26 21
24 27 30
24 28 24
24 29 7
24 30 35
24 31 38
24 32 45
24 33 21
24 34 20
24 35 30
24 36 68
24 37 47
24 38 67
24 39 24
24 40 27
24 41 36
24 42 47
24 43 53
24 44 58
24 45 59
24 46 64
24 47 61
24 48 55
24 49 68
24 50 22
24 51 28
24 52 39
24 53 28
24 54 10
24 55 12
24 56 26
24 57 40
24 58 30
24 59 45
24 60 48
24 61 54
24 62 47
24 63 51
24 64 65
24 65 42
24 66 41
24 67 30
24 68 10
24 69 30
24 70 35
24 71 34
24 72 26
24 73 28
24 74 29
24 75 29
24 76 17
24 77 14
24 78 17
24 79 15
24 80 9
24 81 21
24 82 51
24 83 51
24 84 54
24 85 51
24 86 63
24 87 41
24 88 43
24 89 39
24 90 47
24 91 52
24 92 45
24 93 48
24 94 40
24 95 41
24 96 44
24 97 42
24 98 48
24 99 46
24 100 50
24 101 30
25 26 22
25 27 36
25 28 29
25 29 22
25 30 47
25 31 47
25 32 57
25 33 34
25 34 35
25 35 45
25 36 75
25 37 45
25 38 62
25 39 9
25 40 25
25 41 26
25 42 42
25 43 45
25 44 54
25 45 62
25 46 69
25 47 67
25 48 61
25 49 76
25 50 32
25 51 41
25 52 44
25 53 30
25 54 12
25 55 4
25 56 14
25 57 34
25 58 30
25 59 44
25 60 50
25 61 53
25 62 56
25 63 62
25 64 76
25 65 57
25 66 55
25 67 15
25 68 21
25 69 39
25 70 46
25 71 49
25 72 18
25 73 21
25 74 20
25 75 18
25 76 27
25 77 26
25 78 32
25 79 29
25 80 19
25 81 35
25 82 57
25 83 54
25 84 55
25 85 49
25 86 61
25 87 37
25 88 50
25 89 42
25 90 58
25 91 50
25 92 43
25 93 47
25 94 40
25 95 40
25 96 44
25 97 40
25 98 46
25 99 45
25 100 47
25 101 34
26 27 14
26 28 8
26 29 22
26 30 30
26 31 26
26 32 40
26 33 23
26 34 32
26 35 39
26 36 52
26 37 27
26 38 47
26 39 23
26 40 7
26 41 23
26 42 28
26 43 35
26 44 38
26 45 40
26 46 47
26 47 45
26 48 39
26 49 54
26 50 17
26 51 28
26 52 22
26 53 8
26 54 12
26 55 19
26 56 20
26 57 22
26 58 10
26 59 25
26 60 28
26 61 34
26 62 35
26 63 43
26 64 56
26 65 50
26 66 43
26 67 33
26 68 14
26 69 19
26 70 27
26 71 40
26 72 14
26 73 13
26 74 17
26 75 19
26 76 13
26 77 15
26 78 27
26 79 22
26 80 13
26 81 26
26 82 34
26 83 32
26 84 34
26 85 30
26 86 43
26 87 21
26 88 29
26 89 20
26 90 40
26 91 32
26 92 24
26 93 28
26 94 19
26 95 21
26 96 23
26 97 22
26 98 28
26 99 25
26 100 30
26 101 11
27 28 7
27 29 29
27 30 21
27 31 13
27 32 29
27 33 22
27 34 34
27 35 38
27 36 39
27 37 25
27 38 46
27 39 38
27 40 16
27 41 34
27 42 30
27 43 39
27 44 35
27 45 29
27 46 34
27 47 31
27 48 25
27 49 40
27 50 14
27 51 23
27 52 9
27 53 9
27 54 25
27 55 33
27 56 33
27 57 28
27 58 14
27 59 21
27 60 19
27 61 28
27 62 21
27 63 30
27 64 42
27 65 46
27 66 36
27 67 47
27 68 21
27 69 7
27 70 16
27 71 36
27 72 27
27 73 25
27 74 29
27 75 32
27 76 14
27 77 18
27 78 29
27 79 23
27 80 21
27 81 24
27 82 21
27 83 21
27 84 26
27 85 26
27 86 38
27 87 23
27 88 15
27 89 10
27 90 27
27 91 29
27 92 22
27 93 23
27 94 16
27 95 19
27 96 18
27 97 21
27 98 25
27 99 21
27 100 28
27 101 5
28 29 24
28 30 23
28 31 18
28 32 33
28 33 19
28 34 30
28 35 36
28 36 45
28 37 27
28 38 48
28 39 31
28 40 12
28 41 30
28 42 30
28 43 38
28 44 38
28 45 35
28 46 41
28 47 38
28 48 32
28 49 47
28 50 12
28 51 22
28 52 15
28 53 7
28 54 18
28 55 26
28 56 28
28 57 27
28 58 12
28 59 24
28 60 24
28 61 32
28 62 27
28 63 35
28 64 48
28 65 45
28 66 37
28 67 41
28 68 15
28 69 11
28 70 19
28 71 35
28 72 22
28 73 20
28 74 25
28 75 27
28 76 9
28 77 13
28 78 25
28 79 19
28 80 15
28 81 22
28 82 28
28 83 27
28 84 31
28 85 29
28 86 42
28 87 23
28 88 21
28 89 15
28 90 32
28 91 32
28 92 24
28 93 26
28 94 18
28 95 21
28 96 21
28 97 23
28 98 27
28 99 24
28 100 30
28 101 6
29 30 30
29 31 34
29 32 40
29 33 15
29 34 13
29 35 23
29 36 65
29 37 49
29 38 70
29 39 30
29 40 29
29 41 41
29 42 50
29 43 57
29 44 60
29 45 58
29 46 62
29 47 58
29 48 52
29 49 64
29 50 18
29 51 22
29 52 37
29 53 29
29 54 15
29 55 19
29 56 32
29 57 44
29 58 32
29 59 47
29 60 48
29 61 55
29 62 43
29 63 46
29 64 60
29 65 35
29 66 34
29 67 37
29 68 9
29 69 27
29 70 30
29 71 27
29 72 31
29 73 32
29 74 34
29 75 34
29 76 15
29 77 11
29 78 10
29 79 9
29 80 9
29 81 15
29 82 49
29 83 50
29 84 54
29 85 52
29 86 65
29 87 43
29 88 39
29 89 39
29 90 41
29 91 54
29 92 47
29 93 49
29 94 41
29 95 43
29 96 45
29 97 44
29 98 50
29 99 47
29 100 52
29 101 30
30 31 12
30 32 10
30 33 15
30 34 25
30 35 24
30 36 38
30 37 45
30 38 65
30 39 52
30 40 35
30 41 53
30 42 51
30 43 59
30 44 54
30 45 40
30 46 40
30 47 32
30 48 28
30 49 35
30 50 15
30 51 9
30 52 21
30 53 29
30 54 35
30 55 44
30 56 50
30 57 49
30 58 34
30 59 41
30 60 35
30 61 46
30 62 16
30 63 16
30 64 30
30 65 28
30 66 16
30 67 61
30 68 26
30 69 13
30 70 5
30 71 19
30 72 45
30 73 43
30 74 47
30 75 50
30 76 20
30 77 21
30 78 22
30 79 21
30 80 28
30 81 16
30 82 28
30 83 35
30 84 41
30 85 45
30 86 55
30 87 44
30 88 16
30 89 29
30 90 11
30 91 48
30 92 42
30 93 42
30 94 36
30 95 39
30 96 38
30 97 42
30 98 44
30 99 39
30 100 47
30 101 25
31 32 17
31 33 22
31 34 34
31 35 35
31 36 30
31 37 34
31 38 54
31 39 49
31 40 28
31 41 46
31 42 41
31 43 50
31 44 43
31 45 29
31 46 29
31 47 23
31 48 18
31 49 30
31 50 17
31 51 19
31 52 10
31 53 22
31 54 35
31 55 43
31 56 46
31 57 40
31 58 26
31 59 30
31 60 23
31 61 34
31 62 9
31 63 17
31 64 30
31 65 40
31 66 28
31 67 59
31 68 28
31 69 8
31 70 7
31 71 31
31 72 39
31 73 37
31 74 42
31 75 45
31 76 21
31 77 24
31 78 30
31 79 26
31 80 29
31 81 24
31 82 17
31 83 23
31 84 29
31 85 34
31 86 43
31 87 34
31 88 5
31 89 18
31 90 15
31 91 37
31 92 31
31 93 31
31 94 25
31 95 29
31 96 27
31 97 32
31 98 33
31 99 28
31 100 36
31 101 17
32 33 25
32 34 33
32 35 28
32 36 34
32 37 51
32 38 71
32 39 62
32 40 44
32 41 62
32 42 58
32 43 67
32 44 60
32 45 42
32 46 39
32 47 30
32 48 28
32 49 29
32 50 25
32 51 18
32 52 27
32 53 38
32 54 46
32 55 54
32 56 60
32 57 57
32 58 43
32 59 47
32 60 39
32 61 51
32 62 16
32 63 8
32 64 22
32 65 28
32 66 15
32 67 72
32 68 37
32 69 22
32 70 13
32 71 22
32 72 54
32 73 53
32 74 57
32 75 60
32 76 30
32 77 32
32 78 31
32 79 30
32 80 38
32 81 25
32 82 30
32 83 38
32 84 45
32 85 51
32 86 60
32 87 51
32 88 19
32 89 35
32 90 4
32 91 54
32 92 49
32 93 48
32 94 43
32 95 46
32 96 44
32 97 49
32 98 51
32 99 46
32 100 54
32 101 34
33 34 12
33 35 16
33 36 52
33 37 46
33 38 67
33 39 41
33 40 30
33 41 46
33 42 49
33 43 57
33 44 57
33 45 49
33 46 51
33 47 45
33 48 40
33 49 50
33 50 8
33 51 7
33 52 28
33 53 26
33 54 23
33 55 31
33 56 40
33 57 45
33 58 31
33 59 43
33 60 40
33 61 50
33 62 30
33 63 31
33 64 45
33 65 27
33 66 21
33 67 49
33 68 13
33 69 17
33 70 16
33 71 16
33 72 36
33 73 36
33 74 40
33 75 41
33 76 11
33 77 9
33 78 8
33 79 6
33 80 15
33 81 3
33 82 38
33 83 42
33 84 47
33 85 48
33 86 60
33 87 42
33 88 27
33 89 32
33 90 27
33 91 50
33 92 43
33 93 45
33 94 37
33 95 40
33 96 40
33 97 42
33 98 46
33 99 42
33 100 49
33 101 25
34 35 10
34 36 63
34 37 57
34 38 78
34 39 43
34 40 39
34 41 53
34 42 59
34 43 67
34 44 68
34 45 61
34 46 63
34 47 57
34 48 52
34 49 60
34 50 20
34 51 16
34 52 40
34 53 37
34 54 27
34 55 32
34 56 45
34 57 54
34 58 41
34 59 54
34 60 52
34 61 61
34 62 41
34 63 40
34 64 55
34 65 22
34 66 24
34 67 50
34 68 18
34 69 29
34 70 28
34 71 15
34 72 43
34 73 43
34 74 46
34 75 47
34 76 21
34 77 17
34 78 5
34 79 11
34 80 20
34 81 10
34 82 51
34 83 54
34 84 59
34 85 59
34 86 71
34 87 52
34 88 39
34 89 44
34 90 36
34 91 62
34 92 54
34 93 56
34 94 48
34 95 51
34 96 51
34 97 52
34 98 57
34 99 54
34 100 60
34 101 36
35 36 61
35 37 62
35 38 83
35 39 53
35 40 46
35 41 62
35 42 66
35 43 74
35 44 73
35 45 63
35 46 63
35 47 56
35 48 52
35 49 57
35 50 24
35 51 16
35 52 42
35 53 43
35 54 36
35 55 42
35 56 54
35 57 61
35 58 47
35 59 59
35 60 55
35 61 65
35 62 40
35 63 36
35 64 49
35 65 12
35 66 16
35 67 60
35 68 27
35 69 32
35 70 28
35 71 7
35 72 52
35 73 52
35 74 55
35 75 56
35 76 27
35 77 24
35 78 13
35 79 18
35 80 29
35 81 14
35 82 51
35 83 56
35 84 62
35 85 64
35 86 75
35 87 59
35 88 39
35 89 48
35 90 32
35 91 66
35 92 59
35 93 61
35 94 53
35 95 56
35 96 56
35 97 58
35 98 62
35 99 58
35 100 65
35 101 41
36 37 44
36 38 55
36 39 75
36 40 52
36 41 66
36 42 53
36 43 61
36 44 47
36 45 22
36 46 12
36 47 7
36 48 14
36 49 9
36 50 47
36 51 47
36 52 30
36 53 45
36 54 63
36 55 71
36 56 70
36 57 57
36 58 48
36 59 41
36 60 30
36 61 37
36 62 22
36 63 27
36 64 21
36 65 62
36 66 49
36 67 85
36 68 58
36 69 37
36 70 35
36 71 56
36 72 63
36 73 60
36 74 64
36 75 68
36 76 50
36 77 54
36 78 60
36 79 56
36 80 59
36 81 53
36 82 18
36 83 26
36 84 30
36 85 40
36 86 42
36 87 49
36 88 25
36 89 35
36 90 30
36 91 43
36 92 43
36 93 39
36 94 41
36 95 43
36 96 39
36 97 45
36 98 43
36 99 38
36 100 45
36 101 41
37 38 21
37 39 41
37 40 21
37 41 26
37 42 9
37 43 17
37 44 11
37 45 23
37 46 33
37 47 38
37 48 33
37 49 50
37 50 38
37 51 48
37 52 24
37 53 20
37 54 38
37 55 43
37 56 34
37 57 14
37 58 17
37 59 4
37 60 14
37 61 9
37 62 38
37 63 49
37 64 57
37 65 71
37 66 60
37 67 49
37 68 41
37 69 32
37 70 40
37 71 61
37 72 27
37 73 24
37 74 27
37 75 30
37 76 36
37 77 40
37 78 52
37 79 46
37 80 40
37 81 49
37 82 27
37 83 18
37 84 14
37 85 4
37 86 16
37 87 8
37 88 33
37 89 16
37 90 48
37 91 5
37 92 3
37 93 4
37 94 9
37 95 6
37 96 7
37 97 5
37 98 1
37 99 6
37 100 3
37 101 21
38 39 55
38 40 40
38 41 37
38 42 20
38 43 18
38 44 11
38 45 33
38 46 43
38 47 51
38 48 48
38 49 63
38 50 59
38 51 69
38 52 44
38 53 41
38 54 57
38 55 61
38 56 49
38 57 28
38 58 37
38 59 25
38 60 31
38 61 20
38 62 56
38 63 68
38 64 73
38 65 92
38 66 81
38 67 62
38 68 61
38 69 53
38 70 60
38 71 82
38 72 43
38 73 41
38 74 42
38 75 44
38 76 57
38 77 61
38 78 73
38 79 67
38 80 60
38 81 70
38 82 43
38 83 33
38 84 27
38 85 20
38 86 13
38 87 26
38 88 51
38 89 37
38 90 67
38 91 17
38 92 24
38 93 23
38 94 30
38 95 28
38 96 28
38 97 26
38 98 21
38 99 26
38 100 18
38 101 42
39 40 24
39 41 19
39 42 36
39 43 38
39 44 49
39 45 60
39 46 68
39 47 68
39 48 62
39 49 78
39 50 37
39 51 47
39 52 45
39 53 30
39 54 17
39 55 11
39 56 7
39 57 28
39 58 28
39 59 41
39 60 48
39 61 49
39 62 58
39 63 66
39 64 79
39 65 65
39 66 62
39 67 10
39 68 27
39 69 42
39 70 50
39 71 56
39 72 14
39 73 17
39 74 14
39 75 11
39 76 32
39 77 32
39 78 40
39 79 36
39 80 25
39 81 42
39 82 57
39 83 52
39 84 53
39 85 45
39 86 56
39 87 33
39 88 52
39 89 41
39 90 62
39 91 46
39 92 39
39 93 44
39 94 37
39 95 37
39 96 41
39 97 36
39 98 42
39 99 42
39 100 42
39 101 34
40 41 18
40 42 21
40 43 28
40 44 31
40 45 36
40 46 44
40 47 45
40 48 38
40 49 55
40 50 23
40 51 34
40 52 22
40 53 7
40 54 17
40 55 23
40 56 18
40 57 15
40 58 4
40 59 19
40 60 25
40 61 28
40 62 37
40 63 46
40 64 58
40 65 56
40 66 49
40 67 34
40 68 21
40 69 22
40 70 31
40 71 46
40 72 11
40 73 9
40 74 13
40 75 17
40 76 19
40 77 22
40 78 34
40 79 29
40 80 20
40 81 33
40 82 33
40 83 29
40 84 30
40 85 24
40 86 37
40 87 14
40 88 30
40 89 17
40 90 43
40 91 26
40 92 18
40 93 22
40 94 14
40 95 15
40 96 18
40 97 16
40 98 21
40 99 20
40 100 23
40 101 11
41 42 19
41 43 19
41 44 32
41 45 48
41 46 57
41 47 60
41 48 54
41 49 71
41 50 40
41 51 51
41 52 39
41 53 25
41 54 27
41 55 26
41 56 12
41 57 11
41 58 20
41 59 27
41 60 37
41 61 34
41 62 54
41 63 64
41 64 75
41 65 73
41 66 66
41 67 25
41 68 35
41 69 40
41 70 49
41 71 63
41 72 10
41 73 10
41 74 7
41 75 8
41 76 36
41 77 38
41 78 49
41 79 44
41 80 33
41 81 49
41 82 48
41 83 41
41 84 39
41 85 30
41 86 40
41 87 18
41 88 48
41 89 32
41 90 61
41 91 30
41 92 25
41 93 29
41 94 26
41 95 24
41 96 28
41 97 22
41 98 27
41 99 29
41 100 26
41 101 29
42 43 9
42 44 13
42 45 32
42 46 42
42 47 47
42 48 41
42 49 59
42 50 42
42 51 52
42 52 31
42 53 23
42 54 37
42 55 41
42 56 29
42 57 8
42 58 18
42 59 12
42 60 23
42 61 17
42 62 46
42 63 57
42 64 66
42 65 75
42 66 66
42 67 44
42 68 42
42 69 37
42 70 46
42 71 65
42 72 23
42 73 21
42 74 22
42 75 25
42 76 39
42 77 42
42 78 54
42 79 49
42 80 41
42 81 52
42 82 36
42 83 27
42 84 23
42 85 13
42 86 21
42 87 7
42 88 40
42 89 23
42 90 55
42 91 11
42 92 10
42 93 13
42 94 15
42 95 12
42 96 15
42 97 9
42 98 10
42 99 15
42 100 8
42 101 25
43 44 16
43 45 39
43 46 50
43 47 55
43 48 50
43 49 67
43 50 50
43 51 61
43 52 40
43 53 31
43 54 43
43 55 45
43 56 31
43 57 13
43 58 26
43 59 21
43 60 32
43 61 24
43 62 55
43 63 66
43 64 74
43 65 84
43 66 75
43 67 44
43 68 49
43 69 46
43 70 55
43 71 73
43 72 27
43 73 25
43 74 25
43 75 27
43 76 47
43 77 50
43 78 62
43 79 56
43 80 47
43 81 60
43 82 45
43 83 35
43 84 30
43 85 20
43 86 24
43 87 16
43 88 49
43 89 32
43 90 64
43 91 18
43 92 19
43 93 22
43 94 24
43 95 21
43 96 24
43 97 18
43 98 18
43 99 23
43 100 16
43 101 34
44 45 25
44 46 35
44 47 42
44 48 38
44 49 54
44 50 49
44 51 58
44 52 33
44 53 31
44 54 48
44 55 53
44 56 42
44 57 21
44 58 28
44 59 14
44 60 21
44 61 10
44 62 46
44 63 57
44 64 63
44 65 81
44 66 70
44 67 57
44 68 51
44 69 42
44 70 49
44 71 71
44 72 36
44 73 33
44 74 35
44 75 38
44 76 47
44 77 51
44 78 63
44 79 57
44 80 51
44 81 59
44 82 33
44 83 23
44 84 17
44 85 9
44 86 8
44 87 17
44 88 41
44 89 26
44 90 57
44 91 6
44 92 14
44 93 12
44 94 20
44 95 17
44 96 17
44 97 16
44 98 11
44 99 15
44 100 8
44 101 32
45 46 11
45 47 18
45 48 16
45 49 30
45 50 42
45 51 47
45 52 22
45 53 32
45 54 52
45 55 59
45 56 54
45 57 37
45 58 32
45 59 21
45 60 12
45 61 15
45 62 27
45 63 37
45 64 40
45 65 68
45 66 55
45 67 69
45 68 50
45 69 32
45 70 36
45 71 59
45 72 47
45 73 43
45 74 47
45 75 51
45 76 43
45 77 47
45 78 57
45 79 52
45 80 50
45 81 52
45 82 13
45 83 8
45 84 9
45 85 19
45 86 20
45 87 30
45 88 24
45 89 20
45 90 38
45 91 21
45 92 23
45 93 18
45 94 23
45 95 24
45 96 19
45 97 25
45 98 21
45 99 18
45 100 23
45 101 29
46 47 10
46 48 12
46 49 20
46 50 45
46 51 48
46 52 25
46 53 39
46 54 58
46 55 66
46 56 62
46 57 47
46 58 40
46 59 31
46 60 21
46 61 26
46 62 24
46 63 33
46 64 32
46 65 67
46 66 53
46 67 78
46 68 55
46 69 35
46 70 36
46 71 59
46 72 55
46 73 52
46 74 56
46 75 60
46 76 47
46 77 51
46 78 59
46 79 55
46 80 55
46 81 53
46 82 13
46 83 16
46 84 19
46 85 30
46 86 30
46 87 40
46 88 24
46 89 27
46 90 35
46 91 32
46 92 33
46 93 29
46 94 32
46 95 33
46 96 29
46 97 35
46 98 32
46 99 28
46 100 34
46 101 35
47 48 6
47 49 12
47 50 40
47 51 41
47 52 23
47 53 38
47 54 56
47 55 64
47 56 63
47 57 50
47 58 41
47 59 35
47 60 24
47 61 32
47 62 16
47 63 23
47 64 22
47 65 58
47 66 44
47 67 78
47 68 51
47 69 30
47 70 29
47 71 50
47 72 56
47 73 53
47 74 57
47 75 61
47 76 43
47 77 47
47 78 53
47 79 50
47 80 52
47 81 47
47 82 11
47 83 20
47 84 25
47 85 35
47 86 38
47 87 43
47 88 18
47 89 28
47 90 25
47 91 38
47 92 37
47 93 34
47 94 34
47 95 36
47 96 32
47 97 39
47 98 37
47 99 32
47 100 39
47 101 34
48 49 17
48 50 34
48 51 36
48 52 17
48 53 32
48 54 50
48 55 58
48 56 57
48 57 44
48 58 35
48 59 29
48 60 18
48 61 28
48 62 13
48 63 22
48 64 25
48 65 55
48 66 42
48 67 72
48 68 45
48 69 25
48 70 24
48 71 47
48 72 50
48 73 47
48 74 51
48 75 55
48 76 37
48 77 41
48 78 48
48 79 44
48 80 46
48 81 42
48 82 5
48 83 15
48 84 21
48 85 30
48 86 35
48 87 37
48 88 13
48 89 21
48 90 23
48 91 33
48 92 31
48 93 28
48 94 28
48 95 30
48 96 27
48 97 33
48 98 32
48 99 27
48 100 34
48 101 28
49 50 46
49 51 44
49 52 33
49 53 48
49 54 64
49 55 73
49 56 73
49 57 62
49 58 52
49 59 46
49 60 36
49 61 44
49 62 21
49 63 21
49 64 13
49 65 57
49 66 43
49 67 88
49 68 58
49 69 37
49 70 33
49 71 51
49 72 66
49 73 64
49 74 68
49 75 71
49 76 50
49 77 53
49 78 57
49 79 55
49 80 59
49 81 51
49 82 23
49 83 32
49 84 37
49 85 47
49 86 50
49 87 55
49 88 26
49 89 39
49 90 25
49 91 50
49 92 49
49 93 46
49 94 46
49 95 48
49 96 44
49 97 51
49 98 49
49 99 44
49 100 51
49 101 44
50 51 11
50 52 20
50 53 19
50 54 21
50 55 29
50 56 36
50 57 38
50 58 24
50 59 35
50 60 33
50 61 42
50 62 25
50 63 30
50 64 44
50 65 34
50 66 26
50 67 47
50 68 12
50 69 10
50 70 13
50 71 23
50 72 31
50 73 30
50 74 34
50 75 36
50 76 5
50 77 7
50 78 15
50 79 10
50 80 13
50 81 11
50 82 32
50 83 34
50 84 39
50 85 40
50 86 52
50 87 35
50 88 22
50 89 24
50 90 26
50 91 43
50 92 35
50 93 37
50 94 29
50 95 32
50 96 32
50 97 34
50 98 38
50 99 34
50 100 41
50 101 17
51 52 27
51 53 30
51 54 30
51 55 38
51 56 46
51 57 49
51 58 35
51 59 44
51 60 40
51 61 50
51 62 25
51 63 25
51 64 39
51 65 23
51 66 15
51 67 56
51 68 20
51 69 16
51 70 12
51 71 13
51 72 42
51 73 41
51 74 45
51 75 47
51 76 16
51 77 16
51 78 13
51 79 13
51 80 22
51 81 7
51 82 36
51 83 41
51 84 47
51 85 49
51 86 60
51 87 45
51 88 24
51 89 33
51 90 20
51 91 52
51 92 45
51 93 46
51 94 39
51 95 42
51 96 41
51 97 44
51 98 48
51 99 43
51 100 51
51 101 27
52 53 16
52 54 33
52 55 41
52 56 40
52 57 31
52 58 19
52 59 20
52 60 13
52 61 24
52 62 15
52 63 26
52 64 36
52 65 49
52 66 37
52 67 55
52 68 29
52 69 11
52 70 16
52 71 39
52 72 34
52 73 31
52 74 36
52 75 39
52 76 22
52 77 26
52 78 35
52 79 30
52 80 30
52 81 30
52 82 13
52 83 14
52 84 20
52 85 24
52 86 34
52 87 25
52 88 9
52 89 8
52 90 24
52 91 27
52 92 22
52 93 21
52 94 16
52 95 19
52 96 17
52 97 22
52 98 23
52 99 18
52 100 27
52 101 11
53 54 20
53 55 27
53 56 25
53 57 20
53 58 5
53 59 17
53 60 20
53 61 26
53 62 30
53 63 39
53 64 51
53 65 52
53 66 44
53 67 40
53 68 21
53 69 16
53 70 25
53 71 42
53 72 18
53 73 16
53 74 20
53 75 23
53 76 16
53 77 20
53 78 32
53 79 26
53 80 20
53 81 29
53 82 27
53 83 24
53 84 26
53 85 23
53 86 35
53 87 16
53 88 24
53 89 12
53 90 36
53 91 25
53 92 17
53 93 20
53 94 12
53 95 14
53 96 16
53 97 16
53 98 21
53 99 18
53 100 23
53 101 4
54 55 8
54 56 17
54 57 30
54 58 21
54 59 36
54 60 40
54 61 45
54 62 44
54 63 50
54 64 64
54 65 48
54 66 45
54 67 26
54 68 10
54 69 27
54 70 34
54 71 39
54 72 16
54 73 18
54 74 19
54 75 20
54 76 15
54 77 15
54 78 23
54 79 19
54 80 8
54 81 25
54 82 46
54 83 44
54 84 46
54 85 42
54 86 54
54 87 31
54 88 39
54 89 32
54 90 46
54 91 43
54 92 36
54 93 39
54 94 31
54 95 32
54 96 35
54 97 33
54 98 39
54 99 37
54 100 41
54 101 23
55 56 15
55 57 33
55 58 27
55 59 42
55 60 47
55 61 51
55 62 52
55 63 58
55 64 72
55 65 54
55 66 52
55 67 18
55 68 17
55 69 35
55 70 42
55 71 45
55 72 17
55 73 20
55 74 20
55 75 18
55 76 24
55 77 22
55 78 29
55 79 26
55 80 16
55 81 32
55 82 54
55 83 51
55 84 53
55 85 47
55 86 59
55 87 35
55 88 47
55 89 39
55 90 54
55 91 48
55 92 41
55 93 45
55 94 37
55 95 38
55 96 41
55 97 38
55 98 44
55 99 43
55 100 45
55 101 30
56 57 21
56 58 22
56 59 34
56 60 42
56 61 43
56 62 54
56 63 63
56 64 75
56 65 66
56 66 61
56 67 16
56 68 27
56 69 38
56 70 47
56 71 56
56 72 7
56 73 10
56 74 7
56 75 4
56 76 30
56 77 31
56 78 41
56 79 36
56 80 25
56 81 42
56 82 52
56 83 46
56 84 46
56 85 38
56 86 49
56 87 26
56 88 48
56 89 35
56 90 59
56 91 39
56 92 33
56 93 37
56 94 31
56 95 30
56 96 34
56 97 29
56 98 35
56 99 36
56 100 36
56 101 29
57 58 15
57 59 16
57 60 27
57 61 23
57 62 47
57 63 57
57 64 67
57 65 72
57 66 63
57 67 36
57 68 36
57 69 35
57 70 44
57 71 61
57 72 16
57 73 13
57 74 14
57 75 17
57 76 34
57 77 37
57 78 49
57 79 44
57 80 35
57 81 48
57 82 39
57 83 31
57 84 28
57 85 19
57 86 29
57 87 7
57 88 40
57 89 24
57 90 55
57 91 18
57 92 14
57 93 18
57 94 16
57 95 14
57 96 18
57 97 11
57 98 16
57 99 18
57 100 15
57 101 23
58 59 15
58 60 21
58 61 24
58 62 34
58 63 44
58 64 55
58 65 57
58 66 49
58 67 37
58 68 24
58 69 21
58 70 30
58 71 47
58 72 15
58 73 12
58 74 16
58 75 20
58 76 21
58 77 24
58 78 36
58 79 30
58 80 23
58 81 34
58 82 30
58 83 25
58 84 25
58 85 20
58 86 33
58 87 11
58 88 28
58 89 13
58 90 41
58 91 22
58 92 15
58 93 18
58 94 10
58 95 11
58 96 14
58 97 12
58 98 18
58 99 16
58 100 20
58 101 9
59 60 11
59 61 9
59 62 34
59 63 45
59 64 53
59 65 67
59 66 56
59 67 50
59 68 38
59 69 28
59 70 36
59 71 57
59 72 27
59 73 24
59 74 27
59 75 31
59 76 33
59 77 37
59 78 49
59 79 43
59 80 37
59 81 45
59 82 24
59 83 15
59 84 12
59 85 5
59 86 18
59 87 9
59 88 28
59 89 12
59 90 44
59 91 8
59 92 2
59 93 3
59 94 6
59 95 4
59 96 3
59 97 5
59 98 4
59 99 2
59 100 7
59 101 18
60 61 11
60 62 25
60 63 36
60 64 43
60 65 62
60 66 50
60 67 58
60 68 39
60 69 24
60 70 30
60 71 52
60 72 35
60 73 32
60 74 36
60 75 39
60 76 33
60 77 37
60 78 48
60 79 42
60 80 39
60 81 43
60 82 13
60 83 4
60 84 7
60 85 12
60 86 21
60 87 19
60 88 20
60 89 9
60 90 36
60 91 15
60 92 13
60 93 10
60 94 11
60 95 13
60 96 9
60 97 15
60 98 13
60 99 9
60 100 16
60 101 18
61 62 36
61 63 47
61 64 53
61 65 73
61 66 61
61 67 58
61 68 46
61 69 34
61 70 41
61 71 63
61 72 36
61 73 33
61 74 36
61 75 39
61 76 41
61 77 45
61 78 56
61 79 51
61 80 46
61 81 52
61 82 23
61 83 13
61 84 7
61 85 4
61 86 10
61 87 17
61 88 31
61 89 18
61 90 47
61 91 6
61 92 10
61 93 6
61 94 14
61 95 13
61 96 10
61 97 13
61 98 8
61 99 8
61 100 8
61 101 25
62 63 11
62 64 21
62 65 42
62 66 29
62 67 68
62 68 37
62 69 17
62 70 13
62 71 34
62 72 48
62 73 46
62 74 50
62 75 53
62 76 30
62 77 33
62 78 37
62 79 34
62 80 38
62 81 31
62 82 14
62 83 23
62 84 30
62 85 37
62 86 45
62 87 40
62 88 6
62 89 23
62 90 11
62 91 40
62 92 36
62 93 35
62 94 31
62 95 34
62 96 31
62 97 37
62 98 37
62 99 32
62 100 40
62 101 25
63 64 14
63 65 36
63 66 22
63 67 75
63 68 42
63 69 24
63 70 16
63 71 30
63 72 57
63 73 55
63 74 59
63 75 62
63 76 35
63 77 37
63 78 38
63 79 37
63 80 43
63 81 32
63 82 25
63 83 35
63 84 41
63 85 48
63 86 56
63 87 51
63 88 17
63 89 34
63 90 4
63 91 51
63 92 47
63 93 46
63 94 42
63 95 45
63 96 42
63 97 48
63 98 49
63 99 44
63 100 52
63 101 35
64 65 47
64 66 34
64 67 89
64 68 56
64 69 37
64 70 30
64 71 43
64 72 69
64 73 67
64 74 71
64 75 74
64 76 49
64 77 51
64 78 52
64 79 51
64 80 57
64 81 46
64 82 30
64 83 40
64 84 46
64 85 55
64 86 60
64 87 60
64 88 27
64 89 43
64 90 19
64 91 58
64 92 55
64 93 53
64 94 51
64 95 54
64 96 50
64 97 57
64 98 56
64 99 51
64 100 59
64 101 47
65 66 14
65 67 72
65 68 38
65 69 39
65 70 33
65 71 10
65 72 63
65 73 63
65 74 66
65 75 67
65 76 37
65 77 35
65 78 25
65 79 29
65 80 40
65 81 24
65 82 56
65 83 62
65 84 69
65 85 72
65 86 83
65 87 68
65 88 44
65 89 55
65 90 33
65 91 75
65 92 68
65 93 69
65 94 62
65 95 65
65 96 64
65 97 67
65 98 71
65 99 66
65 100 74
65 101 50
66 67 70
66 68 35
66 69 29
66 70 21
66 71 9
66 72 57
66 73 56
66 74 60
66 75 62
66 76 31
66 77 30
66 78 24
66 79 26
66 80 37
66 81 20
66 82 43
66 83 50
66 84 57
66 85 61
66 86 71
66 87 59
66 88 31
66 89 44
66 90 19
66 91 64
66 92 58
66 93 58
66 94 51
66 95 55
66 96 53
66 97 57
66 98 60
66 99 55
66 100 63
66 101 40
67 68 36
67 69 52
67 70 59
67 71 64
67 72 23
67 73 26
67 74 22
67 75 19
67 76 41
67 77 40
67 78 47
67 79 44
67 80 34
67 81 50
67 82 67
67 83 62
67 84 62
67 85 54
67 86 64
67 87 41
67 88 62
67 89 51
67 90 72
67 91 54
67 92 48
67 93 53
67 94 47
67 95 46
67 96 50
67 97 45
67 98 51
67 99 51
67 100 51
67 101 44
68 69 21
68 70 25
68 71 29
68 72 25
68 73 25
68 74 28
68 75 29
68 76 8
68 77 5
68 78 14
68 79 9
68 80 2
68 81 15
68 82 42
68 83 42
68 84 46
68 85 43
68 86 56
68 87 35
68 88 33
68 89 30
68 90 38
68 91 46
68 92 38
68 93 41
68 94 32
68 95 34
68 96 36
68 97 36
68 98 41
68 99 38
68 100 43
68 101 21
69 70 9
69 71 29
69 72 33
69 73 31
69 74 35
69 75 38
69 76 13
69 77 16
69 78 25
69 79 20
69 80 21
69 81 19
69 82 22
69 83 25
69 84 31
69 85 33
69 86 44
69 87 30
69 88 12
69 89 16
69 90 21
69 91 36
69 92 29
69 93 30
69 94 23
69 95 26
69 96 25
69 97 29
69 98 32
69 99 27
69 100 35
69 101 12
70 71 23
70 72 41
70 73 40
70 74 44
70 75 47
70 76 18
70 77 21
70 78 24
70 79 22
70 80 27
70 81 18
70 82 24
70 83 30
70 84 36
70 85 40
70 86 50
70 87 39
70 88 12
70 89 24
70 90 13
70 91 43
70 92 37
70 93 37
70 94 31
70 95 34
70 96 33
70 97 37
70 98 39
70 99 34
70 100 42
70 101 21
71 72 53
71 73 53
71 74 56
71 75 58
71 76 27
71 77 25
71 78 16
71 79 20
71 80 31
71 81 14
71 82 47
71 83 53
71 84 59
71 85 62
71 86 73
71 87 58
71 88 35
71 89 45
71 90 26
71 91 65
71 92 58
71 93 59
71 94 51
71 95 54
71 96 54
71 97 57
71 98 60
71 99 56
71 100 63
71 101 40
72 73 3
72 74 3
72 75 5
72 76 26
72 77 28
72 78 39
72 79 34
72 80 23
72 81 39
72 82 45
72 83 39
72 84 39
72 85 32
72 86 43
72 87 19
72 88 42
72 89 28
72 90 53
72 91 32
72 92 26
72 93 30
72 94 24
72 95 23
72 96 27
72 97 23
72 98 28
72 99 29
72 100 29
72 101 22
73 74 4
73 75 8
73 76 25
73 77 28
73 78 39
73 79 34
73 80 23
73 81 39
73 82 42
73 83 36
73 84 36
73 85 28
73 86 40
73 87 16
73 88 39
73 89 25
73 90 52
73 91 29
73 92 23
73 93 27
73 94 21
73 95 20
73 96 24
73 97 19
73 98 25
73 99 26
73 100 26
73 101 20
74 75 4
74 76 29
74 77 31
74 78 42
74 79 37
74 80 26
74 81 42
74 82 46
74 83 40
74 84 39
74 85 31
74 86 42
74 87 19
74 88 44
74 89 30
74 90 56
74 91 32
74 92 26
74 93 30
74 94 24
74 95 24
74 96 28
74 97 22
74 98 28
74 99 29
74 100 28
74 101 25
75 76 31
75 77 32
75 78 43
75 79 38
75 80 27
75 81 43
75 82 50
75 83 44
75 84 43
75 85 35
75 86 46
75 87 22
75 88 47
75 89 33
75 90 59
75 91 35
75 92 29
75 93 34
75 94 28
75 95 27
75 96 31
75 97 26
75 98 32
75 99 33
75 100 32
75 101 28
76 77 4
76 78 16
76 79 10
76 80 9
76 81 13
76 82 34
76 83 35
76 84 40
76 85 39
76 86 51
76 87 32
76 88 25
76 89 24
76 90 31
76 91 41
76 92 34
76 93 36
76 94 27
76 95 30
76 96 31
76 97 32
76 98 37
76 99 33
76 100 39
76 101 16
77 78 12
77 79 6
77 80 7
77 81 11
77 82 38
77 83 39
77 84 44
77 85 43
77 86 55
77 87 35
77 88 28
77 89 28
77 90 33
77 91 45
77 92 37
77 93 40
77 94 31
77 95 34
77 96 35
77 97 36
77 98 40
77 99 37
77 100 43
77 101 20
78 79 6
78 80 16
78 81 6
78 82 46
78 83 49
78 84 54
78 85 54
78 86 66
78 87 47
78 88 35
78 89 39
78 90 34
78 91 57
78 92 49
78 93 51
78 94 43
78 95 46
78 96 46
78 97 48
78 98 52
78 99 49
78 100 55
78 101 31
79 80 11
79 81 6
79 82 42
79 83 44
79 84 49
79 85 49
79 86 61
79 87 42
79 88 31
79 89 34
79 90 32
79 91 51
79 92 44
79 93 46
79 94 37
79 95 40
79 96 41
79 97 42
79 98 47
79 99 43
79 100 49
79 101 26
80 81 17
80 82 42
80 83 42
80 84 45
80 85 43
80 86 55
80 87 34
80 88 34
80 89 30
80 90 39
80 91 45
80 92 37
80 93 40
80 94 32
80 95 34
80 96 35
80 97 35
80 98 40
80 99 38
80 100 42
80 101 21
81 82 41
81 83 44
81 84 50
81 85 50
81 86 62
81 87 45
81 88 29
81 89 35
81 90 27
81 91 53
81 92 46
81 93 48
81 94 40
81 95 42
81 96 43
81 97 45
81 98 49
81 99 45
81 100 52
81 101 28
82 83 10
82 84 16
82 85 25
82 86 31
82 87 32
82 88 12
82 89 16
82 90 26
82 91 28
82 92 26
82 93 23
82 94 23
82 95 25
82 96 21
82 97 28
82 98 26
82 99 22
82 100 29
82 101 23
83 84 7
83 85 15
83 86 21
83 87 24
83 88 19
83 89 12
83 90 34
83 91 18
83 92 17
83 93 14
83 94 16
83 95 17
83 96 13
83 97 19
83 98 17
83 99 13
83 100 19
83 101 21
84 85 10
84 86 15
84 87 21
84 88 26
84 89 16
84 90 41
84 91 13
84 92 14
84 93 10
84 94 16
84 95 16
84 96 12
84 97 17
84 98 13
84 99 10
84 100 15
84 101 24
85 86 13
85 87 13
85 88 32
85 89 16
85 90 47
85 91 3
85 92 6
85 93 3
85 94 11
85 95 9
85 96 8
85 97 9
85 98 3
85 99 6
85 100 4
85 101 23
86 87 24
86 88 40
86 89 28
86 90 56
86 91 11
86 92 18
86 93 15
86 94 24
86 95 22
86 96 20
86 97 21
86 98 15
86 99 18
86 100 14
86 101 35
87 88 34
87 89 17
87 90 49
87 91 13
87 92 7
87 93 12
87 94 9
87 95 7
87 96 11
87 97 4
87 98 9
87 99 11
87 100 10
87 101 18
88 89 17
88 90 16
88 91 35
88 92 30
88 93 29
88 94 25
88 95 28
88 96 25
88 97 31
88 98 32
88 99 27
88 100 35
88 101 19
89 90 32
89 91 19
89 92 14
89 93 14
89 94 8
89 95 11
89 96 9
89 97 14
89 98 16
89 99 11
89 100 19
89 101 9
90 91 51
90 92 46
90 93 45
90 94 40
90 95 43
90 96 41
90 97 46
90 98 48
90 99 42
90 100 51
90 101 32
91 92 8
91 93 6
91 94 14
91 95 11
91 96 11
91 97 10
91 98 4
91 99 9
91 100 3
91 101 26
92 93 4
92 94 6
92 95 4
92 96 5
92 97 3
92 98 3
92 99 4
92 100 6
92 101 18
93 94 9
93 95 7
93 96 5
93 97 8
93 98 3
93 99 3
93 100 6
93 101 20
94 95 3
94 96 4
94 97 6
94 98 9
94 99 6
94 100 12
94 101 12
95 96 4
95 97 3
95 98 7
95 99 5
95 100 9
95 101 15
96 97 7
96 98 7
96 99 2
96 100 10
96 101 15
97 98 6
97 99 7
97 100 8
97 101 17
98 99 5
98 100 3
98 101 21
99 100 8
99 101 17
100 101 24
