124 7626
1 2 312
1 3 750
1 4 1062
1 5 2063
1 6 1481
1 7 1000
1 8 253
1 9 5441
1 10 5736
1 11 6329
1 12 6625
1 13 6922
1 14 6464
1 15 6563
1 16 5498
1 17 5613
1 18 4456
1 19 4278
1 20 3929
1 21 3758
1 22 2563
1 23 2728
1 24 2329
1 25 2133
1 26 2317
1 27 1300
1 28 1600
1 29 1900
1 30 2192
1 31 1938
1 32 1698
1 33 2728
1 34 2457
1 35 2200
1 36 2400
1 37 2748
1 38 2535
1 39 2906
1 40 3093
1 41 4164
1 42 4281
1 43 4441
1 44 4604
1 45 4769
1 46 5891
1 47 6165
1 48 6441
1 49 6720
1 50 7000
1 51 7282
1 52 5893
1 53 5997
1 54 5085
1 55 3482
1 56 3822
1 57 4195
1 58 4048
1 59 3147
1 60 3892
1 61 3525
1 62 4033
1 63 5532
1 64 5671
1 65 5255
1 66 4998
1 67 5964
1 68 5810
1 69 5951
1 70 6092
1 71 6234
1 72 6376
1 73 6519
1 74 6663
1 75 6807
1 76 6952
1 77 7097
1 78 7243
1 79 7389
1 80 7535
1 81 6797
1 82 6849
1 83 6220
1 84 6820
1 85 7427
1 86 7627
1 87 7683
1 88 8255
1 89 8924
1 90 8200
1 91 8469
1 92 7682
1 93 7829
1 94 7977
1 95 8125
1 96 8273
1 97 8421
1 98 8570
1 99 8719
1 100 8868
1 101 9212
1 102 9521
1 103 9660
1 104 10439
1 105 11298
1 106 11206
1 107 11116
1 108 11028
1 109 10940
1 110 10855
1 111 10771
1 112 10688
1 113 10608
1 114 10529
1 115 9160
1 116 9178
1 117 9198
1 118 9221
1 119 9246
1 120 9274
1 121 9305
1 122 9338
1 123 9373
1 124 9411
2 3 438
2 4 750
2 5 1794
2 6 1269
2 7 1050
2 8 553
2 9 5748
2 10 6044
2 11 6637
2 12 6934
2 13 7232
2 14 6768
2 15 6862
2 16 5798
2 17 5908
2 18 4737
2 19 4556
2 20 4201
2 21 4026
2 22 2811
2 23 2963
2 24 2527
2 25 2347
2 26 2472
2 27 1339
2 28 1631
2 29 1927
2 30 2054
2 31 1780
2 32 1517
2 33 2619
2 34 2335
2 35 2223
2 36 2421
2 37 2917
2 38 2718
2 39 3127
2 40 3302
2 41 4410
2 42 4532
2 43 4696
2 44 4863
2 45 5033
2 46 6176
2 47 6452
2 48 6731
2 49 7011
2 50 7293
2 51 7576
2 52 6156
2 53 6257
2 54 5330
2 55 3600
2 56 3925
2 57 4293
2 58 4093
2 59 3126
2 60 3875
2 61 3502
2 62 3958
2 63 5394
2 64 5536
2 65 5168
2 66 4920
2 67 5926
2 68 5679
2 69 5823
2 70 5967
2 71 6112
2 72 6257
2 73 6403
2 74 6549
2 75 6696
2 76 6843
2 77 6990
2 78 7138
2 79 7286
2 80 7435
2 81 6751
2 82 6819
2 83 6190
2 84 6803
2 85 7571
2 86 7791
2 87 7853
2 88 8450
2 89 9113
2 90 8351
2 91 8574
2 92 7583
2 93 7732
2 94 7882
2 95 8031
2 96 8181
2 97 8331
2 98 8482
2 99 8632
2 100 8783
2 101 9303
2 102 9657
2 103 9820
2 104 10628
2 105 11485
2 106 11391
2 107 11298
2 108 11206
2 109 11116
2 110 11028
2 111 10940
2 112 10855
2 113 10771
2 114 10688
2 115 9133
2 116 9145
2 117 9160
2 118 9178
2 119 9198
2 120 9221
2 121 9246
2 122 9274
2 123 9305
2 124 9338
3 4 312
3 5 1446
3 6 1057
3 7 1254
3 8 987
3 9 6180
3 10 6477
3 11 7071
3 12 7368
3 13 7666
3 14 7195
3 15 7284
3 16 6222
3 17 6324
3 18 5137
3 19 4954
3 20 4591
3 21 4411
3 22 3179
3 23 3314
3 24 2839
3 25 2681
3 26 2735
3 27 1504
3 28 1770
3 29 2045
3 30 1931
3 31 1636
3 32 1344
3 33 2523
3 34 2227
3 35 2327
3 36 2517
3 37 3192
3 38 3010
3 39 3461
3 40 3620
3 41 4769
3 42 4895
3 43 5065
3 44 5237
3 45 5411
3 46 6580
3 47 6859
3 48 7140
3 49 7423
3 50 7707
3 51 7992
3 52 6533
3 53 6630
3 54 5685
3 55 3802
3 56 4107
3 57 4465
3 58 4195
3 59 3148
3 60 3894
3 61 3516
3 62 3892
3 63 5226
3 64 5373
3 65 5075
3 66 4843
3 67 5901
3 68 5520
3 69 5667
3 70 5815
3 71 5964
3 72 6113
3 73 6262
3 74 6411
3 75 6561
3 76 6711
3 77 6861
3 78 7012
3 79 7163
3 80 7314
3 81 6712
3 82 6800
3 83 6175
3 84 6804
3 85 7790
3 86 8037
3 87 8104
3 88 8735
3 89 9390
3 90 8577
3 91 8738
3 92 7465
3 93 7616
3 94 7768
3 95 7919
3 96 8071
3 97 8223
3 98 8376
3 99 8528
3 100 8681
3 101 9448
3 102 9862
3 103 10058
3 104 10904
3 105 11757
3 106 11659
3 107 11562
3 108 11467
3 109 11373
3 110 11280
3 111 11189
3 112 11099
3 113 11011
3 114 10924
3 115 9112
3 116 9117
3 117 9125
3 118 9135
3 119 9148
3 120 9163
3 121 9182
3 122 9202
3 123 9226
3 124 9252
4 5 1234
4 6 1000
4 7 1464
4 8 1298
4 9 6489
4 10 6786
4 11 7380
4 12 7678
4 13 7976
4 14 7501
4 15 7586
4 16 6525
4 17 6622
4 18 5426
4 19 5241
4 20 4873
4 21 4692
4 22 3451
4 23 3575
4 24 3080
4 25 2935
4 26 2948
4 27 1683
4 28 1924
4 29 2180
4 30 1900
4 31 1600
4 32 1300
4 33 2500
4 34 2200
4 35 2446
4 36 2627
4 37 3408
4 38 3239
4 39 3712
4 40 3861
4 41 5033
4 42 5161
4 43 5335
4 44 5510
4 45 5686
4 46 6871
4 47 7152
4 48 7434
4 49 7718
4 50 8003
4 51 8289
4 52 6807
4 53 6901
4 54 5945
4 55 3970
4 56 4259
4 57 4608
4 58 4293
4 59 3201
4 60 3937
4 61 3559
4 62 3875
4 63 5126
4 64 5276
4 65 5031
4 66 4811
4 67 5903
4 68 5425
4 69 5575
4 70 5726
4 71 5876
4 72 6027
4 73 6178
4 74 6330
4 75 6481
4 76 6633
4 77 6785
4 78 6937
4 79 7090
4 80 7242
4 81 6700
4 82 6804
4 83 6183
4 84 6822
4 85 7957
4 86 8222
4 87 8293
4 88 8945
4 89 9594
4 90 8747
4 91 8866
4 92 7395
4 93 7548
4 94 7701
4 95 7854
4 96 8007
4 97 8160
4 98 8314
4 99 8467
4 100 8621
4 101 9561
4 102 10017
4 103 10235
4 104 11106
4 105 11957
4 106 11856
4 107 11757
4 108 11659
4 109 11562
4 110 11467
4 111 11373
4 112 11280
4 113 11189
4 114 11099
4 115 9111
4 116 9110
4 117 9112
4 118 9117
4 119 9125
4 120 9135
4 121 9148
4 122 9163
4 123 9182
4 124 9202
5 6 725
5 7 1825
5 8 2229
5 9 7175
5 10 7475
5 11 8075
5 12 8375
5 13 8675
5 14 8119
5 15 8153
5 16 7121
5 17 7160
5 18 5890
5 19 5693
5 20 5300
5 21 5104
5 22 3855
5 23 3905
5 24 3324
5 25 3265
5 26 3055
5 27 1854
5 28 1929
5 29 2046
5 30 1175
5 31 957
5 32 795
5 33 1689
5 34 1423
5 35 2198
5 36 2315
5 37 3493
5 38 3400
5 39 3970
5 40 4050
5 41 5313
5 42 5456
5 43 5646
5 44 5838
5 45 6030
5 46 7325
5 47 7619
5 48 7914
5 49 8209
5 50 8504
5 51 8800
5 52 7115
5 53 7188
5 54 6175
5 55 3780
5 56 3982
5 57 4278
5 58 3790
5 59 2593
5 60 3242
5 61 2887
5 62 2983
5 63 3996
5 64 4149
5 65 4030
5 66 3849
5 67 5016
5 68 4303
5 69 4457
5 70 4610
5 71 4764
5 72 4919
5 73 5073
5 74 5227
5 75 5382
5 76 5536
5 77 5691
5 78 5845
5 79 6000
5 80 6155
5 81 5765
5 82 5910
5 83 5310
5 84 5968
5 85 7647
5 86 7991
5 87 8082
5 88 8836
5 89 9445
5 90 8444
5 91 8377
5 92 6310
5 93 6465
5 94 6620
5 95 6775
5 96 6930
5 97 7085
5 98 7240
5 99 7395
5 100 7550
5 101 9009
5 102 9630
5 103 9947
5 104 10934
5 105 11766
5 106 11653
5 107 11542
5 108 11432
5 109 11323
5 110 11215
5 111 11108
5 112 11003
5 113 10898
5 114 10795
5 115 8180
5 116 8165
5 117 8153
5 118 8144
5 119 8138
5 120 8135
5 121 8135
5 122 8138
5 123 8144
5 124 8153
6 7 1100
6 8 1602
6 9 6450
6 10 6750
6 11 7350
6 12 7650
6 13 7950
6 14 7394
6 15 7430
6 16 6397
6 17 6438
6 18 5173
6 19 4977
6 20 4585
6 21 4390
6 22 3138
6 23 3197
6 24 2625
6 25 2553
6 26 2381
6 27 1140
6 28 1253
6 29 1421
6 30 900
6 31 600
6 32 300
6 33 1500
6 34 1200
6 35 1628
6 36 1780
6 37 2831
6 38 2719
6 39 3274
6 40 3368
6 41 4620
6 42 4761
6 43 4949
6 44 5139
6 45 5329
6 46 6611
6 47 6904
6 48 7198
6 49 7492
6 50 7786
6 51 8081
6 52 6423
6 53 6499
6 54 5496
6 55 3217
6 56 3460
6 57 3785
6 58 3388
6 59 2245
6 60 2965
6 61 2590
6 62 2875
6 63 4170
6 64 4316
6 65 4034
6 66 3812
6 67 4905
6 68 4463
6 69 4610
6 70 4758
6 71 4907
6 72 5056
6 73 5205
6 74 5355
6 75 5505
6 76 5656
6 77 5806
6 78 5957
6 79 6109
6 80 6260
6 81 5700
6 82 5807
6 83 5187
6 84 5828
6 85 7161
6 86 7470
6 87 7553
6 88 8267
6 89 8893
6 90 7957
6 91 7987
6 92 6412
6 93 6564
6 94 6716
6 95 6868
6 96 7021
6 97 7173
6 98 7326
6 99 7479
6 100 7632
6 101 8657
6 102 9187
6 103 9456
6 104 10395
6 105 11235
6 106 11128
6 107 11021
6 108 10916
6 109 10812
6 110 10710
6 111 10609
6 112 10509
6 113 10410
6 114 10313
6 115 8111
6 116 8110
6 117 8112
6 118 8117
6 119 8125
6 120 8136
6 121 8149
6 122 8166
6 123 8186
6 124 8209
7 8 928
7 9 5350
7 10 5650
7 11 6250
7 12 6550
7 13 6850
7 14 6297
7 15 6339
7 16 5301
7 17 5351
7 18 4099
7 19 3905
7 20 3520
7 21 3329
7 22 2072
7 23 2160
7 24 1630
7 25 1510
7 26 1485
7 27 300
7 28 600
7 29 900
7 30 1421
7 31 1253
7 32 1140
7 33 1860
7 34 1628
7 35 1200
7 36 1400
7 37 1945
7 38 1777
7 39 2273
7 40 2407
7 41 3611
7 42 3746
7 43 3927
7 44 4110
7 45 4294
7 46 5543
7 47 5833
7 48 6124
7 49 6416
7 50 6709
7 51 7002
7 52 5404
7 53 5490
7 54 4512
7 55 2561
7 56 2879
7 57 3245
7 58 3055
7 59 2158
7 60 2899
7 61 2536
7 62 3087
7 63 4673
7 64 4804
7 65 4317
7 66 4050
7 67 4978
7 68 4937
7 69 5071
7 70 5205
7 71 5342
7 72 5479
7 73 5617
7 74 5756
7 75 5896
7 76 6037
7 77 6178
7 78 6320
7 79 6463
7 80 6606
7 81 5815
7 82 5858
7 83 5229
7 84 5824
7 85 6543
7 86 6783
7 87 6850
7 88 7485
7 89 8138
7 90 7328
7 91 7526
7 92 6750
7 93 6895
7 94 7040
7 95 7185
7 96 7331
7 97 7477
7 98 7624
7 99 7771
7 100 7918
7 101 8254
7 102 8622
7 103 8806
7 104 9651
7 105 10504
7 106 10405
7 107 10308
7 108 10213
7 109 10119
7 110 10026
7 111 9935
7 112 9846
7 113 9758
7 114 9672
7 115 8167
7 116 8187
7 117 8210
7 118 8236
7 119 8264
7 120 8296
7 121 8330
7 122 8367
7 123 8407
7 124 8449
8 9 5195
8 10 5491
8 11 6085
8 12 6382
8 13 6679
8 14 6216
8 15 6312
8 16 5247
8 17 5361
8 18 4204
8 19 4026
8 20 3679
8 21 3509
8 22 2321
8 23 2493
8 24 2115
8 25 1910
8 26 2131
8 27 1221
8 28 1517
8 29 1814
8 30 2235
8 31 2001
8 32 1788
8 33 2741
8 34 2483
8 35 2112
8 36 2311
8 37 2549
8 38 2329
8 39 2676
8 40 2870
8 41 3921
8 42 4037
8 43 4195
8 44 4356
8 45 4521
8 46 5638
8 47 5912
8 48 6189
8 49 6467
8 50 6747
8 51 7029
8 52 5644
8 53 5749
8 54 4843
8 55 3314
8 56 3662
8 57 4038
8 58 3930
8 59 3084
8 60 3822
8 61 3462
8 62 4009
8 63 5557
8 64 5692
8 65 5238
8 66 4973
8 67 5903
8 68 5829
8 69 5966
8 70 6104
8 71 6243
8 72 6383
8 73 6523
8 74 6665
8 75 6807
8 76 6949
8 77 7092
8 78 7236
8 79 7380
8 80 7524
8 81 6742
8 82 6782
8 83 6153
8 84 6742
8 85 7236
8 86 7423
8 87 7477
8 88 8035
8 89 8707
8 90 8005
8 91 8302
8 92 7669
8 93 7815
8 94 7961
8 95 8107
8 96 8253
8 97 8400
8 98 8548
8 99 8695
8 100 8843
8 101 9054
8 102 9334
8 103 9458
8 104 10221
8 105 11081
8 106 10991
8 107 10902
8 108 10815
8 109 10730
8 110 10646
8 111 10563
8 112 10483
8 113 10404
8 114 10327
8 115 9088
8 116 9110
8 117 9134
8 118 9161
8 119 9191
8 120 9223
8 121 9257
8 122 9294
8 123 9334
8 124 9376
9 10 300
9 11 900
9 12 1200
9 13 1500
9 14 1089
9 15 1326
9 16 580
9 17 953
9 18 1730
9 19 1893
9 20 2237
9 21 2415
9 22 3442
9 23 3499
9 24 4081
9 25 4032
9 26 4469
9 27 5361
9 28 5389
9 29 5434
9 30 6520
9 31 6483
9 32 6459
9 33 6634
9 34 6570
9 35 5494
9 36 5543
9 37 4223
9 38 4145
9 39 3574
9 40 3664
9 41 2706
9 42 2590
9 43 2441
9 44 2299
9 45 2167
9 46 1500
9 47 1530
9 48 1616
9 49 1749
9 50 1921
9 51 2121
9 52 2314
9 53 2458
9 54 2684
9 55 4779
9 56 5014
9 57 5185
9 58 5806
9 59 6124
9 60 6429
9 61 6313
9 62 7105
9 63 8855
9 64 8926
9 65 8066
9 66 7771
9 67 7953
9 68 8998
9 69 9073
9 70 9150
9 71 9229
9 72 9310
9 73 9393
9 74 9478
9 75 9564
9 76 9652
9 77 9742
9 78 9834
9 79 9927
9 80 10022
9 81 8678
9 82 8506
9 83 8032
9 84 8291
9 85 6057
9 86 5785
9 87 5725
9 88 5583
9 89 6225
9 90 6482
9 91 7555
9 92 10118
9 93 10216
9 94 10315
9 95 10415
9 96 10517
9 97 10620
9 98 10725
9 99 10830
9 100 10937
9 101 8382
9 102 7789
9 103 7417
9 104 7476
9 105 8267
9 106 8243
9 107 8223
9 108 8205
9 109 8190
9 110 8178
9 111 8169
9 112 8163
9 113 8160
9 114 8160
9 115 10318
9 116 10414
9 117 10512
9 118 10611
9 119 10711
9 120 10813
9 121 10916
9 122 11020
9 123 11126
9 124 11232
10 11 600
10 12 900
10 13 1200
10 14 849
10 15 1137
10 16 686
10 17 1021
10 18 1977
10 19 2149
10 20 2506
10 21 2689
10 22 3736
10 23 3790
10 24 4374
10 25 4328
10 26 4760
10 27 5661
10 28 5687
10 29 5729
10 30 6817
10 31 6781
10 32 6759
10 33 6926
10 34 6865
10 35 5787
10 36 5833
10 37 4506
10 38 4434
10 39 3858
10 40 3942
10 41 2947
10 42 2825
10 43 2667
10 44 2514
10 45 2369
10 46 1530
10 47 1500
10 48 1530
10 49 1616
10 50 1749
10 51 1921
10 52 2388
10 53 2524
10 54 2855
10 55 5043
10 56 5269
10 57 5430
10 58 6063
10 59 6406
10 60 6697
10 61 6588
10 62 7379
10 63 9124
10 64 9193
10 65 8326
10 66 8033
10 67 8190
10 68 9264
10 69 9336
10 70 9411
10 71 9488
10 72 9567
10 73 9647
10 74 9730
10 75 9814
10 76 9900
10 77 9988
10 78 10077
10 79 10168
10 80 10260
10 81 8905
10 82 8726
10 83 8262
10 84 8506
10 85 6165
10 86 5867
10 87 5800
10 88 5607
10 89 6235
10 90 6559
10 91 7665
10 92 10354
10 93 10450
10 94 10547
10 95 10645
10 96 10745
10 97 10846
10 98 10948
10 99 11052
10 100 11157
10 101 8486
10 102 7845
10 103 7443
10 104 7447
10 105 8224
10 106 8206
10 107 8191
10 108 8179
10 109 8170
10 110 8164
10 111 8160
10 112 8160
10 113 8163
10 114 8169
10 115 10504
10 116 10603
10 117 10704
10 118 10805
10 119 10908
10 120 11012
10 121 11118
10 122 11224
10 123 11332
10 124 11441
11 12 300
11 13 600
11 14 576
11 15 950
11 16 1132
11 17 1361
11 18 2506
11 19 2689
11 20 3061
11 21 3249
11 22 4328
11 23 4374
11 24 4962
11 25 4922
11 26 5345
11 27 6260
11 28 6284
11 29 6322
11 30 7411
11 31 7379
11 32 7358
11 33 7512
11 34 7456
11 35 6374
11 36 6416
11 37 5079
11 38 5015
11 39 4434
11 40 4506
11 41 3458
11 42 3327
11 43 3156
11 44 2989
11 45 2825
11 46 1749
11 47 1616
11 48 1530
11 49 1500
11 50 1530
11 51 1616
11 52 2633
11 53 2751
11 54 3253
11 55 5582
11 56 5793
11 57 5934
11 58 6587
11 59 6973
11 60 7242
11 61 7145
11 62 7934
11 63 9669
11 64 9733
11 65 8855
11 66 8564
11 67 8676
11 68 9800
11 69 9869
11 70 9940
11 71 10013
11 72 10087
11 73 10164
11 74 10242
11 75 10322
11 76 10404
11 77 10487
11 78 10572
11 79 10659
11 80 10747
11 81 9371
11 82 9180
11 83 8735
11 84 8951
11 85 6418
11 86 6073
11 87 5993
11 88 5703
11 89 6297
11 90 6751
11 91 7916
11 92 10837
11 93 10928
11 94 11021
11 95 11115
11 96 11211
11 97 11308
11 98 11406
11 99 11505
11 100 11606
11 101 8724
11 102 7991
11 103 7531
11 104 7425
11 105 8171
11 106 8164
11 107 8161
11 108 8160
11 109 8162
11 110 8168
11 111 8176
11 112 8187
11 113 8201
11 114 8219
11 115 10892
11 116 10996
11 117 11101
11 118 11208
11 119 11315
11 120 11424
11 121 11534
11 122 11644
11 123 11756
11 124 11869
12 13 300
12 14 637
12 15 989
12 16 1399
12 17 1590
12 18 2781
12 19 2967
12 20 3344
12 21 3535
12 22 4625
12 23 4668
12 24 5257
12 25 5219
12 26 5638
12 27 6559
12 28 6582
12 29 6619
12 30 7709
12 31 7678
12 32 7658
12 33 7805
12 34 7751
12 35 6668
12 36 6709
12 37 5368
12 38 5307
12 39 4723
12 40 4792
12 41 3723
12 42 3590
12 43 3414
12 44 3241
12 45 3072
12 46 1921
12 47 1749
12 48 1616
12 49 1530
12 50 1500
12 51 1530
12 52 2796
12 53 2905
12 54 3474
12 55 5856
12 56 6060
12 57 6192
12 58 6854
12 59 7259
12 60 7517
12 61 7427
12 62 8213
12 63 9943
12 64 10006
12 65 9123
12 66 8833
12 67 8924
12 68 10071
12 69 10138
12 70 10207
12 71 10278
12 72 10351
12 73 10425
12 74 10502
12 75 10580
12 76 10660
12 77 10741
12 78 10824
12 79 10909
12 80 10995
12 81 9610
12 82 9413
12 83 8977
12 84 9180
12 85 6561
12 86 6195
12 87 6110
12 88 5773
12 89 6349
12 90 6864
12 91 8055
12 92 11083
12 93 11172
12 94 11263
12 95 11355
12 96 11449
12 97 11543
12 98 11640
12 99 11737
12 100 11836
12 101 8855
12 102 8080
12 103 7593
12 104 7432
12 105 8161
12 106 8160
12 107 8162
12 108 8167
12 109 8175
12 110 8186
12 111 8200
12 112 8217
12 113 8237
12 114 8260
12 115 11093
12 116 11200
12 117 11307
12 118 11416
12 119 11525
12 120 11636
12 121 11748
12 122 11860
12 123 11974
12 124 12089
13 14 813
13 15 1110
13 16 1677
13 17 1839
13 18 3061
13 19 3249
13 20 3630
13 21 3822
13 22 4922
13 23 4962
13 24 5553
13 25 5516
13 26 5933
13 27 6859
13 28 6881
13 29 6916
13 30 8007
13 31 7977
13 32 7958
13 33 8100
13 34 8048
13 35 6963
13 36 7002
13 37 5657
13 38 5600
13 39 5015
13 40 5079
13 41 3993
13 42 3858
13 43 3678
13 44 3502
13 45 3327
13 46 2121
13 47 1921
13 48 1749
13 49 1616
13 50 1530
13 51 1500
13 52 2980
13 53 3081
13 54 3706
13 55 6133
13 56 6330
13 57 6455
13 58 7123
13 59 7545
13 60 7795
13 61 7709
13 62 8494
13 63 10219
13 64 10281
13 65 9393
13 66 9104
13 67 9175
13 68 10344
13 69 10409
13 70 10476
13 71 10545
13 72 10616
13 73 10689
13 74 10763
13 75 10840
13 76 10917
13 77 10997
13 78 11078
13 79 11161
13 80 11245
13 81 9852
13 82 9650
13 83 9223
13 84 9413
13 85 6715
13 86 6329
13 87 6239
13 88 5858
13 89 6415
13 90 6989
13 91 8202
13 92 11331
13 93 11418
13 94 11507
13 95 11597
13 96 11689
13 97 11782
13 98 11876
13 99 11972
13 100 12069
13 101 8994
13 102 8178
13 103 7666
13 104 7451
13 105 8162
13 106 8167
13 107 8175
13 108 8185
13 109 8199
13 110 8216
13 111 8235
13 112 8258
13 113 8283
13 114 8311
13 115 11299
13 116 11407
13 117 11517
13 118 11627
13 119 11739
13 120 11852
13 121 11965
13 122 12080
13 123 12195
13 124 12312
14 15 375
14 16 1000
14 17 1068
14 18 2349
14 19 2545
14 20 2939
14 21 3136
14 22 4301
14 23 4314
14 24 4912
14 25 4901
14 26 5279
14 27 6279
14 28 6275
14 29 6286
14 30 7385
14 31 7375
14 32 7378
14 33 7439
14 34 7406
14 35 6311
14 36 6336
14 37 4973
14 38 4937
14 39 4342
14 40 4383
14 41 3242
14 42 3102
14 43 2915
14 44 2731
14 45 2550
14 46 1308
14 47 1116
14 48 980
14 49 925
14 50 965
14 51 1089
14 52 2171
14 53 2276
14 54 2900
14 55 5392
14 56 5571
14 57 5680
14 58 6362
14 59 6840
14 60 7053
14 61 6985
14 62 7764
14 63 9472
14 64 9528
14 65 8631
14 66 8345
14 67 8382
14 68 9587
14 69 9648
14 70 9712
14 71 9777
14 72 9844
14 73 9913
14 74 9985
14 75 10058
14 76 10133
14 77 10210
14 78 10289
14 79 10369
14 80 10451
14 81 9050
14 82 8845
14 83 8425
14 84 8606
14 85 5926
14 86 5558
14 87 5473
14 88 5148
14 89 5734
14 90 6227
14 91 7418
14 92 10535
14 93 10620
14 94 10707
14 95 10796
14 96 10886
14 97 10978
14 98 11071
14 99 11165
14 100 11261
14 101 8218
14 102 7448
14 103 6972
14 104 6850
14 105 7596
14 106 7589
14 107 7586
14 108 7585
14 109 7588
14 110 7595
14 111 7604
14 112 7617
14 113 7632
14 114 7651
14 115 10486
14 116 10594
14 117 10704
14 118 10814
14 119 10926
14 120 11039
14 121 11153
14 122 11267
14 123 11383
14 124 11500
15 16 1068
15 17 1000
15 18 2302
15 19 2502
15 20 2902
15 21 3102
15 22 4309
15 23 4300
15 24 4900
15 25 4908
15 26 5253
15 27 6304
15 28 6282
15 29 6275
15 30 7375
15 31 7381
15 32 7399
15 33 7399
15 34 7381
15 35 6282
15 36 6295
15 37 4923
15 38 4905
15 39 4306
15 40 4326
15 41 3135
15 42 2989
15 43 2796
15 44 2603
15 45 2412
15 46 1076
15 47 833
15 48 639
15 49 551
15 50 615
15 51 796
15 52 1892
15 53 1983
15 54 2698
15 55 5282
15 56 5439
15 57 5525
15 58 6224
15 59 6762
15 60 6937
15 61 6888
15 62 7659
15 63 9345
15 64 9396
15 65 8486
15 66 8205
15 67 8193
15 68 9449
15 69 9505
15 70 9563
15 71 9623
15 72 9686
15 73 9750
15 74 9817
15 75 9885
15 76 9956
15 77 10028
15 78 10102
15 79 10179
15 80 10257
15 81 8841
15 82 8627
15 83 8224
15 84 8382
15 85 5605
15 86 5221
15 87 5132
15 88 4784
15 89 5364
15 90 5884
15 91 7092
15 92 10336
15 93 10418
15 94 10501
15 95 10586
15 96 10672
15 97 10760
15 98 10849
15 99 10940
15 100 11033
15 101 7885
15 102 7091
15 103 6606
15 104 6475
15 105 7221
15 106 7214
15 107 7211
15 108 7210
15 109 7213
15 110 7220
15 111 7230
15 112 7243
15 113 7260
15 114 7280
15 115 10218
15 116 10329
15 117 10441
15 118 10554
15 119 10669
15 120 10784
15 121 10901
15 122 11018
15 123 11137
15 124 11256
16 17 375
16 18 1384
16 19 1573
16 20 1958
16 21 2153
16 22 3302
16 23 3319
16 24 3916
16 25 3901
16 26 4285
16 27 5280
16 28 5276
16 29 5288
16 30 6386
16 31 6375
16 32 6379
16 33 6449
16 34 6411
16 35 5318
16 36 5347
16 37 3992
16 38 3946
16 39 3354
16 40 3408
16 41 2326
16 42 2195
16 43 2025
16 44 1860
16 45 1703
16 46 928
16 47 998
16 48 1145
16 49 1344
16 50 1575
16 51 1827
16 52 1736
16 53 1878
16 54 2171
16 55 4458
16 56 4662
16 57 4802
16 58 5456
16 59 5872
16 60 6119
16 61 6032
16 62 6818
16 63 8545
16 64 8608
16 65 7726
16 66 7435
16 67 7547
16 68 8673
16 69 8740
16 70 8810
16 71 8882
16 72 8956
16 73 9032
16 74 9110
16 75 9190
16 76 9272
16 77 9356
16 78 9442
16 79 9530
16 80 9619
16 81 8250
16 82 8064
16 83 7611
16 84 7840
16 85 5492
16 86 5210
16 87 5148
16 88 5005
16 89 5650
16 90 5906
16 91 6991
16 92 9710
16 93 9803
16 94 9897
16 95 9993
16 96 10090
16 97 10189
16 98 10289
16 99 10390
16 100 10493
16 101 7815
16 102 7209
16 103 6838
16 104 6916
16 105 7713
16 106 7686
16 107 7663
16 108 7642
16 109 7625
16 110 7610
16 111 7599
16 112 7591
16 113 7587
16 114 7585
16 115 9822
16 116 9922
16 117 10023
16 118 10126
16 119 10230
16 120 10335
16 121 10442
16 122 10549
16 123 10658
16 124 10769
17 18 1304
17 19 1503
17 20 1903
17 21 2102
17 22 3311
17 23 3300
17 24 3900
17 25 3910
17 26 4254
17 27 5309
17 28 5284
17 29 5275
17 30 6375
17 31 6382
17 32 6403
17 33 6403
17 34 6382
17 35 5284
17 36 5299
17 37 3929
17 38 3906
17 39 3308
17 40 3334
17 41 2174
17 42 2034
17 43 1848
17 44 1666
17 45 1488
17 46 555
17 47 666
17 48 871
17 49 1119
17 50 1389
17 51 1668
17 52 1370
17 53 1510
17 54 1892
17 55 4324
17 56 4504
17 57 4618
17 58 5295
17 59 5781
17 60 5985
17 61 5920
17 62 6698
17 63 8404
17 64 8461
17 65 7564
17 66 7278
17 67 7336
17 68 8520
17 69 8582
17 70 8646
17 71 8713
17 72 8781
17 73 8853
17 74 8926
17 75 9001
17 76 9078
17 77 9158
17 78 9239
17 79 9322
17 80 9407
17 81 8020
17 82 7824
17 83 7388
17 84 7593
17 85 5144
17 86 4849
17 87 4784
17 88 4630
17 89 5275
17 90 5543
17 91 6644
17 92 9494
17 93 9583
17 94 9673
17 95 9765
17 96 9859
17 97 9954
17 98 10050
17 99 10149
17 100 10248
17 101 7465
17 102 6840
17 103 6464
17 104 6544
17 105 7345
17 106 7317
17 107 7292
17 108 7270
17 109 7252
17 110 7237
17 111 7225
17 112 7217
17 113 7212
17 114 7210
17 115 9535
17 116 9638
17 117 9742
17 118 9848
17 119 9955
17 120 10063
17 121 10172
17 122 10283
17 123 10395
17 124 10508
18 19 200
18 20 600
18 21 800
18 22 2035
18 23 2004
18 24 2603
18 25 2627
18 26 2951
18 27 4036
18 28 3995
18 29 3976
18 30 5076
18 31 5091
18 32 5123
18 33 5100
18 34 5079
18 35 3980
18 36 3995
18 37 2627
18 38 2603
18 39 2004
18 40 2035
18 41 976
18 42 866
18 43 742
18 44 656
18 45 625
18 46 1447
18 47 1734
18 48 2026
18 49 2319
18 50 2614
18 51 2910
18 52 1550
18 53 1686
18 54 1226
18 55 3077
18 56 3293
18 57 3456
18 58 4087
18 59 4493
18 60 4737
18 61 4649
18 62 5434
18 63 7163
18 64 7228
18 65 6353
18 66 6061
18 67 6224
18 68 7295
18 69 7365
18 70 7438
18 71 7513
18 72 7591
18 73 7671
18 74 7753
18 75 7838
18 76 7924
18 77 8013
18 78 8104
18 79 8197
18 80 8292
18 81 6954
18 82 6788
18 83 6305
18 84 6580
18 85 4699
18 86 4551
18 87 4526
18 88 4651
18 89 5342
18 90 5252
18 91 6158
18 92 8388
18 93 8486
18 94 8586
18 95 8688
18 96 8791
18 97 8896
18 98 9003
18 99 9110
18 100 9219
18 101 6997
18 102 6625
18 103 6410
18 104 6760
18 105 7605
18 106 7551
18 107 7500
18 108 7452
18 109 7407
18 110 7365
18 111 7326
18 112 7290
18 113 7257
18 114 7227
18 115 8658
18 116 8748
18 117 8839
18 118 8933
18 119 9028
18 120 9125
18 121 9224
18 122 9324
18 123 9426
18 124 9529
19 20 400
19 21 600
19 22 1839
19 23 1804
19 24 2403
19 25 2429
19 26 2751
19 27 3839
19 28 3796
19 29 3776
19 30 4876
19 31 4891
19 32 4925
19 33 4901
19 34 4879
19 35 3780
19 36 3796
19 37 2429
19 38 2403
19 39 1804
19 40 1839
19 41 833
19 42 742
19 43 656
19 44 625
19 45 656
19 46 1638
19 47 1928
19 48 2221
19 49 2516
19 50 2811
19 51 3108
19 52 1680
19 53 1809
19 54 1234
19 55 2896
19 56 3122
19 57 3296
19 58 3914
19 59 4300
19 60 4554
19 61 4460
19 62 5246
19 63 6981
19 64 7047
19 65 6177
19 66 5884
19 67 6069
19 68 7116
19 69 7188
19 70 7262
19 71 7339
19 72 7419
19 73 7501
19 74 7585
19 75 7671
19 76 7760
19 77 7850
19 78 7943
19 79 8038
19 80 8134
19 81 6808
19 82 6648
19 83 6157
19 84 6444
19 85 4674
19 86 4552
19 87 4533
19 88 4701
19 89 5395
19 90 5250
19 91 6120
19 92 8233
19 93 8333
19 94 8435
19 95 8538
19 96 8643
19 97 8750
19 98 8858
19 99 8968
19 100 9078
19 101 6959
19 102 6630
19 103 6440
19 104 6830
19 105 7679
19 106 7621
19 107 7566
19 108 7514
19 109 7465
19 110 7419
19 111 7376
19 112 7336
19 113 7299
19 114 7266
19 115 8545
19 116 8633
19 117 8722
19 118 8813
19 119 8906
19 120 9001
19 121 9098
19 122 9196
19 123 9296
19 124 9397
20 21 200
20 22 1449
20 23 1406
20 24 2004
20 25 2035
20 26 2351
20 27 3447
20 28 3399
20 29 3376
20 30 4476
20 31 4493
20 32 4529
20 33 4503
20 34 4479
20 35 3381
20 36 3399
20 37 2035
20 38 2004
20 39 1406
20 40 1449
20 41 643
20 42 625
20 43 656
20 44 742
20 45 866
20 46 2026
20 47 2319
20 48 2614
20 49 2910
20 50 3207
20 51 3504
20 52 1976
20 53 2091
20 54 1343
20 55 2543
20 56 2790
20 57 2990
20 58 3578
20 59 3915
20 60 4193
20 61 4085
20 62 4875
20 63 6619
20 64 6689
20 65 5831
20 66 5535
20 67 5768
20 68 6762
20 69 6837
20 70 6915
20 71 6996
20 72 7079
20 73 7165
20 74 7253
20 75 7343
20 76 7436
20 77 7531
20 78 7627
20 79 7726
20 80 7826
20 81 6524
20 82 6378
20 83 5869
20 84 6185
20 85 4651
20 86 4580
20 87 4575
20 88 4825
20 89 5521
20 90 5269
20 91 6063
20 92 7928
20 93 8032
20 94 8138
20 95 8245
20 96 8354
20 97 8464
20 98 8576
20 99 8689
20 100 8803
20 101 6900
20 102 6657
20 103 6519
20 104 6983
20 105 7839
20 106 7774
20 107 7712
20 108 7653
20 109 7597
20 110 7543
20 111 7493
20 112 7445
20 113 7400
20 114 7358
20 115 8330
20 116 8412
20 117 8497
20 118 8583
20 119 8671
20 120 8762
20 121 8854
20 122 8948
20 123 9043
20 124 9140
21 22 1257
21 23 1206
21 24 1804
21 25 1839
21 26 2151
21 27 3251
21 28 3200
21 29 3177
21 30 4276
21 31 4294
21 32 4332
21 33 4304
21 34 4280
21 35 3181
21 36 3200
21 37 1839
21 38 1804
21 39 1206
21 40 1257
21 41 627
21 42 656
21 43 742
21 44 866
21 45 1015
21 46 2221
21 47 2516
21 48 2811
21 49 3108
21 50 3405
21 51 3702
21 52 2136
21 53 2245
21 54 1436
21 55 2372
21 56 2632
21 57 2846
21 58 3415
21 59 3724
21 60 4015
21 61 3900
21 62 4691
21 63 6440
21 64 6512
21 65 5660
21 66 5364
21 67 5622
21 68 6586
21 69 6664
21 70 6744
21 71 6827
21 72 6912
21 73 7000
21 74 7090
21 75 7182
21 76 7277
21 77 7374
21 78 7472
21 79 7573
21 80 7675
21 81 6387
21 82 6248
21 83 5730
21 84 6061
21 85 4652
21 86 4607
21 87 4609
21 88 4898
21 89 5594
21 90 5290
21 91 6044
21 92 7779
21 93 7885
21 94 7993
21 95 8102
21 96 8213
21 97 8325
21 98 8438
21 99 8553
21 100 8669
21 101 6878
21 102 6679
21 103 6567
21 104 7067
21 105 7925
21 106 7857
21 107 7792
21 108 7729
21 109 7670
21 110 7613
21 111 7558
21 112 7507
21 113 7458
21 114 7413
21 115 8227
21 116 8307
21 117 8389
21 118 8473
21 119 8558
21 120 8646
21 121 8736
21 122 8828
21 123 8921
21 124 9016
22 23 250
22 24 650
22 25 600
22 26 1051
22 27 2002
22 28 1975
22 29 1994
22 30 3087
22 31 3075
22 32 3092
22 33 3197
22 34 3128
22 35 2057
22 36 2122
22 37 960
22 38 781
22 39 500
22 40 750
22 41 1601
22 42 1720
22 43 1887
22 44 2059
22 45 2236
22 46 3474
22 47 3766
22 48 4060
22 49 4354
22 50 4649
22 51 4944
22 52 3356
22 53 3452
22 54 2522
22 55 1834
22 56 2196
22 57 2530
22 58 2857
22 59 2788
22 60 3253
22 61 3046
22 62 3830
22 63 5606
22 64 5699
22 65 4935
22 66 4634
22 67 5138
22 68 5794
22 69 5892
22 70 5992
22 71 6095
22 72 6200
22 73 6307
22 74 6416
22 75 6527
22 76 6639
22 77 6754
22 78 6870
22 79 6987
22 80 7107
22 81 5960
22 82 5884
22 83 5304
22 84 5747
22 85 5197
22 86 5288
22 87 5321
22 88 5785
22 89 6470
22 90 5921
22 91 6441
22 92 7227
22 93 7349
22 94 7472
22 95 7596
22 96 7722
22 97 7848
22 98 7976
22 99 8105
22 100 8234
22 101 7248
22 102 7294
22 103 7314
22 104 7977
22 105 8838
22 106 8756
22 107 8676
22 108 8599
22 109 8523
22 110 8449
22 111 8378
22 112 8309
22 113 8243
22 114 8179
22 115 8042
22 116 8100
22 117 8161
22 118 8224
22 119 8290
22 120 8358
22 121 8429
22 122 8502
22 123 8577
22 124 8654
23 24 600
23 25 650
23 26 971
23 27 2057
23 28 1994
23 29 1975
23 30 3075
23 31 3087
23 32 3128
23 33 3138
23 34 3092
23 35 2002
23 36 2044
23 37 781
23 38 650
23 39 250
23 40 500
23 41 1458
23 42 1588
23 43 1767
23 44 1950
23 45 2136
23 46 3424
23 47 3720
23 48 4016
23 49 4313
23 50 4611
23 51 4909
23 52 3244
23 53 3332
23 54 2372
23 55 1612
23 56 1968
23 57 2294
23 58 2650
23 59 2662
23 60 3086
23 61 2898
23 62 3689
23 63 5464
23 64 5552
23 65 4767
23 66 4466
23 67 4932
23 68 5643
23 69 5736
23 70 5832
23 71 5931
23 72 6033
23 73 6136
23 74 6242
23 75 6350
23 76 6459
23 77 6571
23 78 6685
23 79 6800
23 80 6916
23 81 5749
23 82 5665
23 83 5091
23 84 5523
23 85 4955
23 86 5056
23 87 5092
23 88 5575
23 89 6257
23 90 5684
23 91 6193
23 92 7035
23 93 7154
23 94 7275
23 95 7398
23 96 7521
23 97 7646
23 98 7772
23 99 7899
23 100 8027
23 101 6999
23 102 7054
23 103 7085
23 104 7766
23 105 8628
23 106 8544
23 107 8462
23 108 8382
23 109 8304
23 110 8229
23 111 8156
23 112 8085
23 113 8016
23 114 7950
23 115 7810
23 116 7870
23 117 7932
23 118 7997
23 119 8065
23 120 8135
23 121 8208
23 122 8283
23 123 8360
23 124 8439
24 25 250
24 26 403
24 27 1490
24 28 1402
24 29 1375
24 30 2475
24 31 2490
24 32 2541
24 33 2553
24 34 2496
24 35 1413
24 36 1472
24 37 500
24 38 250
24 39 650
24 40 781
24 41 1996
24 42 2136
24 43 2324
24 44 2514
24 45 2706
24 46 4016
24 47 4313
24 48 4611
24 49 4909
24 50 5207
24 51 5505
24 52 3798
24 53 3877
24 54 2885
24 55 1414
24 56 1793
24 57 2159
24 58 2351
24 59 2151
24 60 2658
24 61 2425
24 62 3202
24 63 4975
24 64 5072
24 65 4332
24 66 4032
24 67 4611
24 68 5171
24 69 5273
24 70 5378
24 71 5485
24 72 5594
24 73 5705
24 74 5819
24 75 5935
24 76 6052
24 77 6171
24 78 6292
24 79 6414
24 80 6537
24 81 5446
24 82 5394
24 83 4796
24 84 5279
24 85 5148
24 86 5313
24 87 5365
24 88 5927
24 89 6595
24 90 5907
24 91 6291
24 92 6662
24 93 6789
24 94 6916
24 95 7045
24 96 7174
24 97 7305
24 98 7437
24 99 7569
24 100 7703
24 101 7073
24 102 7252
24 103 7349
24 104 8110
24 105 8969
24 106 8877
24 107 8788
24 108 8700
24 109 8615
24 110 8531
24 111 8449
24 112 8370
24 113 8292
24 114 8217
24 115 7604
24 116 7653
24 117 7706
24 118 7761
24 119 7819
24 120 7879
24 121 7942
24 122 8008
24 123 8076
24 124 8146
25 26 570
25 27 1413
25 28 1375
25 29 1402
25 30 2490
25 31 2475
25 32 2496
25 33 2625
25 34 2541
25 35 1490
25 36 1578
25 37 750
25 38 500
25 39 781
25 40 960
25 41 2103
25 42 2236
25 43 2417
25 44 2600
25 45 2786
25 46 4060
25 47 4354
25 48 4649
25 49 4944
25 50 5240
25 51 5537
25 52 3894
25 53 3980
25 54 3010
25 55 1662
25 56 2040
25 57 2408
25 58 2581
25 59 2305
25 60 2850
25 61 2599
25 62 3363
25 63 5131
25 64 5232
25 65 4516
25 66 4217
25 67 4831
25 68 5336
25 69 5442
25 70 5550
25 71 5661
25 72 5774
25 73 5888
25 74 6005
25 75 6123
25 76 6243
25 77 6365
25 78 6488
25 79 6612
25 80 6738
25 81 5668
25 82 5623
25 83 5022
25 84 5513
25 85 5381
25 86 5535
25 87 5583
25 88 6125
25 89 6798
25 90 6135
25 91 6536
25 92 6865
25 93 6993
25 94 7123
25 95 7253
25 96 7384
25 97 7517
25 98 7650
25 99 7784
25 100 7919
25 101 7320
25 102 7485
25 103 7570
25 104 8312
25 105 9171
25 106 9082
25 107 8995
25 108 8909
25 109 8826
25 110 8744
25 111 8664
25 112 8587
25 113 8511
25 114 8438
25 115 7842
25 116 7890
25 117 7941
25 118 7994
25 119 8050
25 120 8109
25 121 8171
25 122 8234
25 123 8301
25 124 8369
26 27 1285
26 28 1130
26 29 1040
26 30 2132
26 31 2177
26 32 2262
26 33 2167
26 34 2129
26 35 1033
26 36 1075
26 37 461
26 38 354
26 39 951
26 40 996
26 41 2268
26 42 2414
26 43 2609
26 44 2804
26 45 3001
26 46 4341
26 47 4640
26 48 4939
26 49 5238
26 50 5538
26 51 5837
26 52 4066
26 53 4135
26 54 3120
26 55 1209
26 56 1578
26 57 1956
26 58 2040
26 59 1750
26 60 2280
26 61 2033
26 62 2804
26 63 4576
26 64 4674
26 65 3947
26 66 3648
26 67 4271
26 68 4775
26 69 4879
26 70 4986
26 71 5095
26 72 5206
26 73 5320
26 74 5436
26 75 5554
26 76 5673
26 77 5795
26 78 5918
26 79 6042
26 80 6168
26 81 5111
26 82 5074
26 83 4468
26 84 4973
26 85 5109
26 86 5319
26 87 5381
26 88 6000
26 89 6655
26 90 5884
26 91 6181
26 92 6296
26 93 6424
26 94 6554
26 95 6685
26 96 6817
26 97 6950
26 98 7084
26 99 7219
26 100 7354
26 101 6945
26 102 7204
26 103 7349
26 104 8169
26 105 9023
26 106 8926
26 107 8831
26 108 8738
26 109 8646
26 110 8556
26 111 8468
26 112 8383
26 113 8299
26 114 8217
26 115 7311
26 116 7355
26 117 7402
26 118 7452
26 119 7505
26 120 7561
26 121 7619
26 122 7680
26 123 7744
26 124 7811
27 28 300
27 29 600
27 30 1253
27 31 1140
27 32 1100
27 33 1628
27 34 1421
27 35 900
27 36 1100
27 37 1745
27 38 1604
27 39 2140
27 40 2249
27 41 3487
27 42 3626
27 43 3813
27 44 4001
27 45 4190
27 46 5472
27 47 5766
27 48 6060
27 49 6355
27 50 6650
27 51 6946
27 52 5288
27 53 5367
27 54 4372
27 55 2298
27 56 2605
27 57 2968
27 58 2758
27 59 1863
27 60 2602
27 61 2241
27 62 2810
27 63 4426
27 64 4554
27 65 4041
27 66 3770
27 67 4682
27 68 4683
27 69 4814
27 70 4947
27 71 5081
27 72 5216
27 73 5352
27 74 5489
27 75 5628
27 76 5767
27 77 5907
27 78 6048
27 79 6189
27 80 6331
27 81 5521
27 82 5562
27 83 4932
27 84 5525
27 85 6286
27 86 6540
27 87 6611
27 88 7267
27 89 7912
27 90 7073
27 91 7247
27 92 6474
27 93 6618
27 94 6762
27 95 6906
27 96 7051
27 97 7196
27 98 7342
27 99 7489
27 100 7635
27 101 7969
27 102 8358
27 103 8557
27 104 9424
27 105 10274
27 106 10173
27 107 10074
27 108 9976
27 109 9880
27 110 9785
27 111 9692
27 112 9600
27 113 9510
27 114 9422
27 115 7869
27 116 7890
27 117 7914
27 118 7940
27 119 7970
27 120 8003
27 121 8038
27 122 8076
27 123 8117
27 124 8161
28 29 300
28 30 1140
28 31 1100
28 32 1140
28 33 1421
28 34 1253
28 35 600
28 36 800
28 37 1578
28 38 1472
28 39 2044
28 40 2122
28 41 3384
28 42 3527
28 43 3719
28 44 3912
28 45 4105
28 46 5417
28 47 5714
28 48 6010
28 49 6308
28 50 6605
28 51 6903
28 52 5186
28 53 5259
28 54 4248
28 55 2046
28 56 2338
28 57 2695
28 58 2462
28 59 1570
28 60 2306
28 61 1947
28 62 2538
28 63 4186
28 64 4310
28 65 3768
28 66 3493
28 67 4388
28 68 4436
28 69 4564
28 70 4693
28 71 4825
28 72 4957
28 73 5091
28 74 5226
28 75 5363
28 76 5500
28 77 5638
28 78 5778
28 79 5918
28 80 6058
28 81 5228
28 82 5265
28 83 4636
28 84 5226
28 85 6033
28 86 6302
28 87 6376
28 88 7054
28 89 7692
28 90 6823
28 91 6969
28 92 6200
28 93 6342
28 94 6485
28 95 6629
28 96 6773
28 97 6917
28 98 7062
28 99 7208
28 100 7354
28 101 7685
28 102 8096
28 103 8312
28 104 9201
28 105 10048
28 106 9945
28 107 9843
28 108 9743
28 109 9644
28 110 9547
28 111 9452
28 112 9358
28 113 9266
28 114 9175
28 115 7572
28 116 7593
28 117 7618
28 118 7645
28 119 7676
28 120 7710
28 121 7747
28 122 7787
28 123 7829
28 124 7875
29 30 1100
29 31 1140
29 32 1253
29 33 1253
29 34 1140
29 35 300
29 36 500
29 37 1455
29 38 1393
29 39 1988
29 40 2031
29 41 3305
29 42 3452
29 43 3648
29 44 3844
29 45 4041
29 46 5378
29 47 5677
29 48 5975
29 49 6274
29 50 6573
29 51 6872
29 52 5100
29 53 5165
29 54 4143
29 55 1809
29 56 2080
29 57 2428
29 58 2167
29 59 1281
29 60 2010
29 61 1655
29 62 2273
29 63 3954
29 64 4073
29 65 3500
29 66 3220
29 67 4095
29 68 4195
29 69 4319
29 70 4446
29 71 4574
29 72 4703
29 73 4835
29 74 4968
29 75 5102
29 76 5237
29 77 5373
29 78 5511
29 79 5649
29 80 5788
29 81 4936
29 82 4969
29 83 4340
29 84 4928
29 85 5784
29 86 6069
29 87 6148
29 88 6848
29 89 7478
29 90 6577
29 91 6694
29 92 5928
29 93 6069
29 94 6211
29 95 6353
29 96 6496
29 97 6640
29 98 6784
29 99 6928
29 100 7073
29 101 7403
29 102 7837
29 103 8070
29 104 8982
29 105 9825
29 106 9720
29 107 9616
29 108 9514
29 109 9413
29 110 9313
29 111 9215
29 112 9119
29 113 9024
29 114 8931
29 115 7274
29 116 7297
29 117 7322
29 118 7351
29 119 7383
29 120 7418
29 121 7456
29 122 7498
29 123 7542
29 124 7589
30 31 300
30 32 600
30 33 600
30 34 300
30 35 1140
30 36 1208
30 37 2520
30 38 2485
30 39 3083
30 40 3111
30 41 4385
30 42 4533
30 43 4731
30 44 4929
30 45 5127
30 46 6473
30 47 6772
30 48 7071
30 49 7371
30 50 7670
30 51 7969
30 52 6169
30 53 6227
30 54 5197
30 55 2658
30 56 2831
30 57 3113
30 58 2616
30 59 1423
30 60 2104
30 61 1737
30 62 1975
30 63 3343
30 64 3484
30 65 3144
30 66 2915
30 67 4006
30 68 3626
30 69 3769
30 70 3913
30 71 4058
30 72 4203
30 73 4350
30 74 4497
30 75 4644
30 76 4793
30 77 4941
30 78 5090
30 79 5240
30 80 5390
30 81 4800
30 82 4908
30 83 4289
30 84 4934
30 85 6475
30 86 6828
30 87 6922
30 88 7695
30 89 8294
30 90 7272
30 91 7208
30 92 5540
30 93 5690
30 94 5841
30 95 5992
30 96 6144
30 97 6295
30 98 6447
30 99 6599
30 100 6751
30 101 7850
30 102 8455
30 103 8775
30 104 9777
30 105 10604
30 106 10490
30 107 10377
30 108 10265
30 109 10155
30 110 10046
30 111 9938
30 112 9831
30 113 9726
30 114 9622
30 115 7211
30 116 7210
30 117 7212
30 118 7218
30 119 7227
30 120 7239
30 121 7254
30 122 7273
30 123 7295
30 124 7321
31 32 300
31 33 900
31 34 600
31 35 1253
31 36 1360
31 37 2594
31 38 2530
31 39 3119
31 40 3171
31 41 4445
31 42 4591
31 43 4786
31 44 4982
31 45 5177
31 46 6506
31 47 6803
31 48 7101
31 49 7399
31 50 7697
31 51 7995
31 52 6240
31 53 6305
31 54 5281
31 55 2825
31 56 3025
31 57 3325
31 58 2865
31 59 1689
31 60 2388
31 61 2016
31 62 2275
31 63 3615
31 64 3758
31 65 3440
31 66 3214
31 67 4306
31 68 3902
31 69 4046
31 70 4192
31 71 4338
31 72 4485
31 73 4633
31 74 4781
31 75 4930
31 76 5079
31 77 5228
31 78 5378
31 79 5528
31 80 5679
31 81 5100
31 82 5207
31 83 4588
31 84 5232
31 85 6698
31 86 7036
31 87 7126
31 88 7879
31 89 8488
31 90 7495
31 91 7465
31 92 5830
31 93 5981
31 94 6132
31 95 6284
31 96 6435
31 97 6587
31 98 6739
31 99 6892
31 100 7044
31 101 8117
31 102 8696
31 103 8998
31 104 9978
31 105 10810
31 106 10698
31 107 10588
31 108 10478
31 109 10370
31 110 10263
31 111 10157
31 112 10053
31 113 9950
31 114 9848
31 115 7511
31 116 7510
31 117 7512
31 118 7517
31 119 7526
31 120 7538
31 121 7553
31 122 7571
31 123 7592
31 124 7616
32 33 1200
32 34 900
32 35 1421
32 36 1556
32 37 2698
32 38 2609
32 39 3184
32 40 3257
32 41 4523
32 42 4667
32 43 4859
32 44 5052
32 45 5245
32 46 6552
32 47 6847
32 48 7143
32 49 7439
32 50 7736
32 51 8033
32 52 6325
32 53 6396
32 54 5381
32 55 3013
32 56 3236
32 57 3550
32 58 3123
32 59 1964
32 60 2675
32 61 2301
32 62 2575
32 63 3890
32 64 4035
32 65 3737
32 66 3513
32 67 4605
32 68 4181
32 69 4327
32 70 4474
32 71 4622
32 72 4770
32 73 4918
32 74 5067
32 75 5217
32 76 5367
32 77 5517
32 78 5667
32 79 5818
32 80 5969
32 81 5400
32 82 5507
32 83 4888
32 84 5530
32 85 6927
32 86 7250
32 87 7336
32 88 8070
32 89 8688
32 90 7724
32 91 7724
32 92 6120
32 93 6272
32 94 6424
32 95 6576
32 96 6728
32 97 6880
32 98 7032
32 99 7185
32 100 7338
32 101 8386
32 102 8940
32 103 9225
32 104 10184
32 105 11020
32 106 10911
32 107 10802
32 108 10695
32 109 10589
32 110 10485
32 111 10381
32 112 10279
32 113 10178
32 114 10079
32 115 7811
32 116 7810
32 117 7812
32 118 7817
32 119 7825
32 120 7837
32 121 7851
32 122 7868
32 123 7889
32 124 7912
33 34 300
33 35 1140
33 36 1105
33 37 2478
33 38 2503
33 39 3098
33 40 3078
33 41 4327
33 42 4477
33 43 4677
33 44 4877
33 45 5077
33 46 6450
33 47 6750
33 48 7050
33 49 7350
33 50 7650
33 51 7950
33 52 6068
33 53 6113
33 54 5077
33 55 2403
33 56 2505
33 57 2739
33 58 2157
33 59 957
33 60 1554
33 61 1206
33 62 1375
33 63 2817
33 64 2951
33 65 2555
33 66 2319
33 67 3407
33 68 3087
33 69 3225
33 70 3365
33 71 3505
33 72 3648
33 73 3791
33 74 3935
33 75 4080
33 76 4226
33 77 4372
33 78 4519
33 79 4667
33 80 4815
33 81 4200
33 82 4309
33 83 3692
33 84 4338
33 85 6048
33 86 6434
33 87 6536
33 88 7350
33 89 7926
33 90 6842
33 91 6706
33 92 4964
33 93 5113
33 94 5263
33 95 5413
33 96 5563
33 97 5714
33 98 5865
33 99 6016
33 100 6167
33 101 7324
33 102 7986
33 103 8344
33 104 9390
33 105 10205
33 106 10087
33 107 9969
33 108 9853
33 109 9738
33 110 9624
33 111 9511
33 112 9400
33 113 9289
33 114 9181
33 115 6611
33 116 6610
33 117 6612
33 118 6618
33 119 6628
33 120 6641
33 121 6658
33 122 6679
33 123 6703
33 124 6731
34 35 1100
34 36 1118
34 37 2481
34 38 2476
34 39 3076
34 40 3080
34 41 4346
34 42 4495
34 43 4694
34 44 4893
34 45 5093
34 46 6455
34 47 6755
34 48 7054
34 49 7354
34 50 7654
34 51 7954
34 52 6112
34 53 6163
34 54 5128
34 55 2516
34 56 2656
34 57 2917
34 58 2378
34 59 1175
34 60 1825
34 61 1465
34 62 1675
34 63 3077
34 64 3214
34 65 2849
34 66 2617
34 67 3707
34 68 3354
34 69 3495
34 70 3637
34 71 3780
34 72 3924
34 73 4069
34 74 4215
34 75 4361
34 76 4508
34 77 4656
34 78 4804
34 79 4953
34 80 5102
34 81 4500
34 82 4608
34 83 3990
34 84 4636
34 85 6258
34 86 6627
34 87 6725
34 88 7519
34 89 8106
34 90 7054
34 91 6955
34 92 5251
34 93 5401
34 94 5552
34 95 5702
34 96 5853
34 97 6004
34 98 6155
34 99 6307
34 100 6459
34 101 7586
34 102 8219
34 103 8557
34 104 9581
34 105 10402
34 106 10286
34 107 10171
34 108 10057
34 109 9944
34 110 9833
34 111 9722
34 112 9613
34 113 9505
34 114 9399
34 115 6911
34 116 6910
34 117 6912
34 118 6918
34 119 6927
34 120 6940
34 121 6956
34 122 6976
34 123 6999
34 124 7026
35 36 200
35 37 1386
35 38 1377
35 39 1976
35 40 1983
35 41 3253
35 42 3402
35 43 3600
35 44 3799
35 45 3998
35 46 5356
35 47 5656
35 48 5955
35 49 6255
35 50 6555
35 51 6855
35 52 5031
35 53 5088
35 54 4057
35 55 1593
35 56 1835
35 57 2171
35 58 1874
35 59 998
35 60 1716
35 61 1368
35 62 2018
35 63 3731
35 64 3845
35 65 3237
35 66 2953
35 67 3802
35 68 3963
35 69 4083
35 70 4205
35 71 4329
35 72 4455
35 73 4584
35 74 4714
35 75 4845
35 76 4978
35 77 5112
35 78 5247
35 79 5384
35 80 5521
35 81 4645
35 82 4673
35 83 4045
35 84 4630
35 85 5540
35 86 5842
35 87 5925
35 88 6649
35 89 7269
35 90 6335
35 91 6420
35 92 5660
35 93 5799
35 94 5939
35 95 6080
35 96 6222
35 97 6364
35 98 6507
35 99 6651
35 100 6795
35 101 7122
35 102 7582
35 103 7832
35 104 8768
35 105 9607
35 106 9500
35 107 9393
35 108 9288
35 109 9185
35 110 9083
35 111 8982
35 112 8884
35 113 8786
35 114 8691
35 115 6977
35 116 7000
35 117 7027
35 118 7057
35 119 7090
35 120 7127
35 121 7167
35 122 7210
35 123 7256
35 124 7305
36 37 1375
36 38 1402
36 39 1994
36 40 1975
36 41 3233
36 42 3382
36 43 3582
36 44 3782
36 45 3981
36 46 5350
36 47 5650
36 48 5950
36 49 6250
36 50 6550
36 51 6850
36 52 4994
36 53 5045
36 54 4011
36 55 1465
36 56 1682
36 57 2005
36 58 1680
36 59 816
36 60 1522
36 61 1179
36 62 1855
36 63 3589
36 64 3699
36 65 3066
36 66 2778
36 67 3608
36 68 3813
36 69 3929
36 70 4048
36 71 4170
36 72 4294
36 73 4420
36 74 4547
36 75 4677
36 76 4808
36 77 4940
36 78 5074
36 79 5209
36 80 5345
36 81 4451
36 82 4477
36 83 3849
36 84 4431
36 85 5381
36 86 5695
36 87 5781
36 88 6521
36 89 7134
36 90 6177
36 91 6239
36 92 5482
36 93 5621
36 94 5760
36 95 5900
36 96 6040
36 97 6182
36 98 6324
36 99 6467
36 100 6610
36 101 6936
36 102 7413
36 103 7676
36 104 8629
36 105 9465
36 106 9355
36 107 9247
36 108 9141
36 109 9035
36 110 8932
36 111 8830
36 112 8729
36 113 8630
36 114 8533
36 115 6779
36 116 6803
36 117 6830
36 118 6861
36 119 6896
36 120 6933
36 121 6974
36 122 7018
36 123 7066
36 124 7116
37 38 250
37 39 650
37 40 600
37 41 1867
37 42 2016
37 43 2214
37 44 2413
37 45 2612
37 46 3976
37 47 4276
37 48 4576
37 49 4876
37 50 5176
37 51 5476
37 52 3650
37 53 3712
37 54 2688
37 55 922
37 56 1299
37 57 1662
37 58 1904
37 59 1904
37 60 2305
37 61 2123
37 62 2915
37 63 4688
37 64 4774
37 65 3986
37 66 3685
37 67 4182
37 68 4863
37 69 4956
37 70 5052
37 71 5150
37 72 5252
37 73 5356
37 74 5462
37 75 5571
37 76 5682
37 77 5796
37 78 5911
37 79 6028
37 80 6146
37 81 5008
37 82 4942
37 83 4354
37 84 4816
37 85 4688
37 86 4879
37 87 4937
37 88 5543
37 89 6200
37 90 5456
37 91 5803
37 92 6267
37 93 6389
37 94 6512
37 95 6637
37 96 6763
37 97 6890
37 98 7018
37 99 7148
37 100 7278
37 101 6581
37 102 6789
37 103 6912
37 104 7715
37 105 8570
37 106 8475
37 107 8381
37 108 8289
37 109 8199
37 110 8111
37 111 8025
37 112 7942
37 113 7860
37 114 7781
37 115 7130
37 116 7183
37 117 7238
37 118 7297
37 119 7358
37 120 7423
37 121 7489
37 122 7559
37 123 7631
37 124 7706
38 39 600
38 40 650
38 41 1916
38 42 2062
38 43 2256
38 44 2452
38 45 2648
38 46 3988
38 47 4287
38 48 4587
38 49 4886
38 50 5185
38 51 5485
38 52 3717
38 53 3787
38 54 2777
38 55 1167
38 56 1545
38 57 1910
38 58 2124
38 59 2016
38 60 2475
38 61 2265
38 62 3052
38 63 4827
38 64 4919
38 65 4155
38 66 3854
38 67 4395
38 68 5013
38 69 5111
38 70 5211
38 71 5314
38 72 5420
38 73 5528
38 74 5638
38 75 5750
38 76 5865
38 77 5981
38 78 6099
38 79 6219
38 80 6340
38 81 5226
38 82 5167
38 83 4574
38 84 5046
38 85 4917
38 86 5095
38 87 5149
38 88 5733
38 89 6396
38 90 5681
38 91 6047
38 92 6463
38 93 6587
38 94 6712
38 95 6839
38 96 6967
38 97 7096
38 98 7226
38 99 7357
38 100 7489
38 101 6827
38 102 7019
38 103 7129
38 104 7911
38 105 8768
38 106 8675
38 107 8583
38 108 8493
38 109 8406
38 110 8320
38 111 8236
38 112 8155
38 113 8075
38 114 7998
38 115 7367
38 116 7418
38 117 7472
38 118 7528
38 119 7588
38 120 7650
38 121 7715
38 122 7783
38 123 7853
38 124 7925
39 40 250
39 41 1346
39 42 1487
39 43 1676
39 44 1868
39 45 2062
39 46 3391
39 47 3689
39 48 3988
39 49 4287
39 50 4587
39 51 4886
39 52 3148
39 53 3227
39 54 2239
39 55 1401
39 56 1746
39 57 2062
39 58 2452
39 59 2554
39 60 2930
39 61 2766
39 62 3560
39 63 5329
39 64 5412
39 65 4607
39 66 4307
39 67 4730
39 68 5498
39 69 5587
39 70 5679
39 71 5774
39 72 5871
39 73 5971
39 74 6073
39 75 6178
39 76 6284
39 77 6393
39 78 6504
39 79 6616
39 80 6730
39 81 5540
39 82 5449
39 83 4881
39 84 5301
39 85 4715
39 86 4826
39 87 4865
39 88 5368
39 89 6046
39 90 5449
39 91 5944
39 92 6846
39 93 6963
39 94 7082
39 95 7202
39 96 7324
39 97 7447
39 98 7571
39 99 7696
39 100 7822
39 101 6750
39 102 6816
39 103 6857
39 104 7558
39 105 8419
39 106 8333
39 107 8249
39 108 8167
39 109 8087
39 110 8010
39 111 7935
39 112 7862
39 113 7791
39 114 7724
39 115 7579
39 116 7640
39 117 7705
39 118 7772
39 119 7842
39 120 7914
39 121 7988
39 122 8065
39 123 8144
39 124 8226
40 41 1275
40 42 1422
40 43 1619
40 44 1817
40 45 2016
40 46 3376
40 47 3676
40 48 3976
40 49 4276
40 50 4576
40 51 4876
40 52 3070
40 53 3139
40 54 2127
40 55 1204
40 56 1532
40 57 1834
40 58 2264
40 59 2467
40 60 2788
40 61 2651
40 62 3444
40 63 5204
40 64 5281
40 65 4455
40 66 4156
40 67 4533
40 68 5362
40 69 5446
40 70 5533
40 71 5624
40 72 5717
40 73 5813
40 74 5911
40 75 6012
40 76 6115
40 77 6220
40 78 6327
40 79 6437
40 80 6548
40 81 5336
40 82 5236
40 83 4676
40 84 5082
40 85 4476
40 86 4597
40 87 4640
40 88 5165
40 89 5839
40 90 5214
40 91 5696
40 92 6661
40 93 6776
40 94 6892
40 95 7010
40 96 7130
40 97 7250
40 98 7373
40 99 7496
40 100 7620
40 101 6500
40 102 6578
40 103 6631
40 104 7353
40 105 8213
40 106 8125
40 107 8038
40 108 7954
40 109 7872
40 110 7793
40 111 7715
40 112 7641
40 113 7568
40 114 7498
40 115 7349
40 116 7413
40 117 7479
40 118 7548
40 119 7620
40 120 7694
40 121 7771
40 122 7850
40 123 7931
40 124 8014
41 42 150
41 43 350
41 44 550
41 45 750
41 46 2132
41 47 2431
41 48 2731
41 49 3030
41 50 3330
41 51 3629
41 52 1803
41 53 1881
41 54 922
41 55 2151
41 56 2337
41 57 2482
41 58 3130
41 59 3635
41 60 3811
41 61 3753
41 62 4526
41 63 6230
41 64 6289
41 65 5400
41 66 5111
41 67 5247
41 68 6351
41 69 6416
41 70 6484
41 71 6555
41 72 6630
41 73 6706
41 74 6786
41 75 6868
41 76 6953
41 77 7040
41 78 7130
41 79 7222
41 80 7316
41 81 5979
41 82 5817
41 83 5329
41 84 5612
41 85 4026
41 86 3983
41 87 3986
41 88 4306
41 89 5001
41 90 4664
41 91 5425
41 92 7412
41 93 7510
41 94 7610
41 95 7712
41 96 7816
41 97 7921
41 98 8028
41 99 8137
41 100 8247
41 101 6261
41 102 6053
41 103 5951
41 104 6486
41 105 7346
41 106 7274
41 107 7204
41 108 7138
41 109 7074
41 110 7013
41 111 6955
41 112 6900
41 113 6849
41 114 6800
41 115 7721
41 116 7807
41 117 7895
41 118 7984
41 119 8076
41 120 8170
41 121 8266
41 122 8364
41 123 8463
41 124 8564
42 43 200
42 44 400
42 45 600
42 46 1983
42 47 2282
42 48 2581
42 49 2880
42 50 3180
42 51 3479
42 52 1662
42 53 1744
42 54 814
42 55 2294
42 56 2472
42 57 2608
42 58 3265
42 59 3783
42 60 3953
42 61 3899
42 62 4670
42 63 6370
42 64 6427
42 65 5535
42 66 5247
42 67 5365
42 68 6488
42 69 6552
42 70 6619
42 71 6688
42 72 6761
42 73 6837
42 74 6915
42 75 6996
42 76 7079
42 77 7165
42 78 7253
42 79 7343
42 80 7435
42 81 6089
42 82 5922
42 83 5442
42 84 5713
42 85 4026
42 86 3960
42 87 3958
42 88 4244
42 89 4940
42 90 4647
42 91 5442
42 92 7530
42 93 7627
42 94 7725
42 95 7826
42 96 7928
42 97 8032
42 98 8137
42 99 8245
42 100 8353
42 101 6279
42 102 6035
42 103 5912
42 104 6418
42 105 7276
42 106 7207
42 107 7140
42 108 7076
42 109 7015
42 110 6957
42 111 6902
42 112 6851
42 113 6802
42 114 6756
42 115 7803
42 116 7891
42 117 7981
42 118 8073
42 119 8167
42 120 8263
42 121 8360
42 122 8459
42 123 8560
42 124 8663
43 44 200
43 45 400
43 46 1784
43 47 2082
43 48 2381
43 49 2681
43 50 2980
43 51 3280
43 52 1477
43 53 1566
43 54 695
43 55 2486
43 56 2656
43 57 2778
43 58 3447
43 59 3982
43 60 4143
43 61 4095
43 62 4863
43 63 6557
43 64 6613
43 65 5717
43 66 5430
43 67 5525
43 68 6672
43 69 6734
43 70 6799
43 71 6867
43 72 6938
43 73 7011
43 74 7088
43 75 7166
43 76 7248
43 77 7331
43 78 7418
43 79 7506
43 80 7596
43 81 6239
43 82 6066
43 83 5595
43 84 5852
43 85 4034
43 86 3938
43 87 3929
43 88 4170
43 89 4866
43 90 4632
43 91 5470
43 92 7689
43 93 7784
43 94 7880
43 95 7979
43 96 8079
43 97 8181
43 98 8285
43 99 8390
43 100 8497
43 101 6309
43 102 6017
43 103 5865
43 104 6331
43 105 7188
43 106 7122
43 107 7059
43 108 6999
43 109 6942
43 110 6887
43 111 6837
43 112 6789
43 113 6744
43 114 6703
43 115 7916
43 116 8007
43 117 8099
43 118 8194
43 119 8290
43 120 8388
43 121 8488
43 122 8589
43 123 8692
43 124 8797
44 45 200
44 46 1585
44 47 1883
44 48 2182
44 49 2481
44 50 2781
44 51 3080
44 52 1297
44 53 1394
44 54 618
44 55 2680
44 56 2841
44 57 2953
44 58 3631
44 59 4180
44 60 4334
44 61 4290
44 62 5057
44 63 6745
44 64 6799
44 65 5899
44 66 5613
44 67 5688
44 68 6857
44 69 6917
44 70 6980
44 71 7047
44 72 7116
44 73 7187
44 74 7262
44 75 7339
44 76 7418
44 77 7500
44 78 7584
44 79 7671
44 80 7759
44 81 6392
44 82 6212
44 83 5751
44 84 5993
44 85 4053
44 86 3927
44 87 3910
44 88 4103
44 89 4799
44 90 4625
44 91 5506
44 92 7850
44 93 7943
44 94 8037
44 95 8134
44 96 8232
44 97 8332
44 98 8434
44 99 8538
44 100 8643
44 101 6344
44 102 6005
44 103 5825
44 104 6250
44 105 7104
44 106 7042
44 107 6982
44 108 6926
44 109 6873
44 110 6823
44 111 6776
44 112 6732
44 113 6692
44 114 6655
44 115 8033
44 116 8126
44 117 8221
44 118 8317
44 119 8416
44 120 8516
44 121 8618
44 122 8722
44 123 8827
44 124 8933
45 46 1386
45 47 1684
45 48 1983
45 49 2282
45 50 2581
45 51 2880
45 52 1124
45 53 1230
45 54 602
45 55 2874
45 56 3029
45 57 3130
45 58 3816
45 59 4379
45 60 4526
45 61 4486
45 62 5251
45 63 6934
45 64 6987
45 65 6083
45 66 5798
45 67 5852
45 68 7042
45 69 7101
45 70 7163
45 71 7227
45 72 7295
45 73 7365
45 74 7437
45 75 7512
45 76 7590
45 77 7670
45 78 7752
45 79 7837
45 80 7924
45 81 6548
45 82 6362
45 83 5910
45 84 6138
45 85 4081
45 86 3926
45 87 3901
45 88 4045
45 89 4739
45 90 4627
45 91 5548
45 92 8013
45 93 8103
45 94 8196
45 95 8291
45 96 8387
45 97 8486
45 98 8586
45 99 8687
45 100 8791
45 101 6386
45 102 6000
45 103 5791
45 104 6175
45 105 7025
45 106 6966
45 107 6911
45 108 6858
45 109 6809
45 110 6763
45 111 6721
45 112 6681
45 113 6646
45 114 6613
45 115 8152
45 116 8248
45 117 8345
45 118 8444
45 119 8545
45 120 8647
45 121 8751
45 122 8857
45 123 8964
45 124 9072
46 47 300
46 48 600
46 49 900
46 50 1200
46 51 1500
46 52 884
46 53 1008
46 54 1622
46 55 4256
46 56 4392
46 57 4462
46 58 5171
46 59 5765
46 60 5900
46 61 5870
46 62 6630
46 63 8295
46 64 8342
46 65 7427
46 66 7147
46 67 7117
46 68 8393
46 69 8445
46 70 8500
46 71 8558
46 72 8618
46 73 8681
46 74 8745
46 75 8812
46 76 8882
46 77 8953
46 78 9027
46 79 9103
46 80 9180
46 81 7766
46 82 7553
46 83 7147
46 84 7310
46 85 4674
46 86 4349
46 87 4277
46 88 4086
46 89 4725
46 90 5036
46 91 6173
46 92 9260
46 93 9342
46 94 9425
46 95 9511
46 96 9598
46 97 9687
46 98 9777
46 99 9869
46 100 9963
46 101 6986
46 102 6316
46 103 5921
46 104 5989
46 105 6791
46 106 6762
46 107 6737
46 108 6715
46 109 6697
46 110 6682
46 111 6671
46 112 6664
46 113 6660
46 114 6660
46 115 9178
46 116 9286
46 117 9395
46 118 9506
46 119 9618
46 120 9731
46 121 9845
46 122 9961
46 123 10077
46 124 10195
47 48 300
47 49 600
47 50 900
47 51 1200
47 52 1061
47 53 1160
47 54 1891
47 55 4550
47 56 4681
47 57 4744
47 58 5457
47 59 6063
47 60 6191
47 61 6165
47 62 6923
47 63 8582
47 64 8628
47 65 7709
47 66 7431
47 67 7381
47 68 8676
47 69 8727
47 70 8781
47 71 8836
47 72 8895
47 73 8955
47 74 9018
47 75 9083
47 76 9150
47 77 9220
47 78 9291
47 79 9365
47 80 9441
47 81 8019
47 82 7801
47 83 7405
47 84 7553
47 85 4813
47 86 4458
47 87 4378
47 88 4119
47 89 4738
47 90 5135
47 91 6307
47 92 9518
47 93 9598
47 94 9679
47 95 9762
47 96 9847
47 97 9934
47 98 10022
47 99 10112
47 100 10203
47 101 7111
47 102 6385
47 103 5954
47 104 5953
47 105 6738
47 106 6716
47 107 6698
47 108 6683
47 109 6672
47 110 6665
47 111 6661
47 112 6660
47 113 6664
47 114 6671
47 115 9387
47 116 9497
47 117 9609
47 118 9722
47 119 9837
47 120 9952
47 121 10068
47 122 10186
47 123 10304
47 124 10424
48 49 300
48 50 600
48 51 900
48 52 1285
48 53 1362
48 54 2168
48 55 4846
48 56 4972
48 57 5028
48 58 5745
48 59 6361
48 60 6484
48 61 6461
48 62 7217
48 63 8870
48 64 8914
48 65 7993
48 66 7717
48 67 7647
48 68 8961
48 69 9011
48 70 9062
48 71 9116
48 72 9173
48 73 9232
48 74 9293
48 75 9356
48 76 9421
48 77 9488
48 78 9558
48 79 9630
48 80 9703
48 81 8275
48 82 8051
48 83 7666
48 84 7801
48 85 4966
48 86 4584
48 87 4496
48 88 4173
48 89 4769
48 90 5249
48 91 6453
48 92 9779
48 93 9856
48 94 9935
48 95 10016
48 96 10099
48 97 10183
48 98 10270
48 99 10357
48 100 10447
48 101 7247
48 102 6468
48 103 6002
48 104 5931
48 105 6699
48 106 6684
48 107 6673
48 108 6665
48 109 6661
48 110 6660
48 111 6663
48 112 6670
48 113 6681
48 114 6695
48 115 9601
48 116 9714
48 117 9828
48 118 9943
48 119 10059
48 120 10177
48 121 10295
48 122 10415
48 123 10535
48 124 10657
49 50 300
49 51 600
49 52 1535
49 53 1596
49 54 2451
49 55 5142
49 56 5264
49 57 5314
49 58 6034
49 59 6659
49 60 6777
49 61 6757
49 62 7511
49 63 9159
49 64 9202
49 65 8278
49 66 8003
49 67 7916
49 68 9247
49 69 9295
49 70 9345
49 71 9398
49 72 9452
49 73 9509
49 74 9568
49 75 9630
49 76 9693
49 77 9759
49 78 9827
49 79 9896
49 80 9968
49 81 8534
49 82 8305
49 83 7929
49 84 8051
49 85 5132
49 86 4726
49 87 4631
49 88 4248
49 89 4820
49 90 5378
49 91 6609
49 92 10041
49 93 10116
49 94 10194
49 95 10273
49 96 10353
49 97 10436
49 98 10520
49 99 10606
49 100 10693
49 101 7393
49 102 6564
49 103 6064
49 104 5925
49 105 6674
49 106 6665
49 107 6661
49 108 6660
49 109 6663
49 110 6669
49 111 6680
49 112 6693
49 113 6711
49 114 6732
49 115 9819
49 116 9934
49 117 10050
49 118 10168
49 119 10286
49 120 10406
49 121 10526
49 122 10647
49 123 10769
49 124 10892
50 51 300
50 52 1800
50 53 1848
50 54 2737
50 55 5438
50 56 5556
50 57 5601
50 58 6324
50 59 6958
50 60 7070
50 61 7054
50 62 7806
50 63 9448
50 64 9490
50 65 8563
50 66 8290
50 67 8187
50 68 9534
50 69 9580
50 70 9629
50 71 9680
50 72 9733
50 73 9788
50 74 9846
50 75 9906
50 76 9967
50 77 10031
50 78 10097
50 79 10165
50 80 10234
50 81 8795
50 82 8562
50 83 8195
50 84 8305
50 85 5311
50 86 4882
50 87 4781
50 88 4342
50 89 4888
50 90 5520
50 91 6775
50 92 10306
50 93 10379
50 94 10454
50 95 10531
50 96 10610
50 97 10691
50 98 10773
50 99 10856
50 100 10942
50 101 7547
50 102 6671
50 103 6140
50 104 5934
50 105 6661
50 106 6660
50 107 6663
50 108 6669
50 109 6679
50 110 6692
50 111 6709
50 112 6730
50 113 6754
50 114 6782
50 115 10041
50 116 10159
50 117 10277
50 118 10396
50 119 10517
50 120 10638
50 121 10760
50 122 10883
50 123 11007
50 124 11131
51 52 2075
51 53 2113
51 54 3026
51 55 5735
51 56 5849
51 57 5890
51 58 6615
51 59 7256
51 60 7364
51 61 7350
51 62 8101
51 63 9738
51 64 9779
51 65 8850
51 66 8578
51 67 8460
51 68 9821
51 69 9866
51 70 9914
51 71 9963
51 72 10015
51 73 10069
51 74 10125
51 75 10183
51 76 10243
51 77 10305
51 78 10369
51 79 10435
51 80 10503
51 81 9059
51 82 8822
51 83 8464
51 84 8562
51 85 5499
51 86 5051
51 87 4944
51 88 4455
51 89 4973
51 90 5674
51 91 6950
51 92 10572
51 93 10644
51 94 10717
51 95 10792
51 96 10869
51 97 10948
51 98 11028
51 99 11110
51 100 11193
51 101 7710
51 102 6791
51 103 6230
51 104 5958
51 105 6662
51 106 6668
51 107 6678
51 108 6691
51 109 6708
51 110 6728
51 111 6752
51 112 6779
51 113 6810
51 114 6845
51 115 10268
51 116 10387
51 117 10507
51 118 10628
51 119 10750
51 120 10873
51 121 10997
51 122 11122
51 123 11247
51 124 11373
52 53 152
52 54 1000
52 55 3750
52 56 3824
52 57 3834
52 58 4571
52 59 5301
52 60 5340
52 61 5357
52 62 6085
52 63 7685
52 64 7720
52 65 6786
52 66 6518
52 67 6387
52 68 7759
52 69 7800
52 70 7844
52 71 7892
52 72 7941
52 73 7994
52 74 8049
52 75 8107
52 76 8168
52 77 8231
52 78 8296
52 79 8364
52 80 8435
52 81 6999
52 82 6771
52 83 6396
52 84 6518
52 85 3791
52 86 3479
52 87 3414
52 88 3302
52 89 3968
52 90 4173
52 91 5291
52 92 8507
52 93 8582
52 94 8659
52 95 8738
52 96 8819
52 97 8902
52 98 8987
52 99 9074
52 100 9162
52 101 6106
52 102 5474
52 103 5126
52 104 5312
52 105 6140
52 106 6097
52 107 6058
52 108 6023
52 109 5992
52 110 5964
52 111 5941
52 112 5922
52 113 5906
52 114 5895
52 115 8326
52 116 8437
52 117 8550
52 118 8664
52 119 8779
52 120 8895
52 121 9013
52 122 9131
52 123 9251
52 124 9372
53 54 1036
53 55 3776
53 56 3835
53 57 3831
53 58 4571
53 59 5331
53 60 5348
53 61 5376
53 62 6096
53 63 7678
53 64 7710
53 65 6773
53 66 6508
53 67 6349
53 68 7746
53 69 7784
53 70 7826
53 71 7870
53 72 7917
53 73 7967
53 74 8020
53 75 8075
53 76 8133
53 77 8193
53 78 8256
53 79 8322
53 80 8389
53 81 6947
53 82 6714
53 83 6351
53 84 6458
53 85 3667
53 86 3344
53 87 3276
53 88 3152
53 89 3816
53 90 4035
53 91 5166
53 92 8460
53 93 8532
53 94 8607
53 95 8683
53 96 8762
53 97 8843
53 98 8926
53 99 9011
53 100 9098
53 101 5978
53 102 5331
53 103 4976
53 104 5160
53 105 5989
53 106 5946
53 107 5907
53 108 5871
53 109 5840
53 110 5812
53 111 5789
53 112 5770
53 113 5755
53 114 5744
53 115 8239
53 116 8351
53 117 8466
53 118 8581
53 119 8698
53 120 8816
53 121 8935
53 122 9055
53 123 9176
53 124 9298
54 55 2750
54 56 2832
54 57 2864
54 58 3590
54 59 4301
54 60 4349
54 61 4359
54 62 5092
54 63 6712
54 64 6753
54 65 5827
54 66 5553
54 67 5495
54 68 6797
54 69 6844
54 70 6895
54 71 6948
54 72 7005
54 73 7064
54 74 7127
54 75 7192
54 76 7261
54 77 7331
54 78 7405
54 79 7481
54 80 7559
54 81 6151
54 82 5945
54 83 5528
54 84 5708
54 85 3482
54 86 3325
54 87 3302
54 88 3486
54 89 4182
54 90 4026
54 91 4954
54 92 7640
54 93 7723
54 94 7809
54 95 7896
54 96 7986
54 97 8077
54 98 8171
54 99 8266
54 100 8364
54 101 5791
54 102 5401
54 103 5208
54 104 5640
54 105 6496
54 106 6431
54 107 6370
54 108 6312
54 109 6257
54 110 6206
54 111 6158
54 112 6114
54 113 6074
54 114 6037
54 115 7651
54 116 7752
54 117 7855
54 118 7959
54 119 8065
54 120 8172
54 121 8281
54 122 8392
54 123 8503
54 124 8617
55 56 378
55 57 750
55 58 1061
55 59 1557
55 60 1662
55 61 1616
55 62 2377
55 63 4087
55 64 4151
55 65 3289
55 66 2993
55 67 3331
55 68 4221
55 69 4295
55 70 4373
55 71 4455
55 72 4541
55 73 4631
55 74 4724
55 75 4821
55 76 4920
55 77 5022
55 78 5128
55 79 5235
55 80 5345
55 81 4140
55 82 4053
55 83 3481
55 84 3914
55 85 3988
55 86 4260
55 87 4339
55 88 5057
55 89 5677
55 90 4777
55 91 4989
55 92 5457
55 93 5572
55 94 5688
55 95 5806
55 96 5926
55 97 6048
55 98 6171
55 99 6296
55 100 6422
55 101 5742
55 102 6062
55 103 6266
55 104 7177
55 105 8019
55 106 7912
55 107 7808
55 108 7705
55 109 7604
55 110 7505
55 111 7408
55 112 7313
55 113 7220
55 114 7129
55 115 6215
55 116 6270
55 117 6329
55 118 6391
55 119 6457
55 120 6525
55 121 6596
55 122 6670
55 123 6747
55 124 6827
56 57 378
56 58 794
56 59 1589
56 60 1517
56 61 1557
56 62 2261
56 63 3905
56 64 3958
56 65 3063
56 66 2775
56 67 3010
56 68 4016
56 69 4079
56 70 4148
56 71 4220
56 72 4298
56 73 4379
56 74 4464
56 75 4553
56 76 4646
56 77 4742
56 78 4841
56 79 4943
56 80 5048
56 81 3805
56 82 3705
56 83 3145
56 84 3556
56 85 3705
56 86 4014
56 87 4101
56 88 4865
56 89 5464
56 90 4500
56 91 4650
56 92 5155
56 93 5265
56 94 5377
56 95 5492
56 96 5608
56 97 5726
56 98 5846
56 99 5968
56 100 6091
56 101 5392
56 102 5759
56 103 5997
56 104 6952
56 105 7786
56 106 7675
56 107 7566
56 108 7459
56 109 7354
56 110 7250
56 111 7148
56 112 7049
56 113 6951
56 114 6856
56 115 5846
56 116 5904
56 117 5965
56 118 6030
56 119 6097
56 120 6168
56 121 6242
56 122 6320
56 123 6400
56 124 6482
57 58 750
57 59 1792
57 60 1557
57 61 1684
57 62 2305
57 63 3851
57 64 3889
57 65 2965
57 66 2689
57 67 2778
57 68 3933
57 69 3983
57 70 4039
57 71 4099
57 72 4164
57 73 4235
57 74 4309
57 75 4388
57 76 4471
57 77 4558
57 78 4648
57 79 4742
57 80 4839
57 81 3544
57 82 3421
57 83 2886
57 84 3254
57 85 3377
57 86 3715
57 87 3810
57 88 4611
57 89 5190
57 90 4174
57 91 4281
57 92 4940
57 93 5042
57 94 5148
57 95 5256
57 96 5367
57 97 5479
57 98 5594
57 99 5711
57 100 5829
57 101 5017
57 102 5411
57 103 5675
57 104 6665
57 105 7490
57 106 7377
57 107 7264
57 108 7154
57 109 7045
57 110 6938
57 111 6833
57 112 6730
57 113 6628
57 114 6530
57 115 5517
57 116 5579
57 117 5645
57 118 5715
57 119 5788
57 120 5864
57 121 5943
57 122 6025
57 123 6110
57 124 6198
58 59 1204
58 60 814
58 61 999
58 62 1557
58 63 3125
58 64 3172
58 65 2270
58 66 1983
58 67 2282
58 68 3226
58 69 3287
58 70 3354
58 71 3426
58 72 3504
58 73 3587
58 74 3675
58 75 3767
58 76 3864
58 77 3964
58 78 4068
58 79 4175
58 80 4285
58 81 3104
58 82 3044
58 83 2450
58 84 2933
58 85 3893
58 86 4295
58 87 4403
58 88 5257
58 89 5804
58 90 4686
58 91 4602
58 92 4397
58 93 4513
58 94 4630
58 95 4750
58 96 4872
58 97 4996
58 98 5122
58 99 5249
58 100 5378
58 101 5272
58 102 5841
58 103 6188
58 104 7250
58 105 8057
58 106 7937
58 107 7818
58 108 7700
58 109 7583
58 110 7468
58 111 7355
58 112 7243
58 113 7133
58 114 7024
58 115 5272
58 116 5315
58 117 5362
58 118 5414
58 119 5469
58 120 5529
58 121 5592
58 122 5658
58 123 5729
58 124 5802
59 60 750
59 61 378
59 62 1061
59 63 2827
59 64 2927
59 65 2253
59 66 1964
59 67 2820
59 68 3032
59 69 3142
59 70 3255
59 71 3372
59 72 3491
59 73 3614
59 74 3739
59 75 3866
59 76 3995
59 77 4126
59 78 4259
59 79 4393
59 80 4529
59 81 3658
59 82 3702
59 83 3073
59 84 3678
59 85 5092
59 86 5478
59 87 5580
59 88 6402
59 89 6972
59 90 5887
59 91 5785
59 92 4666
59 93 4804
59 94 4944
59 95 5084
59 96 5225
59 97 5367
59 98 5509
59 99 5653
59 100 5797
59 101 6429
59 102 7043
59 103 7389
59 104 8433
59 105 9248
59 106 9129
59 107 9012
59 108 8896
59 109 8781
59 110 8668
59 111 8556
59 112 8445
59 113 8336
59 114 8228
59 115 6014
59 116 6031
59 117 6053
59 118 6078
59 119 6107
59 120 6140
59 121 6176
59 122 6217
59 123 6261
59 124 6308
60 61 378
60 62 750
60 63 2427
60 64 2497
60 65 1682
60 66 1381
60 67 2086
60 68 2574
60 69 2659
60 70 2749
60 71 2846
60 72 2947
60 73 3053
60 74 3163
60 75 3277
60 76 3394
60 77 3515
60 78 3638
60 79 3763
60 80 3891
60 81 2929
60 82 2959
60 83 2330
60 84 2929
60 85 4605
60 86 5043
60 87 5158
60 88 6038
60 89 6565
60 90 5388
60 91 5165
60 92 4020
60 93 4152
60 94 4285
60 95 4419
60 96 4555
60 97 4693
60 98 4831
60 99 4970
60 100 5111
60 101 5771
60 102 6475
60 103 6879
60 104 7988
60 105 8781
60 106 8656
60 107 8533
60 108 8410
60 109 8288
60 110 8168
60 111 8049
60 112 7931
60 113 7815
60 114 7700
60 115 5268
60 116 5288
60 117 5312
60 118 5341
60 119 5374
60 120 5411
60 121 5453
60 122 5499
60 123 5548
60 124 5602
61 62 794
61 63 2566
61 64 2654
61 65 1921
61 66 1625
61 67 2442
61 68 2748
61 69 2848
61 70 2953
61 71 3062
61 72 3175
61 73 3291
61 74 3411
61 75 3533
61 76 3658
61 77 3786
61 78 3915
61 79 4046
61 80 4179
61 81 3281
61 82 3324
61 83 2695
61 84 3302
61 85 4878
61 86 5292
61 87 5402
61 88 6255
61 89 6803
61 90 5668
61 91 5499
61 92 4314
61 93 4450
61 94 4587
61 95 4725
61 96 4865
61 97 5005
61 98 5147
61 99 5289
61 100 5432
61 101 6122
61 102 6787
61 103 7166
61 104 8245
61 105 9049
61 106 8927
61 107 8806
61 108 8687
61 109 8568
61 110 8451
61 111 8335
61 112 8220
61 113 8107
61 114 7995
61 115 5636
61 116 5653
61 117 5674
61 118 5700
61 119 5729
61 120 5763
61 121 5801
61 122 5843
61 123 5888
61 124 5937
62 63 1776
62 64 1870
62 65 1231
62 66 965
62 67 2040
62 68 1972
62 69 2081
62 70 2196
62 71 2315
62 72 2439
62 73 2566
62 74 2696
62 75 2829
62 76 2964
62 77 3101
62 78 3240
62 79 3380
62 80 3521
62 81 2825
62 82 2940
62 83 2330
62 84 2986
62 85 5223
62 86 5693
62 87 5814
62 88 6720
62 89 7223
62 90 5991
62 91 5644
62 92 3664
62 93 3808
62 94 3953
62 95 4098
62 96 4244
62 97 4391
62 98 4539
62 99 4687
62 100 4836
62 101 6185
62 102 7006
62 103 7465
62 104 8618
62 105 9394
62 106 9265
62 107 9136
62 108 9009
62 109 8883
62 110 8757
62 111 8632
62 112 8509
62 113 8387
62 114 8265
62 115 5237
62 116 5235
62 117 5237
62 118 5244
62 119 5256
62 120 5272
62 121 5292
62 122 5317
62 123 5347
62 124 5381
63 64 156
63 65 955
63 66 1179
63 67 1972
63 68 312
63 69 468
63 70 624
63 71 780
63 72 936
63 73 1092
63 74 1248
63 75 1404
63 76 1560
63 77 1716
63 78 1872
63 79 2028
63 80 2184
63 81 2296
63 82 2583
63 83 2226
63 84 2795
63 85 6130
63 86 6682
63 87 6821
63 88 7796
63 89 8197
63 90 6818
63 91 6131
63 92 2340
63 93 2496
63 94 2652
63 95 2808
63 96 2964
63 97 3120
63 98 3276
63 99 3432
63 100 3588
63 101 6471
63 102 7579
63 103 8187
63 104 9461
63 105 10163
63 106 10021
63 107 9880
63 108 9739
63 109 9599
63 110 9459
63 111 9319
63 112 9180
63 113 9042
63 114 8904
63 115 4507
63 116 4454
63 117 4406
63 118 4362
63 119 4324
63 120 4291
63 121 4264
63 122 4242
63 123 4226
63 124 4215
64 65 952
64 66 1203
64 67 1898
64 68 156
64 69 312
64 70 468
64 71 624
64 72 780
64 73 936
64 74 1092
64 75 1248
64 76 1404
64 77 1560
64 78 1716
64 79 1872
64 80 2028
64 81 2176
64 82 2471
64 83 2141
64 84 2691
64 85 6087
64 86 6645
64 87 6786
64 88 7765
64 89 8155
64 90 6766
64 91 6053
64 92 2184
64 93 2340
64 94 2496
64 95 2652
64 96 2808
64 97 2964
64 98 3120
64 99 3276
64 100 3432
64 101 6377
64 102 7503
64 103 8123
64 104 9405
64 105 10099
64 106 9957
64 107 9814
64 108 9673
64 109 9531
64 110 9390
64 111 9250
64 112 9110
64 113 8970
64 114 8831
64 115 4362
64 116 4307
64 117 4257
64 118 4212
64 119 4172
64 120 4138
64 121 4110
64 122 4087
64 123 4070
64 124 4059
65 66 301
65 67 1172
65 68 973
65 69 1019
65 70 1085
65 71 1168
65 72 1265
65 73 1374
65 74 1490
65 75 1613
65 76 1742
65 77 1875
65 78 2011
65 79 2149
65 80 2290
65 81 1765
65 82 1970
65 83 1465
65 84 2110
65 85 5194
65 86 5738
65 87 5876
65 88 6847
65 89 7259
65 90 5896
65 91 5278
65 92 2433
65 93 2577
65 94 2723
65 95 2870
65 96 3017
65 97 3166
65 98 3315
65 99 3465
65 100 3615
65 101 5679
65 102 6713
65 103 7290
65 104 8545
65 105 9262
65 106 9122
65 107 8983
65 108 8845
65 109 8707
65 110 8570
65 111 8433
65 112 8297
65 113 8162
65 114 8028
65 115 4163
65 116 4141
65 117 4125
65 118 4114
65 119 4110
65 120 4112
65 121 4119
65 122 4133
65 123 4152
65 124 4177
66 67 1219
66 68 1245
66 69 1305
66 70 1380
66 71 1468
66 72 1566
66 73 1674
66 74 1788
66 75 1909
66 76 2034
66 77 2163
66 78 2296
66 79 2431
66 80 2569
66 81 1916
66 82 2081
66 83 1521
66 84 2183
66 85 5051
66 86 5581
66 87 5716
66 88 6677
66 89 7108
66 90 5771
66 91 5216
66 92 2708
66 93 2850
66 94 2992
66 95 3136
66 96 3282
66 97 3428
66 98 3575
66 99 3722
66 100 3871
66 101 5657
66 102 6638
66 103 7188
66 104 8421
66 105 9153
66 106 9016
66 107 8879
66 108 8743
66 109 8608
66 110 8473
66 111 8339
66 112 8206
66 113 8074
66 114 7942
66 115 4332
66 116 4319
66 117 4312
66 118 4310
66 119 4314
66 120 4324
66 121 4339
66 122 4360
66 123 4386
66 124 4418
67 68 1834
67 69 1781
67 70 1741
67 71 1714
67 72 1701
67 73 1702
67 74 1718
67 75 1747
67 76 1790
67 77 1845
67 78 1911
67 79 1987
67 80 2072
67 81 846
67 82 901
67 83 302
67 84 966
67 85 4242
67 86 4819
67 87 4964
67 88 5958
67 89 6305
67 90 4890
67 91 4159
67 92 2165
67 93 2265
67 94 2370
67 95 2482
67 96 2598
67 97 2717
67 98 2841
67 99 2967
67 100 3096
67 101 4520
67 102 5607
67 103 6227
67 104 7519
67 105 8204
67 106 8061
67 107 7918
67 108 7776
67 109 7634
67 110 7492
67 111 7352
67 112 7212
67 113 7072
67 114 6934
67 115 3211
67 116 3219
67 117 3235
67 118 3258
67 119 3288
67 120 3326
67 121 3370
67 122 3421
67 123 3478
67 124 3541
68 69 156
68 70 312
68 71 468
68 72 624
68 73 780
68 74 936
68 75 1092
68 76 1248
68 77 1404
68 78 1560
68 79 1716
68 80 1872
68 81 2060
68 82 2363
68 83 2063
68 84 2593
68 85 6048
68 86 6612
68 87 6754
68 88 7737
68 89 8116
68 90 6717
68 91 5978
68 92 2028
68 93 2184
68 94 2340
68 95 2496
68 96 2652
68 97 2808
68 98 2964
68 99 3120
68 100 3276
68 101 6285
68 102 7430
68 103 8061
68 104 9351
68 105 10038
68 106 9894
68 107 9751
68 108 9608
68 109 9466
68 110 9324
68 111 9182
68 112 9041
68 113 8901
68 114 8761
68 115 4217
68 116 4160
68 117 4108
68 118 4062
68 119 4021
68 120 3985
68 121 3956
68 122 3932
68 123 3915
68 124 3903
69 70 156
69 71 312
69 72 468
69 73 624
69 74 780
69 75 936
69 76 1092
69 77 1248
69 78 1404
69 79 1560
69 80 1716
69 81 1951
69 82 2261
69 83 1995
69 84 2501
69 85 6013
69 86 6582
69 87 6725
69 88 7712
69 89 8080
69 90 6671
69 91 5906
69 92 1872
69 93 2028
69 94 2184
69 95 2340
69 96 2496
69 97 2652
69 98 2808
69 99 2964
69 100 3120
69 101 6196
69 102 7360
69 103 8001
69 104 9300
69 105 9978
69 106 9834
69 107 9690
69 108 9546
69 109 9403
69 110 9260
69 111 9117
69 112 8975
69 113 8834
69 114 8693
69 115 4074
69 116 4015
69 117 3961
69 118 3912
69 119 3870
69 120 3833
69 121 3802
69 122 3778
69 123 3759
69 124 3748
70 71 156
70 72 312
70 73 468
70 74 624
70 75 780
70 76 936
70 77 1092
70 78 1248
70 79 1404
70 80 1560
70 81 1848
70 82 2166
70 83 1938
70 84 2415
70 85 5982
70 86 6556
70 87 6700
70 88 7690
70 89 8046
70 90 6629
70 91 5838
70 92 1716
70 93 1872
70 94 2028
70 95 2184
70 96 2340
70 97 2496
70 98 2652
70 99 2808
70 100 2964
70 101 6110
70 102 7292
70 103 7945
70 104 9250
70 105 9921
70 106 9775
70 107 9631
70 108 9486
70 109 9342
70 110 9198
70 111 9054
70 112 8911
70 113 8769
70 114 8627
70 115 3931
70 116 3870
70 117 3814
70 118 3763
70 119 3719
70 120 3681
70 121 3649
70 122 3623
70 123 3604
70 124 3592
71 72 156
71 73 312
71 74 468
71 75 624
71 76 780
71 77 936
71 78 1092
71 79 1248
71 80 1404
71 81 1752
71 82 2078
71 83 1891
71 84 2336
71 85 5955
71 86 6533
71 87 6679
71 88 7672
71 89 8016
71 90 6590
71 91 5773
71 92 1560
71 93 1716
71 94 1872
71 95 2028
71 96 2184
71 97 2340
71 98 2496
71 99 2652
71 100 2808
71 101 6026
71 102 7227
71 103 7890
71 104 9203
71 105 9865
71 106 9719
71 107 9574
71 108 9428
71 109 9283
71 110 9138
71 111 8994
71 112 8850
71 113 8706
71 114 8563
71 115 3789
71 116 3725
71 117 3667
71 118 3615
71 119 3569
71 120 3529
71 121 3496
71 122 3469
71 123 3449
71 124 3436
72 73 156
72 74 312
72 75 468
72 76 624
72 77 780
72 78 936
72 79 1092
72 80 1248
72 81 1666
72 82 1998
72 83 1856
72 84 2265
72 85 5931
72 86 6514
72 87 6661
72 88 7656
72 89 7988
72 90 6554
72 91 5711
72 92 1404
72 93 1560
72 94 1716
72 95 1872
72 96 2028
72 97 2184
72 98 2340
72 99 2496
72 100 2652
72 101 5946
72 102 7165
72 103 7839
72 104 9159
72 105 9812
72 106 9665
72 107 9519
72 108 9372
72 109 9226
72 110 9081
72 111 8935
72 112 8790
72 113 8646
72 114 8502
72 115 3648
72 116 3582
72 117 3522
72 118 3467
72 119 3419
72 120 3378
72 121 3343
72 122 3315
72 123 3294
72 124 3280
73 74 156
73 75 312
73 76 468
73 77 624
73 78 780
73 79 936
73 80 1092
73 81 1591
73 82 1928
73 83 1834
73 84 2203
73 85 5912
73 86 6499
73 87 6646
73 88 7644
73 89 7963
73 90 6522
73 91 5653
73 92 1248
73 93 1404
73 94 1560
73 95 1716
73 96 1872
73 97 2028
73 98 2184
73 99 2340
73 100 2496
73 101 5868
73 102 7106
73 103 7790
73 104 9117
73 105 9761
73 106 9614
73 107 9466
73 108 9319
73 109 9172
73 110 9026
73 111 8879
73 112 8734
73 113 8588
73 114 8443
73 115 3509
73 116 3440
73 117 3377
73 118 3321
73 119 3270
73 120 3227
73 121 3190
73 122 3161
73 123 3139
73 124 3125
74 75 156
74 76 312
74 77 468
74 78 624
74 79 780
74 80 936
74 81 1528
74 82 1868
74 83 1825
74 84 2151
74 85 5896
74 86 6487
74 87 6636
74 88 7634
74 89 7942
74 90 6494
74 91 5599
74 92 1092
74 93 1248
74 94 1404
74 95 1560
74 96 1716
74 97 1872
74 98 2028
74 99 2184
74 100 2340
74 101 5794
74 102 7050
74 103 7745
74 104 9077
74 105 9713
74 106 9564
74 107 9416
74 108 9268
74 109 9120
74 110 8973
74 111 8826
74 112 8679
74 113 8533
74 114 8386
74 115 3371
74 116 3300
74 117 3234
74 118 3175
74 119 3122
74 120 3076
74 121 3038
74 122 3007
74 123 2984
74 124 2969
75 76 156
75 77 312
75 78 468
75 79 624
75 80 780
75 81 1479
75 82 1819
75 83 1830
75 84 2109
75 85 5885
75 86 6480
75 87 6629
75 88 7628
75 89 7923
75 90 6470
75 91 5549
75 92 936
75 93 1092
75 94 1248
75 95 1404
75 96 1560
75 97 1716
75 98 1872
75 99 2028
75 100 2184
75 101 5723
75 102 6996
75 103 7702
75 104 9040
75 105 9666
75 106 9517
75 107 9368
75 108 9219
75 109 9071
75 110 8923
75 111 8775
75 112 8627
75 113 8480
75 114 8333
75 115 3235
75 116 3160
75 117 3092
75 118 3029
75 119 2974
75 120 2926
75 121 2886
75 122 2853
75 123 2829
75 124 2814
76 77 156
76 78 312
76 79 468
76 80 624
76 81 1445
76 82 1783
76 83 1847
76 84 2078
76 85 5878
76 86 6476
76 87 6625
76 88 7625
76 89 7907
76 90 6449
76 91 5502
76 92 780
76 93 936
76 94 1092
76 95 1248
76 96 1404
76 97 1560
76 98 1716
76 99 1872
76 100 2028
76 101 5655
76 102 6946
76 103 7662
76 104 9006
76 105 9622
76 106 9472
76 107 9323
76 108 9173
76 109 9024
76 110 8875
76 111 8726
76 112 8578
76 113 8429
76 114 8281
76 115 3101
76 116 3023
76 117 2951
76 118 2886
76 119 2827
76 120 2777
76 121 2734
76 122 2700
76 123 2675
76 124 2658
77 78 156
77 79 312
77 80 468
77 81 1427
77 82 1760
77 83 1878
77 84 2058
77 85 5875
77 86 6475
77 87 6626
77 88 7626
77 89 7895
77 90 6431
77 91 5460
77 92 624
77 93 780
77 94 936
77 95 1092
77 96 1248
77 97 1404
77 98 1560
77 99 1716
77 100 1872
77 101 5591
77 102 6899
77 103 7625
77 104 8974
77 105 9580
77 106 9430
77 107 9279
77 108 9129
77 109 8979
77 110 8830
77 111 8680
77 112 8531
77 113 8382
77 114 8233
77 115 2969
77 116 2887
77 117 2812
77 118 2743
77 119 2682
77 120 2628
77 121 2583
77 122 2547
77 123 2520
77 124 2502
78 79 156
78 80 312
78 81 1427
78 82 1750
78 83 1920
78 84 2050
78 85 5876
78 86 6479
78 87 6630
78 88 7629
78 89 7885
78 90 6418
78 91 5422
78 92 468
78 93 624
78 94 780
78 95 936
78 96 1092
78 97 1248
78 98 1404
78 99 1560
78 100 1716
78 101 5530
78 102 6855
78 103 7591
78 104 8945
78 105 9541
78 106 9390
78 107 9239
78 108 9088
78 109 8937
78 110 8787
78 111 8636
78 112 8486
78 113 8337
78 114 8187
78 115 2839
78 116 2753
78 117 2674
78 118 2602
78 119 2537
78 120 2481
78 121 2433
78 122 2395
78 123 2366
78 124 2347
79 80 156
79 81 1443
79 82 1755
79 83 1974
79 84 2054
79 85 5882
79 86 6486
79 87 6637
79 88 7636
79 89 7879
79 90 6408
79 91 5388
79 92 312
79 93 468
79 94 624
79 95 780
79 96 936
79 97 1092
79 98 1248
79 99 1404
79 100 1560
79 101 5474
79 102 6815
79 103 7560
79 104 8918
79 105 9504
79 106 9352
79 107 9200
79 108 9049
79 109 8898
79 110 8747
79 111 8596
79 112 8445
79 113 8294
79 114 8144
79 115 2712
79 116 2622
79 117 2539
79 118 2463
79 119 2394
79 120 2335
79 121 2284
79 122 2243
79 123 2212
79 124 2192
80 81 1476
80 82 1773
80 83 2039
80 84 2070
80 85 5891
80 86 6497
80 87 6649
80 88 7645
80 89 7876
80 90 6402
80 91 5358
80 92 156
80 93 312
80 94 468
80 95 624
80 96 780
80 97 936
80 98 1092
80 99 1248
80 100 1404
80 101 5421
80 102 6778
80 103 7532
80 104 8894
80 105 9469
80 106 9317
80 107 9165
80 108 9013
80 109 8861
80 110 8709
80 111 8557
80 112 8406
80 113 8254
80 114 8103
80 115 2588
80 116 2494
80 117 2406
80 118 2326
80 119 2253
80 120 2189
80 121 2135
80 122 2091
80 123 2058
80 124 2036
81 82 340
81 83 660
81 84 633
81 85 4450
81 86 5052
81 87 5203
81 88 6202
81 89 6467
81 90 5005
81 91 4072
81 92 1524
81 93 1586
81 94 1660
81 95 1745
81 96 1840
81 97 1942
81 98 2052
81 99 2167
81 100 2286
81 101 4279
81 102 5521
81 103 6223
81 104 7563
81 105 8188
81 106 8039
81 107 7890
81 108 7742
81 109 7594
81 110 7446
81 111 7298
81 112 7151
81 113 7005
81 114 6858
81 115 2417
81 116 2410
81 117 2413
81 118 2427
81 119 2450
81 120 2482
81 121 2524
81 122 2575
81 123 2634
81 124 2701
82 83 629
82 84 300
82 85 4128
82 86 4732
82 87 4883
82 88 5881
82 89 6136
82 90 4672
82 91 3732
82 92 1804
82 93 1849
82 94 1905
82 95 1972
82 96 2048
82 97 2133
82 98 2226
82 99 2326
82 100 2431
82 101 3949
82 102 5182
82 103 5883
82 104 7224
82 105 7848
82 106 7699
82 107 7550
82 108 7402
82 109 7254
82 110 7106
82 111 6959
82 112 6812
82 113 6665
82 114 6519
82 115 2314
82 116 2329
82 117 2354
82 118 2389
82 119 2433
82 120 2486
82 121 2548
82 122 2618
82 123 2695
82 124 2778
83 84 664
83 85 4078
83 86 4665
83 87 4813
83 88 5811
83 89 6132
83 90 4700
83 91 3915
83 92 2113
83 93 2196
83 94 2286
83 95 2383
83 96 2487
83 97 2595
83 98 2708
83 99 2825
83 100 2946
83 101 4248
83 102 5367
83 103 6008
83 104 7314
83 105 7984
83 106 7839
83 107 7695
83 108 7551
83 109 7407
83 110 7264
83 111 7122
83 112 6980
83 113 6839
83 114 6698
83 115 2943
83 116 2958
83 117 2982
83 118 3013
83 119 3053
83 120 3099
83 121 3153
83 122 3213
83 123 3279
83 124 3352
84 85 3828
84 86 4432
84 87 4583
84 88 5582
84 89 5837
84 90 4373
84 91 3450
84 92 2097
84 93 2135
84 94 2184
84 95 2242
84 96 2310
84 97 2386
84 98 2469
84 99 2559
84 100 2656
84 101 3696
84 102 4902
84 103 5594
84 104 6931
84 105 7561
84 106 7413
84 107 7265
84 108 7117
84 109 6970
84 110 6823
84 111 6676
84 112 6530
84 113 6385
84 114 6239
84 115 2352
84 116 2386
84 117 2429
84 118 2482
84 119 2543
84 120 2612
84 121 2689
84 122 2772
84 123 2861
84 124 2956
85 86 608
85 87 760
85 88 1754
85 89 2068
85 90 797
85 91 1500
85 92 5905
85 93 5922
85 94 5944
85 95 5970
85 96 5999
85 97 6033
85 98 6070
85 99 6111
85 100 6156
85 101 2324
85 102 2104
85 103 2301
85 104 3396
85 105 4176
85 106 4051
85 107 3929
85 108 3808
85 109 3690
85 110 3576
85 111 3464
85 112 3356
85 113 3252
85 114 3152
85 115 4924
85 116 5059
85 117 5196
85 118 5334
85 119 5473
85 120 5613
85 121 5753
85 122 5895
85 123 6037
85 124 6180
86 87 152
86 88 1150
86 89 1533
86 90 704
86 91 1901
86 92 6512
86 93 6530
86 94 6552
86 95 6578
86 96 6607
86 97 6640
86 98 6676
86 99 6716
86 100 6759
86 101 2667
86 102 2079
86 103 2035
86 104 2956
86 105 3775
86 106 3662
86 107 3552
86 108 3446
86 109 3344
86 110 3246
86 111 3152
86 112 3064
86 113 2981
86 114 2904
86 115 5497
86 116 5636
86 117 5775
86 118 5916
86 119 6057
86 120 6198
86 121 6341
86 122 6484
86 123 6627
86 124 6772
87 88 1000
87 89 1409
87 90 759
87 91 2018
87 92 6663
87 93 6682
87 94 6704
87 95 6730
87 96 6759
87 97 6792
87 98 6828
87 99 6867
87 100 6910
87 101 2767
87 102 2100
87 103 1993
87 104 2855
87 105 3684
87 106 3575
87 107 3469
87 108 3367
87 109 3269
87 110 3176
87 111 3088
87 112 3005
87 113 2929
87 114 2859
87 115 5642
87 116 5781
87 117 5921
87 118 6062
87 119 6203
87 120 6345
87 121 6488
87 122 6632
87 123 6775
87 124 6920
88 89 696
88 90 1423
88 91 2788
88 92 7658
88 93 7675
88 94 7694
88 95 7716
88 96 7742
88 97 7770
88 98 7802
88 99 7836
88 100 7874
88 101 3414
88 102 2337
88 103 1836
88 104 2192
88 105 3053
88 106 2973
88 107 2899
88 108 2832
88 109 2772
88 110 2720
88 111 2675
88 112 2639
88 113 2612
88 114 2594
88 115 6547
88 116 6691
88 117 6835
88 118 6979
88 119 7125
88 120 7270
88 121 7416
88 122 7563
88 123 7709
88 124 7856
89 90 1477
89 91 2735
89 92 7875
89 93 7878
89 94 7884
89 95 7893
89 96 7905
89 97 7920
89 98 7938
89 99 7960
89 100 7984
89 101 3220
89 102 1931
89 103 1258
89 104 1515
89 105 2374
89 106 2287
89 107 2208
89 108 2137
89 109 2076
89 110 2024
89 111 1984
89 112 1956
89 113 1939
89 114 1935
89 115 6557
89 116 6706
89 117 6856
89 118 7006
89 119 7156
89 120 7306
89 121 7456
89 122 7607
89 123 7758
89 124 7909
90 91 1366
90 92 6400
90 93 6402
90 94 6407
90 95 6416
90 96 6429
90 97 6446
90 98 6467
90 99 6491
90 100 6519
90 101 2046
90 102 1389
90 103 1504
90 104 2651
90 105 3403
90 106 3274
90 107 3147
90 108 3022
90 109 2901
90 110 2783
90 111 2669
90 112 2559
90 113 2455
90 114 2356
90 115 5138
90 116 5284
90 117 5430
90 118 5577
90 119 5725
90 120 5872
90 121 6021
90 122 6169
90 123 6318
90 124 6467
91 92 5333
91 93 5312
91 94 5296
91 95 5285
91 96 5277
91 97 5275
91 98 5277
91 99 5284
91 100 5295
91 101 839
91 102 1455
91 103 2174
91 104 3542
91 105 4120
91 106 3970
91 107 3820
91 108 3671
91 109 3522
91 110 3374
91 111 3227
91 112 3080
91 113 2935
91 114 2791
91 115 3822
91 116 3972
91 117 4122
91 118 4273
91 119 4424
91 120 4576
91 121 4727
91 122 4879
91 123 5031
91 124 5184
92 93 156
92 94 312
92 95 468
92 96 624
92 97 780
92 98 936
92 99 1092
92 100 1248
92 101 5372
92 102 6744
92 103 7508
92 104 8873
92 105 9437
92 106 9284
92 107 9132
92 108 8979
92 109 8826
92 110 8674
92 111 8522
92 112 8370
92 113 8218
92 114 8066
92 115 2468
92 116 2369
92 117 2276
92 118 2191
92 119 2114
92 120 2046
92 121 1988
92 122 1940
92 123 1905
92 124 1881
93 94 156
93 95 312
93 96 468
93 97 624
93 98 780
93 99 936
93 100 1092
93 101 5327
93 102 6713
93 103 7486
93 104 8854
93 105 9407
93 106 9254
93 107 9101
93 108 8948
93 109 8795
93 110 8642
93 111 8489
93 112 8336
93 113 8184
93 114 8031
93 115 2352
93 116 2248
93 117 2150
93 118 2060
93 119 1977
93 120 1904
93 121 1842
93 122 1791
93 123 1752
93 124 1726
94 95 156
94 96 312
94 97 468
94 98 624
94 99 780
94 100 936
94 101 5287
94 102 6687
94 103 7468
94 104 8838
94 105 9380
94 106 9226
94 107 9073
94 108 8919
94 109 8766
94 110 8612
94 111 8459
94 112 8305
94 113 8152
94 114 7999
94 115 2240
94 116 2131
94 117 2028
94 118 1932
94 119 1844
94 120 1765
94 121 1698
94 122 1642
94 123 1600
94 124 1572
95 96 156
95 97 312
95 98 468
95 99 624
95 100 780
95 101 5251
95 102 6663
95 103 7453
95 104 8825
95 105 9356
95 106 9201
95 107 9047
95 108 8893
95 109 8739
95 110 8585
95 111 8431
95 112 8278
95 113 8124
95 114 7970
95 115 2135
95 116 2020
95 117 1911
95 118 1808
95 119 1714
95 120 1629
95 121 1556
95 122 1495
95 123 1448
95 124 1417
96 97 156
96 98 312
96 99 468
96 100 624
96 101 5219
96 102 6644
96 103 7441
96 104 8815
96 105 9334
96 106 9179
96 107 9024
96 108 8870
96 109 8716
96 110 8561
96 111 8407
96 112 8253
96 113 8098
96 114 7944
96 115 2036
96 116 1915
96 117 1799
96 118 1690
96 119 1589
96 120 1497
96 121 1417
96 122 1349
96 123 1298
96 124 1263
97 98 156
97 99 312
97 100 468
97 101 5192
97 102 6628
97 103 7432
97 104 8807
97 105 9314
97 106 9159
97 107 9004
97 108 8849
97 109 8695
97 110 8540
97 111 8385
97 112 8230
97 113 8076
97 114 7921
97 115 1944
97 116 1817
97 117 1695
97 118 1579
97 119 1470
97 120 1370
97 121 1282
97 122 1207
97 123 1149
97 124 1109
98 99 156
98 100 312
98 101 5169
98 102 6615
98 103 7427
98 104 8802
98 105 9297
98 106 9142
98 107 8987
98 108 8832
98 109 8676
98 110 8521
98 111 8366
98 112 8211
98 113 8056
98 114 7901
98 115 1861
98 116 1728
98 117 1599
98 118 1475
98 119 1358
98 120 1250
98 121 1152
98 122 1068
98 123 1002
98 124 956
99 100 156
99 101 5151
99 102 6607
99 103 7425
99 104 8800
99 105 9283
99 106 9127
99 107 8972
99 108 8816
99 109 8661
99 110 8506
99 111 8350
99 112 8195
99 113 8040
99 114 7884
99 115 1788
99 116 1649
99 117 1513
99 118 1382
99 119 1256
99 120 1138
99 121 1029
99 122 935
99 123 858
99 124 805
100 101 5138
100 102 6601
100 103 7426
100 104 8801
100 105 9271
100 106 9115
100 107 8960
100 108 8804
100 109 8648
100 110 8493
100 111 8337
100 112 8182
100 113 8026
100 114 7871
100 115 1726
100 116 1581
100 117 1439
100 118 1300
100 119 1166
100 120 1037
100 121 917
100 122 809
100 123 720
100 124 655
101 102 1492
101 103 2354
101 104 3706
101 105 4133
101 106 3978
101 107 3822
101 108 3666
101 109 3511
101 110 3355
101 111 3200
101 112 3044
101 113 2889
101 114 2733
101 115 3525
101 116 3680
101 117 3836
101 118 3991
101 119 4147
101 120 4303
101 121 4459
101 122 4614
101 123 4770
101 124 4926
102 103 870
102 104 2214
102 105 2694
102 106 2541
102 107 2388
102 108 2235
102 109 2083
102 110 1932
102 111 1781
102 112 1632
102 113 1484
102 114 1337
102 115 5014
102 116 5169
102 117 5324
102 118 5480
102 119 5635
102 120 5790
102 121 5946
102 122 6101
102 123 6257
102 124 6412
103 104 1375
103 105 1977
103 106 1834
103 107 1693
103 108 1555
103 109 1421
103 110 1292
103 111 1170
103 112 1056
103 113 954
103 114 869
103 115 5864
103 116 6019
103 117 6174
103 118 6329
103 119 6484
103 120 6639
103 121 6794
103 122 6949
103 123 7104
103 124 7259
104 105 862
104 106 792
104 107 748
104 108 735
104 109 755
104 110 806
104 111 881
104 112 976
104 113 1085
104 114 1204
104 115 7227
104 116 7383
104 117 7538
104 118 7693
104 119 7848
104 120 8004
104 121 8159
104 122 8315
104 123 8470
104 124 8625
105 106 156
105 107 312
105 108 468
105 109 624
105 110 780
105 111 936
105 112 1092
105 113 1248
105 114 1404
105 115 7640
105 116 7796
105 117 7952
105 118 8108
105 119 8264
105 120 8420
105 121 8576
105 122 8732
105 123 8888
105 124 9044
106 107 156
106 108 312
106 109 468
106 110 624
106 111 780
106 112 936
106 113 1092
106 114 1248
106 115 7484
106 116 7640
106 117 7796
106 118 7952
106 119 8108
106 120 8264
106 121 8420
106 122 8576
106 123 8732
106 124 8888
107 108 156
107 109 312
107 110 468
107 111 624
107 112 780
107 113 936
107 114 1092
107 115 7328
107 116 7484
107 117 7640
107 118 7796
107 119 7952
107 120 8108
107 121 8264
107 122 8420
107 123 8576
107 124 8732
108 109 156
108 110 312
108 111 468
108 112 624
108 113 780
108 114 936
108 115 7172
108 116 7328
108 117 7484
108 118 7640
108 119 7796
108 120 7952
108 121 8108
108 122 8264
108 123 8420
108 124 8576
109 110 156
109 111 312
109 112 468
109 113 624
109 114 780
109 115 7016
109 116 7172
109 117 7328
109 118 7484
109 119 7640
109 120 7796
109 121 7952
109 122 8108
109 123 8264
109 124 8420
110 111 156
110 112 312
110 113 468
110 114 624
110 115 6860
110 116 7016
110 117 7172
110 118 7328
110 119 7484
110 120 7640
110 121 7796
110 122 7952
110 123 8108
110 124 8264
111 112 156
111 113 312
111 114 468
111 115 6704
111 116 6860
111 117 7016
111 118 7172
111 119 7328
111 120 7484
111 121 7640
111 122 7796
111 123 7952
111 124 8108
112 113 156
112 114 312
112 115 6548
112 116 6704
112 117 6860
112 118 7016
112 119 7172
112 120 7328
112 121 7484
112 122 7640
112 123 7796
112 124 7952
113 114 156
113 115 6392
113 116 6548
113 117 6704
113 118 6860
113 119 7016
113 120 7172
113 121 7328
113 122 7484
113 123 7640
113 124 7796
114 115 6236
114 116 6392
114 117 6548
114 118 6704
114 119 6860
114 120 7016
114 121 7172
114 122 7328
114 123 7484
114 124 7640
115 116 156
115 117 312
115 118 468
115 119 624
115 120 780
115 121 936
115 122 1092
115 123 1248
115 124 1404
116 117 156
116 118 312
116 119 468
116 120 624
116 121 780
116 122 936
116 123 1092
116 124 1248
117 118 156
117 119 312
117 120 468
117 121 624
117 122 780
117 123 936
117 124 1092
118 119 156
118 120 312
118 121 468
118 122 624
118 123 780
118 124 936
119 120 156
119 121 312
119 122 468
119 123 624
119 124 780
120 121 156
120 122 312
120 123 468
120 124 624
121 122 156
121 123 312
121 124 468
122 123 156
122 124 312
123 124 156
