99 4851
1 2 14
1 3 23
1 4 28
1 5 43
1 6 52
1 7 61
1 8 71
1 9 81
1 10 17
1 11 25
1 12 27
1 13 40
1 14 42
1 15 58
1 16 67
1 17 80
1 18 87
1 19 49
1 20 40
1 21 54
1 22 52
1 23 59
1 24 69
1 25 74
1 26 84
1 27 97
1 28 68
1 29 75
1 30 68
1 31 73
1 32 83
1 33 87
1 34 96
1 35 96
1 36 106
1 37 77
1 38 92
1 39 96
1 40 97
1 41 92
1 42 99
1 43 100
1 44 107
1 45 122
1 46 105
1 47 107
1 48 100
1 49 119
1 50 110
1 51 118
1 52 122
1 53 128
1 54 134
1 55 120
1 56 130
1 57 126
1 58 130
1 59 138
1 60 128
1 61 143
1 62 146
1 63 149
1 64 142
1 65 143
1 66 150
1 67 154
1 68 158
1 69 158
1 70 159
1 71 162
1 72 166
1 73 173
1 74 158
1 75 166
1 76 175
1 77 173
1 78 169
1 79 180
1 80 171
1 81 177
1 82 191
1 83 192
1 84 186
1 85 186
1 86 195
1 87 197
1 88 193
1 89 202
1 90 206
1 91 207
1 92 213
1 93 207
1 94 214
1 95 203
1 96 215
1 97 211
1 98 218
1 99 215
2 3 9
2 4 18
2 5 33
2 6 42
2 7 52
2 8 62
2 9 71
2 10 11
2 11 11
2 12 13
2 13 26
2 14 29
2 15 45
2 16 54
2 17 67
2 18 75
2 19 40
2 20 29
2 21 40
2 22 38
2 23 45
2 24 54
2 25 60
2 26 70
2 27 83
2 28 58
2 29 63
2 30 55
2 31 59
2 32 69
2 33 73
2 34 82
2 35 82
2 36 92
2 37 66
2 38 80
2 39 84
2 40 84
2 41 78
2 42 85
2 43 85
2 44 93
2 45 107
2 46 95
2 47 96
2 48 88
2 49 107
2 50 97
2 51 104
2 52 108
2 53 114
2 54 120
2 55 110
2 56 119
2 57 114
2 58 118
2 59 125
2 60 114
2 61 129
2 62 132
2 63 135
2 64 132
2 65 132
2 66 138
2 67 142
2 68 146
2 69 145
2 70 145
2 71 148
2 72 152
2 73 162
2 74 147
2 75 154
2 76 163
2 77 160
2 78 156
2 79 167
2 80 157
2 81 163
2 82 180
2 83 181
2 84 174
2 85 174
2 86 183
2 87 184
2 88 180
2 89 188
2 90 192
2 91 196
2 92 202
2 93 195
2 94 202
2 95 191
2 96 203
2 97 198
2 98 205
2 99 202
3 4 11
3 5 25
3 6 33
3 7 44
3 8 54
3 9 62
3 10 18
3 11 11
3 12 7
3 13 19
3 14 20
3 15 35
3 16 45
3 17 58
3 18 65
3 19 41
3 20 29
3 21 35
3 22 32
3 23 36
3 24 46
3 25 51
3 26 61
3 27 74
3 28 58
3 29 61
3 30 52
3 31 54
3 32 64
3 33 66
3 34 74
3 35 73
3 36 84
3 37 65
3 38 77
3 39 80
3 40 79
3 41 73
3 42 78
3 43 78
3 44 85
3 45 99
3 46 93
3 47 94
3 48 84
3 49 102
3 50 92
3 51 98
3 52 102
3 53 107
3 54 112
3 55 108
3 56 116
3 57 111
3 58 114
3 59 120
3 60 109
3 61 123
3 62 126
3 63 128
3 64 130
3 65 129
3 66 135
3 67 138
3 68 141
3 69 140
3 70 139
3 71 142
3 72 145
3 73 160
3 74 144
3 75 151
3 76 159
3 77 156
3 78 151
3 79 161
3 80 151
3 81 157
3 82 178
3 83 178
3 84 171
3 85 170
3 86 178
3 87 179
3 88 174
3 89 183
3 90 186
3 91 194
3 92 199
3 93 192
3 94 198
3 95 186
3 96 198
3 97 193
3 98 199
3 99 196
4 5 15
4 6 24
4 7 34
4 8 44
4 9 53
4 10 28
4 11 21
4 12 16
4 13 23
4 14 15
4 15 32
4 16 40
4 17 52
4 18 59
4 19 51
4 20 38
4 21 41
4 22 37
4 23 37
4 24 46
4 25 49
4 26 59
4 27 70
4 28 67
4 29 68
4 30 59
4 31 59
4 32 68
4 33 68
4 34 75
4 35 71
4 36 81
4 37 74
4 38 85
4 39 86
4 40 85
4 41 77
4 42 81
4 43 79
4 44 84
4 45 99
4 46 101
4 47 101
4 48 90
4 49 107
4 50 96
4 51 101
4 52 104
4 53 109
4 54 112
4 55 116
4 56 123
4 57 117
4 58 119
4 59 125
4 60 113
4 61 127
4 62 128
4 63 129
4 64 138
4 65 136
4 66 141
4 67 143
4 68 146
4 69 144
4 70 143
4 71 145
4 72 147
4 73 167
4 74 151
4 75 157
4 76 165
4 77 161
4 78 155
4 79 165
4 80 154
4 81 159
4 82 186
4 83 185
4 84 177
4 85 175
4 86 183
4 87 184
4 88 179
4 89 186
4 90 189
4 91 201
4 92 206
4 93 198
4 94 204
4 95 192
4 96 203
4 97 197
4 98 203
4 99 199
5 6 9
5 7 19
5 8 29
5 9 38
5 10 43
5 11 34
5 12 28
5 13 28
5 14 12
5 15 24
5 16 29
5 17 40
5 18 45
5 19 61
5 20 48
5 21 46
5 22 40
5 23 34
5 24 41
5 25 41
5 26 51
5 27 60
5 28 74
5 29 74
5 30 64
5 31 61
5 32 67
5 33 65
5 34 69
5 35 63
5 36 72
5 37 80
5 38 89
5 39 89
5 40 86
5 41 76
5 42 78
5 43 75
5 44 77
5 45 93
5 46 106
5 47 105
5 48 93
5 49 107
5 50 95
5 51 99
5 52 100
5 53 104
5 54 106
5 55 121
5 56 126
5 57 120
5 58 120
5 59 125
5 60 111
5 61 124
5 62 124
5 63 123
5 64 142
5 65 139
5 66 143
5 67 143
5 68 146
5 69 142
5 70 140
5 71 141
5 72 142
5 73 171
5 74 154
5 75 159
5 76 166
5 77 160
5 78 154
5 79 163
5 80 151
5 81 155
5 82 189
5 83 187
5 84 178
5 85 175
5 86 183
5 87 182
5 88 177
5 89 183
5 90 186
5 91 203
5 92 208
5 93 200
5 94 204
5 95 191
5 96 201
5 97 195
5 98 200
5 99 196
6 7 11
6 8 20
6 9 29
6 10 51
6 11 42
6 12 36
6 13 33
6 14 17
6 15 21
6 16 23
6 17 33
6 18 37
6 19 67
6 20 54
6 21 49
6 22 42
6 23 34
6 24 38
6 25 37
6 26 45
6 27 52
6 28 79
6 29 77
6 30 66
6 31 61
6 32 67
6 33 63
6 34 66
6 35 57
6 36 66
6 37 84
6 38 90
6 39 90
6 40 87
6 41 75
6 42 75
6 43 71
6 44 72
6 45 88
6 46 108
6 47 107
6 48 94
6 49 107
6 50 94
6 51 96
6 52 97
6 53 100
6 54 101
6 55 123
6 56 126
6 57 120
6 58 119
6 59 124
6 60 109
6 61 121
6 62 121
6 63 119
6 64 143
6 65 139
6 66 143
6 67 142
6 68 145
6 69 140
6 70 137
6 71 138
6 72 138
6 73 171
6 74 154
6 75 158
6 76 164
6 77 158
6 78 152
6 79 160
6 80 148
6 81 151
6 82 189
6 83 187
6 84 177
6 85 174
6 86 181
6 87 180
6 88 174
6 89 180
6 90 182
6 91 203
6 92 208
6 93 199
6 94 203
6 95 189
6 96 199
6 97 192
6 98 197
6 99 192
7 8 10
7 9 20
7 10 62
7 11 52
7 12 46
7 13 43
7 14 27
7 15 28
7 16 26
7 17 31
7 18 32
7 19 77
7 20 65
7 21 58
7 22 52
7 23 41
7 24 44
7 25 40
7 26 47
7 27 51
7 28 88
7 29 86
7 30 75
7 31 69
7 32 73
7 33 68
7 34 69
7 35 58
7 36 66
7 37 93
7 38 99
7 39 97
7 40 94
7 41 82
7 42 80
7 43 75
7 44 74
7 45 89
7 46 117
7 47 115
7 48 101
7 49 113
7 50 99
7 51 100
7 52 100
7 53 103
7 54 102
7 55 131
7 56 134
7 57 127
7 58 125
7 59 129
7 60 114
7 61 125
7 62 124
7 63 121
7 64 151
7 65 146
7 66 149
7 67 148
7 68 150
7 69 144
7 70 141
7 71 141
7 72 140
7 73 178
7 74 161
7 75 164
7 76 170
7 77 163
7 78 157
7 79 164
7 80 151
7 81 153
7 82 196
7 83 193
7 84 183
7 85 179
7 86 186
7 87 184
7 88 178
7 89 183
7 90 185
7 91 209
7 92 214
7 93 205
7 94 209
7 95 194
7 96 203
7 97 196
7 98 200
7 99 195
8 9 10
8 10 72
8 11 62
8 12 56
8 13 51
8 14 36
8 15 33
8 16 29
8 17 29
8 18 27
8 19 86
8 20 73
8 21 65
8 22 59
8 23 47
8 24 47
8 25 42
8 26 47
8 27 48
8 28 96
8 29 92
8 30 81
8 31 75
8 32 77
8 33 71
8 34 70
8 35 57
8 36 64
8 37 100
8 38 104
8 39 102
8 40 98
8 41 85
8 42 81
8 43 76
8 44 73
8 45 88
8 46 122
8 47 120
8 48 106
8 49 116
8 50 102
8 51 102
8 52 100
8 53 103
8 54 101
8 55 136
8 56 138
8 57 131
8 58 128
8 59 132
8 60 116
8 61 126
8 62 124
8 63 119
8 64 155
8 65 150
8 66 152
8 67 150
8 68 152
8 69 145
8 70 141
8 71 141
8 72 139
8 73 182
8 74 165
8 75 167
8 76 172
8 77 165
8 78 158
8 79 164
8 80 151
8 81 152
8 82 200
8 83 196
8 84 186
8 85 181
8 86 188
8 87 185
8 88 179
8 89 183
8 90 184
8 91 213
8 92 217
8 93 207
8 94 210
8 95 195
8 96 204
8 97 196
8 98 200
8 99 194
9 10 80
9 11 70
9 12 64
9 13 58
9 14 44
9 15 37
9 16 30
9 17 25
9 18 20
9 19 91
9 20 79
9 21 69
9 22 63
9 23 50
9 24 48
9 25 41
9 26 45
9 27 42
9 28 100
9 29 95
9 30 84
9 31 76
9 32 78
9 33 70
9 34 67
9 35 53
9 36 58
9 37 103
9 38 106
9 39 102
9 40 98
9 41 85
9 42 79
9 43 73
9 44 68
9 45 83
9 46 124
9 47 121
9 48 106
9 49 115
9 50 100
9 51 99
9 52 97
9 53 99
9 54 95
9 55 138
9 56 138
9 57 130
9 58 126
9 59 130
9 60 113
9 61 122
9 62 120
9 63 114
9 64 156
9 65 149
9 66 151
9 67 148
9 68 150
9 69 142
9 70 137
9 71 137
9 72 134
9 73 181
9 74 164
9 75 166
9 76 170
9 77 162
9 78 154
9 79 160
9 80 147
9 81 147
9 82 199
9 83 195
9 84 183
9 85 179
9 86 184
9 87 181
9 88 175
9 89 178
9 90 179
9 91 211
9 92 215
9 93 205
9 94 208
9 95 192
9 96 200
9 97 192
9 98 195
9 99 189
10 11 12
10 12 17
10 13 30
10 14 37
10 15 51
10 16 61
10 17 74
10 18 82
10 19 32
10 20 24
10 21 39
10 22 39
10 23 48
10 24 58
10 25 65
10 26 74
10 27 89
10 28 51
10 29 58
10 30 52
10 31 57
10 32 68
10 33 74
10 34 83
10 35 85
10 36 96
10 37 60
10 38 75
10 39 80
10 40 80
10 41 77
10 42 85
10 43 86
10 44 95
10 45 109
10 46 88
10 47 90
10 48 83
10 49 103
10 50 95
10 51 103
10 52 108
10 53 114
10 54 121
10 55 103
10 56 114
10 57 109
10 58 114
10 59 121
10 60 112
10 61 127
10 62 131
10 63 135
10 64 125
10 65 126
10 66 133
10 67 138
10 68 142
10 69 142
10 70 143
10 71 146
10 72 151
10 73 156
10 74 141
10 75 149
10 76 159
10 77 156
10 78 153
10 79 164
10 80 155
10 81 162
10 82 174
10 83 175
10 84 169
10 85 169
10 86 179
10 87 180
10 88 176
10 89 186
10 90 190
10 91 190
10 92 196
10 93 190
10 94 197
10 95 187
10 96 199
10 97 194
10 98 202
10 99 199
11 12 6
11 13 17
11 14 26
11 15 39
11 16 49
11 17 62
11 18 71
11 19 30
11 20 19
11 21 29
11 22 28
11 23 36
11 24 46
11 25 53
11 26 62
11 27 77
11 28 48
11 29 52
11 30 44
11 31 48
11 32 59
11 33 63
11 34 72
11 35 73
11 36 84
11 37 56
11 38 69
11 39 73
11 40 73
11 41 67
11 42 75
11 43 75
11 44 83
11 45 98
11 46 84
11 47 85
11 48 76
11 49 95
11 50 86
11 51 93
11 52 98
11 53 104
11 54 110
11 55 99
11 56 108
11 57 103
11 58 107
11 59 114
11 60 103
11 61 118
11 62 121
11 63 125
11 64 121
11 65 121
11 66 127
11 67 131
11 68 134
11 69 134
11 70 134
11 71 137
11 72 141
11 73 151
11 74 136
11 75 143
11 76 152
11 77 149
11 78 145
11 79 156
11 80 146
11 81 153
11 82 170
11 83 170
11 84 163
11 85 162
11 86 171
11 87 173
11 88 168
11 89 177
11 90 181
11 91 185
11 92 191
11 93 184
11 94 191
11 95 180
11 96 191
11 97 187
11 98 194
11 99 191
12 13 13
12 14 20
12 15 34
12 16 43
12 17 57
12 18 65
12 19 34
12 20 22
12 21 28
12 22 26
12 23 32
12 24 42
12 25 48
12 26 58
12 27 72
12 28 51
12 29 54
12 30 45
12 31 47
12 32 57
12 33 61
12 34 69
12 35 69
12 36 80
12 37 58
12 38 70
12 39 73
12 40 73
12 41 66
12 42 72
12 43 73
12 44 80
12 45 94
12 46 86
12 47 87
12 48 77
12 49 95
12 50 85
12 51 92
12 52 96
12 53 102
12 54 107
12 55 101
12 56 109
12 57 104
12 58 107
12 59 114
12 60 102
12 61 117
12 62 120
12 63 122
12 64 123
12 65 122
12 66 128
12 67 131
12 68 134
12 69 133
12 70 133
12 71 136
12 72 139
12 73 153
12 74 137
12 75 144
12 76 152
12 77 149
12 78 144
12 79 155
12 80 145
12 81 151
12 82 171
12 83 171
12 84 164
12 85 163
12 86 172
12 87 172
12 88 168
12 89 176
12 90 180
12 91 187
12 92 192
12 93 185
12 94 191
12 95 180
12 96 191
12 97 186
12 98 193
12 99 189
13 14 16
13 15 23
13 16 33
13 17 46
13 18 55
13 19 34
13 20 22
13 21 18
13 22 14
13 23 19
13 24 29
13 25 35
13 26 45
13 27 59
13 28 46
13 29 46
13 30 36
13 31 36
13 32 45
13 33 47
13 34 56
13 35 56
13 36 67
13 37 52
13 38 62
13 39 63
13 40 62
13 41 54
13 42 60
13 43 59
13 44 66
13 45 81
13 46 79
13 47 78
13 48 67
13 49 84
13 50 73
13 51 79
13 52 83
13 53 89
13 54 94
13 55 94
13 56 100
13 57 94
13 58 96
13 59 102
13 60 90
13 61 105
13 62 107
13 63 109
13 64 115
13 65 113
13 66 118
13 67 120
13 68 123
13 69 122
13 70 121
13 71 123
13 72 126
13 73 145
13 74 128
13 75 134
13 76 142
13 77 138
13 78 133
13 79 143
13 80 133
13 81 138
13 82 163
13 83 162
13 84 154
13 85 152
13 86 161
13 87 161
13 88 156
13 89 164
13 90 168
13 91 178
13 92 183
13 93 175
13 94 181
13 95 169
13 96 180
13 97 174
13 98 181
13 99 177
14 15 17
14 16 26
14 17 38
14 18 46
14 19 50
14 20 37
14 21 34
14 22 28
14 23 23
14 24 31
14 25 34
14 26 44
14 27 56
14 28 63
14 29 62
14 30 51
14 31 49
14 32 56
14 33 55
14 34 61
14 35 56
14 36 67
14 37 68
14 38 77
14 39 77
14 40 75
14 41 65
14 42 67
14 43 65
14 44 69
14 45 85
14 46 94
14 47 93
14 48 81
14 49 96
14 50 84
14 51 88
14 52 90
14 53 95
14 54 98
14 55 109
14 56 114
14 57 108
14 58 108
14 59 114
14 60 100
14 61 114
14 62 115
14 63 115
14 64 130
14 65 127
14 66 131
14 67 132
14 68 135
14 69 132
14 70 130
14 71 131
14 72 133
14 73 159
14 74 142
14 75 147
14 76 154
14 77 149
14 78 143
14 79 153
14 80 141
14 81 145
14 82 177
14 83 175
14 84 167
14 85 164
14 86 172
14 87 172
14 88 166
14 89 173
14 90 176
14 91 191
14 92 196
14 93 188
14 94 193
14 95 180
14 96 191
14 97 184
14 98 190
14 99 186
15 16 10
15 17 23
15 18 32
15 19 55
15 20 44
15 21 32
15 22 26
15 23 14
15 24 17
15 25 17
15 26 27
15 27 39
15 28 63
15 29 59
15 30 48
15 31 42
15 32 46
15 33 42
15 34 45
15 35 39
15 36 50
15 37 66
15 38 71
15 39 69
15 40 66
15 41 54
15 42 54
15 43 51
15 44 53
15 45 69
15 46 89
15 47 87
15 48 73
15 49 86
15 50 73
15 51 75
15 52 76
15 53 80
15 54 82
15 55 104
15 56 106
15 57 99
15 58 98
15 59 103
15 60 88
15 61 100
15 62 100
15 63 99
15 64 123
15 65 119
15 66 122
15 67 121
15 68 124
15 69 119
15 70 117
15 71 117
15 72 118
15 73 151
15 74 134
15 75 137
15 76 143
15 77 137
15 78 131
15 79 139
15 80 127
15 81 131
15 82 169
15 83 166
15 84 156
15 85 153
15 86 160
15 87 159
15 88 153
15 89 160
15 90 162
15 91 182
15 92 187
15 93 178
15 94 182
15 95 168
15 96 178
15 97 171
15 98 177
15 99 172
16 17 13
16 18 22
16 19 64
16 20 54
16 21 41
16 22 35
16 23 21
16 24 19
16 25 14
16 26 22
16 27 30
16 28 71
16 29 65
16 30 55
16 31 47
16 32 49
16 33 42
16 34 43
16 35 34
16 36 43
16 37 73
16 38 76
16 39 73
16 40 69
16 41 56
16 42 54
16 43 49
16 44 49
16 45 65
16 46 94
16 47 91
16 48 77
16 49 87
16 50 73
16 51 74
16 52 74
16 53 78
16 54 77
16 55 108
16 56 109
16 57 102
16 58 99
16 59 104
16 60 88
16 61 99
16 62 98
16 63 96
16 64 127
16 65 121
16 66 124
16 67 122
16 68 124
16 69 118
16 70 115
16 71 115
16 72 115
16 73 153
16 74 136
16 75 139
16 76 144
16 77 137
16 78 130
16 79 138
16 80 125
16 81 128
16 82 171
16 83 168
16 84 157
16 85 153
16 86 160
16 87 158
16 88 152
16 89 157
16 90 159
16 91 184
16 92 189
16 93 179
16 94 183
16 95 168
16 96 177
16 97 170
16 98 174
16 99 169
17 18 10
17 19 76
17 20 66
17 21 52
17 22 46
17 23 32
17 24 26
17 25 18
17 26 19
17 27 20
17 28 81
17 29 74
17 30 64
17 31 54
17 32 54
17 33 45
17 34 42
17 35 28
17 36 35
17 37 82
17 38 83
17 39 79
17 40 74
17 41 60
17 42 54
17 43 48
17 44 44
17 45 59
17 46 101
17 47 97
17 48 82
17 49 89
17 50 75
17 51 74
17 52 72
17 53 74
17 54 72
17 55 114
17 56 113
17 57 105
17 58 101
17 59 104
17 60 88
17 61 97
17 62 95
17 63 90
17 64 131
17 65 125
17 66 126
17 67 123
17 68 124
17 69 117
17 70 113
17 71 112
17 72 110
17 73 156
17 74 139
17 75 140
17 76 145
17 77 137
17 78 129
17 79 136
17 80 122
17 81 123
17 82 174
17 83 170
17 84 158
17 85 153
17 86 159
17 87 156
17 88 150
17 89 154
17 90 155
17 91 186
17 92 190
17 93 180
17 94 182
17 95 167
17 96 175
17 97 167
17 98 171
17 99 165
18 19 86
18 20 76
18 21 62
18 22 56
18 23 41
18 24 36
18 25 27
18 26 27
18 27 22
18 28 91
18 29 84
18 30 74
18 31 64
18 32 63
18 33 53
18 34 49
18 35 33
18 36 38
18 37 92
18 38 92
18 39 88
18 40 83
18 41 69
18 42 62
18 43 55
18 44 49
18 45 63
18 46 110
18 47 106
18 48 91
18 49 97
18 50 83
18 51 80
18 52 78
18 53 79
18 54 75
18 55 123
18 56 121
18 57 114
18 58 109
18 59 111
18 60 94
18 61 103
18 62 100
18 63 94
18 64 140
18 65 133
18 66 133
18 67 130
18 68 131
18 69 123
18 70 118
18 71 117
18 72 114
18 73 164
18 74 147
18 75 148
18 76 151
18 77 143
18 78 135
18 79 141
18 80 127
18 81 127
18 82 181
18 83 177
18 84 165
18 85 160
18 86 165
18 87 162
18 88 155
18 89 158
18 90 159
18 91 193
18 92 197
18 93 187
18 94 189
18 95 173
18 96 180
18 97 172
18 98 175
18 99 169
19 20 13
19 21 25
19 22 30
19 23 45
19 24 52
19 25 61
19 26 68
19 27 84
19 28 19
19 29 28
19 30 25
19 31 36
19 32 47
19 33 56
19 34 68
19 35 76
19 36 86
19 37 28
19 38 44
19 39 51
19 40 53
19 41 53
19 42 65
19 43 69
19 44 81
19 45 92
19 46 56
19 47 59
19 48 54
19 49 75
19 50 69
19 51 79
19 52 86
19 53 93
19 54 102
19 55 71
19 56 82
19 57 79
19 58 85
19 59 93
19 60 86
19 61 102
19 62 106
19 63 113
19 64 93
19 65 95
19 66 102
19 67 108
19 68 112
19 69 115
19 70 117
19 71 120
19 72 127
19 73 124
19 74 109
19 75 118
19 76 128
19 77 127
19 78 124
19 79 136
19 80 129
19 81 137
19 82 142
19 83 143
19 84 138
19 85 138
19 86 148
19 87 151
19 88 148
19 89 158
19 90 163
19 91 158
19 92 164
19 93 158
19 94 166
19 95 156
19 96 169
19 97 165
19 98 174
19 99 172
20 21 18
20 22 22
20 23 35
20 24 44
20 25 52
20 26 60
20 27 76
20 28 29
20 29 34
20 30 28
20 31 35
20 32 46
20 33 53
20 34 64
20 35 70
20 36 80
20 37 37
20 38 51
20 39 56
20 40 57
20 41 54
20 42 64
20 43 66
20 44 77
20 45 89
20 46 65
20 47 67
20 48 59
20 49 79
20 50 72
20 51 80
20 52 86
20 53 93
20 54 101
20 55 81
20 56 90
20 57 86
20 58 90
20 59 98
20 60 89
20 61 104
20 62 108
20 63 113
20 64 102
20 65 103
20 66 110
20 67 114
20 68 118
20 69 119
20 70 120
20 71 123
20 72 128
20 73 133
20 74 118
20 75 126
20 76 135
20 77 132
20 78 129
20 79 140
20 80 132
20 81 139
20 82 151
20 83 152
20 84 146
20 85 145
20 86 155
20 87 157
20 88 153
20 89 163
20 90 167
20 91 167
20 92 173
20 93 166
20 94 173
20 95 163
20 96 175
20 97 171
20 98 179
20 99 176
21 22 6
21 23 20
21 24 27
21 25 36
21 26 43
21 27 59
21 28 31
21 29 28
21 30 18
21 31 19
21 32 30
21 33 35
21 34 46
21 35 52
21 36 62
21 37 35
21 38 43
21 39 45
21 40 44
21 41 38
21 42 46
21 43 48
21 44 58
21 45 71
21 46 61
21 47 60
21 48 49
21 49 67
21 50 57
21 51 64
21 52 69
21 53 76
21 54 83
21 55 76
21 56 82
21 57 76
21 58 78
21 59 85
21 60 74
21 61 89
21 62 92
21 63 96
21 64 97
21 65 95
21 66 100
21 67 102
21 68 106
21 69 105
21 70 105
21 71 108
21 72 112
21 73 126
21 74 110
21 75 116
21 76 124
21 77 120
21 78 116
21 79 127
21 80 117
21 81 123
21 82 144
21 83 144
21 84 136
21 85 134
21 86 143
21 87 144
21 88 139
21 89 148
21 90 152
21 91 159
21 92 165
21 93 157
21 94 163
21 95 151
21 96 163
21 97 158
21 98 165
21 99 161
22 23 14
22 24 22
22 25 31
22 26 39
22 27 55
22 28 37
22 29 34
22 30 24
22 31 22
22 32 31
22 33 35
22 34 45
22 35 48
22 36 59
22 37 41
22 38 49
22 39 49
22 40 48
22 41 40
22 42 47
22 43 48
22 44 56
22 45 70
22 46 66
22 47 65
22 48 54
22 49 70
22 50 59
22 51 66
22 52 70
22 53 76
22 54 82
22 55 81
22 56 86
22 57 81
22 58 82
22 59 88
22 60 77
22 61 91
22 62 94
22 63 97
22 64 102
22 65 99
22 66 104
22 67 106
22 68 109
22 69 108
22 70 107
22 71 110
22 72 113
22 73 131
22 74 115
22 75 120
22 76 128
22 77 124
22 78 119
22 79 129
22 80 119
22 81 125
22 82 149
22 83 148
22 84 140
22 85 138
22 86 147
22 87 147
22 88 142
22 89 151
22 90 154
22 91 164
22 92 169
22 93 161
22 94 167
22 95 155
22 96 166
22 97 160
22 98 167
22 99 163
23 24 10
23 25 17
23 26 26
23 27 41
23 28 50
23 29 45
23 30 35
23 31 28
23 32 33
23 33 32
23 34 38
23 35 37
23 36 48
23 37 53
23 38 57
23 39 56
23 40 53
23 41 42
23 42 44
23 43 43
23 44 48
23 45 63
23 46 76
23 47 73
23 48 60
23 49 74
23 50 61
23 51 65
23 52 67
23 53 72
23 54 76
23 55 90
23 56 93
23 57 86
23 58 86
23 59 91
23 60 77
23 61 90
23 62 91
23 63 92
23 64 110
23 65 106
23 66 109
23 67 109
23 68 112
23 69 108
23 70 107
23 71 108
23 72 110
23 73 138
23 74 121
23 75 125
23 76 132
23 77 126
23 78 120
23 79 129
23 80 118
23 81 122
23 82 156
23 83 154
23 84 144
23 85 141
23 86 149
23 87 148
23 88 143
23 89 150
23 90 153
23 91 170
23 92 175
23 93 166
23 94 170
23 95 157
23 96 167
23 97 161
23 98 167
23 99 163
24 25 9
24 26 17
24 27 32
24 28 55
24 29 48
24 30 38
24 31 28
24 32 30
24 33 25
24 34 29
24 35 27
24 36 38
24 37 56
24 38 57
24 39 54
24 40 51
24 41 38
24 42 37
24 43 34
24 44 39
24 45 54
24 46 76
24 47 72
24 48 58
24 49 69
24 50 56
24 51 58
24 52 59
24 53 64
24 54 67
24 55 89
24 56 90
24 57 83
24 58 81
24 59 86
24 60 71
24 61 83
24 62 84
24 63 83
24 64 108
24 65 103
24 66 105
24 67 104
24 68 107
24 69 102
24 70 100
24 71 101
24 72 102
24 73 135
24 74 118
24 75 121
24 76 127
24 77 120
24 78 114
24 79 122
24 80 110
24 81 114
24 82 153
24 83 150
24 84 140
24 85 136
24 86 143
24 87 142
24 88 136
24 89 143
24 90 145
24 91 166
24 92 171
24 93 161
24 94 165
24 95 151
24 96 161
24 97 154
24 98 160
24 99 155
25 26 10
25 27 24
25 28 64
25 29 56
25 30 47
25 31 37
25 32 36
25 33 29
25 34 29
25 35 22
25 36 33
25 37 65
25 38 65
25 39 61
25 40 57
25 41 43
25 42 40
25 43 35
25 44 36
25 45 52
25 46 83
25 47 80
25 48 65
25 49 74
25 50 60
25 51 60
25 52 60
25 53 64
25 54 65
25 55 97
25 56 96
25 57 89
25 58 86
25 59 90
25 60 74
25 61 85
25 62 84
25 63 82
25 64 114
25 65 108
25 66 110
25 67 108
25 68 110
25 69 104
25 70 101
25 71 101
25 72 101
25 73 140
25 74 123
25 75 125
25 76 130
25 77 123
25 78 116
25 79 124
25 80 111
25 81 114
25 82 158
25 83 154
25 84 144
25 85 139
25 86 146
25 87 144
25 88 138
25 89 144
25 90 146
25 91 170
25 92 175
25 93 165
25 94 169
25 95 154
25 96 163
25 97 156
25 98 161
25 99 155
26 27 16
26 28 69
26 29 60
26 30 51
26 31 40
26 32 36
26 33 26
26 34 23
26 35 12
26 36 23
26 37 68
26 38 66
26 39 61
26 40 56
26 41 42
26 42 35
26 43 29
26 44 27
26 45 43
26 46 84
26 47 79
26 48 64
26 49 70
26 50 56
26 51 55
26 52 53
26 53 56
26 54 56
26 55 96
26 56 94
26 57 87
26 58 82
26 59 85
26 60 68
26 61 78
26 62 77
26 63 74
26 64 113
26 65 105
26 66 106
26 67 103
26 68 105
26 69 98
26 70 94
26 71 94
26 72 93
26 73 137
26 74 120
26 75 121
26 76 125
26 77 118
26 78 110
26 79 117
26 80 104
26 81 106
26 82 154
26 83 150
26 84 139
26 85 134
26 86 140
26 87 138
26 88 131
26 89 136
26 90 138
26 91 166
26 92 171
26 93 161
26 94 163
26 95 148
26 96 157
26 97 149
26 98 153
26 99 148
27 28 84
27 29 75
27 30 66
27 31 55
27 32 50
27 33 39
27 34 30
27 35 13
27 36 16
27 37 84
27 38 80
27 39 73
27 40 68
27 41 54
27 42 44
27 43 36
27 44 28
27 45 41
27 46 97
27 47 92
27 48 77
27 49 79
27 50 65
27 51 60
27 52 57
27 53 57
27 54 53
27 55 108
27 56 104
27 57 96
27 58 90
27 59 92
27 60 74
27 61 82
27 62 78
27 63 72
27 64 123
27 65 115
27 66 114
27 67 110
27 68 111
27 69 102
27 70 96
27 71 95
27 72 92
27 73 145
27 74 128
27 75 128
27 76 131
27 77 122
27 78 114
27 79 119
27 80 105
27 81 105
27 82 162
27 83 157
27 84 145
27 85 139
27 86 144
27 87 140
27 88 133
27 89 136
27 90 137
27 91 173
27 92 177
27 93 166
27 94 168
27 95 151
27 96 159
27 97 150
27 98 153
27 99 147
28 29 13
28 30 18
28 31 30
28 32 39
28 33 50
28 34 62
28 35 74
28 36 83
28 37 9
28 38 26
28 39 34
28 40 38
28 41 42
28 42 56
28 43 61
28 44 75
28 45 83
28 46 37
28 47 40
28 48 37
28 49 58
28 50 55
28 51 66
28 52 74
28 53 81
28 54 92
28 55 52
28 56 63
28 57 60
28 58 67
28 59 75
28 60 71
28 61 86
28 62 92
28 63 101
28 64 74
28 65 76
28 66 84
28 67 90
28 68 94
28 69 98
28 70 100
28 71 105
28 72 112
28 73 105
28 74 90
28 75 99
28 76 109
28 77 108
28 78 106
28 79 119
28 80 113
28 81 122
28 82 123
28 83 124
28 84 119
28 85 120
28 86 130
28 87 133
28 88 130
28 89 141
28 90 146
28 91 139
28 92 145
28 93 139
28 94 147
28 95 138
28 96 151
28 97 148
28 98 157
28 99 155
29 30 11
29 31 20
29 32 27
29 33 39
29 34 51
29 35 64
29 36 72
29 37 9
29 38 17
29 39 23
29 40 25
29 41 30
29 42 43
29 43 49
29 44 63
29 45 71
29 46 33
29 47 33
29 48 26
29 49 47
29 50 42
29 51 54
29 52 61
29 53 69
29 54 80
29 55 48
29 56 56
29 57 52
29 58 57
29 59 65
29 60 59
29 61 75
29 62 80
29 63 88
29 64 69
29 65 69
29 66 76
29 67 80
29 68 84
29 69 87
29 70 89
29 71 93
29 72 100
29 73 100
29 74 84
29 75 92
29 76 101
29 77 99
29 78 96
29 79 108
29 80 101
29 81 110
29 82 118
29 83 118
29 84 112
29 85 111
29 86 121
29 87 123
29 88 120
29 89 131
29 90 135
29 91 133
29 92 139
29 93 132
29 94 139
29 95 129
29 96 142
29 97 138
29 98 146
29 99 144
30 31 12
30 32 22
30 33 33
30 34 45
30 35 56
30 36 65
30 37 19
30 38 25
30 39 28
30 40 29
30 41 28
30 42 40
30 43 45
30 44 57
30 45 67
30 46 43
30 47 42
30 48 32
30 49 52
30 50 44
30 51 54
30 52 60
30 53 67
30 54 77
30 55 58
30 56 64
30 57 59
30 58 63
30 59 70
30 60 61
30 61 77
30 62 81
30 63 88
30 64 79
30 65 77
30 66 83
30 67 86
30 68 90
30 69 91
30 70 92
30 71 96
30 72 102
30 73 108
30 74 92
30 75 99
30 76 108
30 77 105
30 78 101
30 79 113
30 80 104
30 81 112
30 82 127
30 83 126
30 84 119
30 85 118
30 86 127
30 87 129
30 88 125
30 89 135
30 90 139
30 91 142
30 92 147
30 93 140
30 94 146
30 95 135
30 96 147
30 97 143
30 98 151
30 99 148
31 32 11
31 33 21
31 34 33
31 35 44
31 36 53
31 37 29
31 38 29
31 39 28
31 40 26
31 41 19
31 42 29
31 43 33
31 44 46
31 45 56
31 46 48
31 47 45
31 48 32
31 49 48
31 50 38
31 51 46
31 52 51
31 53 58
31 54 67
31 55 62
31 56 65
31 57 59
31 58 60
31 59 66
31 60 55
31 61 70
31 62 74
31 63 79
31 64 82
31 65 78
31 66 82
31 67 84
31 68 87
31 69 86
31 70 86
31 71 89
31 72 94
31 73 110
31 74 93
31 75 98
31 76 106
31 77 102
31 78 97
31 79 108
31 80 98
31 81 105
31 82 128
31 83 127
31 84 118
31 85 116
31 86 125
31 87 125
31 88 121
31 89 129
31 90 133
31 91 142
31 92 148
31 93 140
31 94 145
31 95 133
31 96 144
31 97 139
31 98 146
31 99 142
32 33 12
32 34 24
32 35 38
32 36 45
32 37 35
32 38 30
32 39 25
32 40 21
32 41 9
32 42 18
32 43 23
32 44 36
32 45 45
32 46 48
32 47 43
32 48 29
32 49 40
32 50 28
32 51 35
32 52 40
32 53 47
32 54 55
32 55 60
32 56 60
32 57 53
32 58 52
32 59 58
32 60 45
32 61 60
32 62 63
32 63 67
32 64 78
32 65 73
32 66 76
32 67 76
32 68 79
32 69 76
32 70 76
32 71 78
32 72 83
32 73 105
32 74 88
32 75 92
32 76 98
32 77 93
32 78 88
32 79 98
32 80 88
32 81 94
32 82 123
32 83 120
32 84 111
32 85 108
32 86 116
32 87 116
32 88 111
32 89 119
32 90 123
32 91 136
32 92 141
32 93 133
32 94 137
32 95 124
32 96 135
32 97 129
32 98 136
32 99 132
33 34 12
33 35 26
33 36 33
33 37 47
33 38 41
33 39 35
33 40 30
33 41 16
33 42 12
33 43 13
33 44 25
33 45 36
33 46 59
33 47 53
33 48 38
33 49 45
33 50 31
33 51 33
33 52 35
33 53 41
33 54 47
33 55 70
33 56 68
33 57 61
33 58 57
33 59 61
33 60 46
33 61 59
33 62 60
33 63 62
33 64 86
33 65 80
33 66 81
33 67 80
33 68 82
33 69 77
33 70 75
33 71 76
33 72 79
33 73 111
33 74 94
33 75 96
33 76 102
33 77 95
33 78 89
33 79 98
33 80 86
33 81 91
33 82 129
33 83 126
33 84 115
33 85 111
33 86 118
33 87 117
33 88 111
33 89 118
33 90 121
33 91 142
33 92 146
33 93 137
33 94 140
33 95 126
33 96 136
33 97 130
33 98 135
33 99 131
34 35 17
34 36 22
34 37 59
34 38 52
34 39 44
34 40 38
34 41 25
34 42 13
34 43 6
34 44 13
34 45 25
34 46 68
34 47 62
34 48 47
34 49 49
34 50 34
34 51 32
34 52 31
34 53 35
34 54 38
34 55 78
34 56 74
34 57 66
34 58 60
34 59 63
34 60 46
34 61 56
34 62 55
34 63 54
34 64 93
34 65 84
34 66 85
34 67 81
34 68 83
34 69 76
34 70 72
34 71 72
34 72 73
34 73 115
34 74 98
34 75 99
34 76 103
34 77 95
34 78 88
34 79 95
34 80 82
34 81 85
34 82 132
34 83 128
34 84 116
34 85 112
34 86 118
34 87 115
34 88 109
34 89 115
34 90 117
34 91 144
34 92 148
34 93 138
34 94 141
34 95 125
34 96 134
34 97 127
34 98 132
34 99 126
35 36 11
35 37 72
35 38 67
35 39 61
35 40 55
35 41 41
35 42 30
35 43 23
35 44 16
35 45 31
35 46 84
35 47 78
35 48 64
35 49 66
35 50 51
35 51 47
35 52 44
35 53 46
35 54 44
35 55 95
35 56 91
35 57 83
35 58 77
35 59 79
35 60 61
35 61 70
35 62 67
35 63 63
35 64 110
35 65 101
35 66 101
35 67 97
35 68 98
35 69 89
35 70 85
35 71 84
35 72 82
35 73 132
35 74 115
35 75 115
35 76 118
35 77 110
35 78 102
35 79 108
35 80 94
35 81 95
35 82 149
35 83 144
35 84 132
35 85 126
35 86 132
35 87 129
35 88 122
35 89 126
35 90 127
35 91 160
35 92 164
35 93 154
35 94 155
35 95 139
35 96 147
35 97 140
35 98 143
35 99 137
36 37 80
36 38 73
36 39 66
36 40 60
36 41 46
36 42 34
36 43 26
36 44 13
36 45 25
36 46 90
36 47 83
36 48 68
36 49 67
36 50 53
36 51 47
36 52 42
36 53 42
36 54 37
36 55 99
36 56 93
36 57 85
36 58 77
36 59 78
36 60 60
36 61 66
36 62 63
36 63 56
36 64 112
36 65 103
36 66 101
36 67 96
36 68 96
36 69 86
36 70 81
36 71 79
36 72 76
36 73 132
36 74 116
36 75 114
36 76 116
36 77 107
36 78 99
36 79 103
36 80 89
36 81 89
36 82 149
36 83 143
36 84 130
36 85 124
36 86 129
36 87 125
36 88 117
36 89 120
36 90 121
36 91 159
36 92 162
36 93 152
36 94 153
36 95 136
36 96 143
36 97 135
36 98 137
36 99 131
37 38 17
37 39 25
37 40 30
37 41 37
37 42 51
37 43 57
37 44 71
37 45 78
37 46 28
37 47 31
37 48 28
37 49 49
37 50 47
37 51 59
37 52 67
37 53 74
37 54 86
37 55 43
37 56 54
37 57 51
37 58 58
37 59 66
37 60 62
37 61 78
37 62 84
37 63 93
37 64 65
37 65 67
37 66 74
37 67 80
37 68 85
37 69 88
37 70 92
37 71 96
37 72 104
37 73 96
37 74 81
37 75 90
37 76 100
37 77 99
37 78 97
37 79 110
37 80 104
37 81 113
37 82 114
37 83 115
37 84 110
37 85 110
37 86 120
37 87 124
37 88 121
37 89 132
37 90 137
37 91 130
37 92 136
37 93 130
37 94 138
37 95 128
37 96 142
37 97 138
37 98 147
37 99 146
38 39 9
38 40 15
38 41 27
38 42 40
38 43 48
38 44 62
38 45 66
38 46 18
38 47 16
38 48 11
38 49 32
38 50 31
38 51 44
38 52 52
38 53 60
38 54 73
38 55 33
38 56 39
38 57 35
38 58 41
38 59 49
38 60 46
38 61 61
38 62 67
38 63 78
38 64 53
38 65 52
38 66 59
38 67 64
38 68 68
38 69 71
38 70 74
38 71 79
38 72 88
38 73 83
38 74 67
38 75 74
38 76 84
38 77 82
38 78 80
38 79 92
38 80 87
38 81 96
38 82 101
38 83 101
38 84 95
38 85 94
38 86 104
38 87 107
38 88 104
38 89 115
38 90 120
38 91 116
38 92 122
38 93 115
38 94 122
38 95 112
38 96 125
38 97 121
38 98 130
38 99 128
39 40 6
39 41 20
39 42 32
39 43 40
39 44 54
39 45 57
39 46 24
39 47 18
39 48 4
39 49 24
39 50 22
39 51 34
39 52 43
39 53 50
39 54 63
39 55 35
39 56 37
39 57 31
39 58 34
39 59 42
39 60 37
39 61 52
39 62 58
39 63 68
39 64 54
39 65 50
39 66 55
39 67 58
39 68 62
39 69 64
39 70 66
39 71 71
39 72 79
39 73 82
39 74 65
39 75 71
39 76 80
39 77 77
39 78 74
39 79 85
39 80 79
39 81 88
39 82 100
39 83 99
39 84 91
39 85 90
39 86 99
39 87 101
39 88 97
39 89 108
39 90 113
39 91 114
39 92 120
39 93 112
39 94 118
39 95 107
39 96 119
39 97 115
39 98 123
39 99 121
40 41 14
40 42 26
40 43 34
40 44 48
40 45 51
40 46 30
40 47 24
40 48 9
40 49 23
40 50 17
40 51 29
40 52 37
40 53 45
40 54 57
40 55 40
40 56 40
40 57 33
40 58 34
40 59 41
40 60 33
40 61 49
40 62 54
40 63 64
40 64 57
40 65 52
40 66 56
40 67 58
40 68 62
40 69 62
40 70 64
40 71 68
40 72 75
40 73 84
40 74 68
40 75 72
40 76 80
40 77 76
40 78 72
40 79 84
40 80 76
40 81 85
40 82 102
40 83 101
40 84 92
40 85 90
40 86 99
40 87 100
40 88 96
40 89 106
40 90 111
40 91 116
40 92 122
40 93 113
40 94 119
40 95 107
40 96 119
40 97 114
40 98 122
40 99 119
41 42 14
41 43 21
41 44 35
41 45 41
41 46 43
41 47 38
41 48 23
41 49 31
41 50 19
41 51 27
41 52 33
41 53 40
41 54 50
41 55 55
41 56 53
41 57 46
41 58 44
41 59 49
41 60 36
41 61 51
41 62 54
41 63 60
41 64 71
41 65 65
41 66 67
41 67 67
41 68 70
41 69 67
41 70 67
41 71 70
41 72 75
41 73 97
41 74 80
41 75 83
41 76 89
41 77 84
41 78 79
41 79 89
41 80 79
41 81 86
41 82 115
41 83 112
41 84 102
41 85 99
41 86 107
41 87 107
41 88 102
41 89 110
41 90 114
41 91 128
41 92 133
41 93 124
41 94 128
41 95 115
41 96 126
41 97 120
41 98 127
41 99 123
42 43 8
42 44 22
42 45 28
42 46 56
42 47 49
42 48 35
42 49 36
42 50 21
42 51 21
42 52 23
42 53 29
42 54 37
42 55 65
42 56 60
42 57 52
42 58 47
42 59 50
42 60 34
42 61 46
42 62 47
42 63 50
42 64 79
42 65 71
42 66 72
42 67 69
42 68 71
42 69 65
42 70 63
42 71 64
42 72 67
42 73 102
42 74 85
42 75 86
42 76 91
42 77 84
42 78 77
42 79 85
42 80 74
42 81 79
42 82 119
42 83 115
42 84 104
42 85 100
42 86 107
42 87 105
42 88 99
42 89 106
42 90 109
42 91 131
42 92 136
42 93 126
42 94 129
42 95 114
42 96 124
42 97 117
42 98 123
42 99 118
43 44 14
43 45 23
43 46 64
43 47 57
43 48 43
43 49 43
43 50 28
43 51 26
43 52 25
43 53 30
43 54 35
43 55 73
43 56 68
43 57 60
43 58 54
43 59 56
43 60 40
43 61 50
43 62 50
43 63 50
43 64 87
43 65 78
43 66 78
43 67 75
43 68 76
43 69 69
43 70 66
43 71 67
43 72 68
43 73 109
43 74 92
43 75 93
43 76 96
43 77 89
43 78 82
43 79 89
43 80 77
43 81 80
43 82 126
43 83 122
43 84 110
43 85 105
43 86 111
43 87 109
43 88 103
43 89 109
43 90 111
43 91 138
43 92 142
43 93 132
43 94 134
43 95 119
43 96 128
43 97 121
43 98 126
43 99 121
44 45 16
44 46 77
44 47 71
44 48 56
44 49 54
44 50 40
44 51 34
44 52 29
44 53 30
44 54 29
44 55 86
44 56 80
44 57 72
44 58 64
44 59 65
44 60 47
44 61 54
44 62 51
44 63 47
44 64 99
44 65 89
44 66 88
44 67 82
44 68 83
44 69 74
44 70 69
44 71 68
44 72 66
44 73 119
44 74 102
44 75 101
44 76 103
44 77 95
44 78 86
44 79 92
44 80 78
44 81 79
44 82 135
44 83 130
44 84 117
44 85 111
44 86 116
44 87 113
44 88 106
44 89 110
44 90 111
44 91 146
44 92 149
44 93 139
44 94 140
44 95 124
44 96 132
44 97 124
44 98 127
44 99 121
45 46 79
45 47 71
45 48 58
45 49 50
45 50 38
45 51 28
45 52 20
45 53 17
45 54 13
45 55 85
45 56 75
45 57 68
45 58 57
45 59 57
45 60 39
45 61 42
45 62 38
45 63 31
45 64 94
45 65 83
45 66 80
45 67 73
45 68 73
45 69 62
45 70 56
45 71 54
45 72 51
45 73 111
45 74 95
45 75 92
45 76 92
45 77 83
45 78 74
45 79 78
45 80 64
45 81 64
45 82 126
45 83 120
45 84 106
45 85 100
45 86 104
45 87 99
45 88 92
45 89 95
45 90 96
45 91 136
45 92 139
45 93 128
45 94 128
45 95 111
45 96 118
45 97 109
45 98 112
45 99 106
46 47 8
46 48 21
46 49 34
46 50 41
46 51 53
46 52 62
46 53 69
46 54 83
46 55 15
46 56 28
46 57 27
46 58 38
46 59 46
46 60 50
46 61 64
46 62 72
46 63 84
46 64 37
46 65 40
46 66 48
46 67 57
46 68 61
46 69 69
46 70 74
46 71 80
46 72 90
46 73 68
46 74 54
46 75 63
46 76 74
46 77 75
46 78 75
46 79 88
46 80 86
46 81 97
46 82 86
46 83 87
46 84 83
46 85 85
46 86 95
46 87 100
46 88 98
46 89 111
46 90 117
46 91 102
46 92 108
46 93 102
46 94 111
46 95 103
46 96 117
46 97 115
46 98 125
46 99 124
47 48 15
47 49 26
47 50 33
47 51 45
47 52 54
47 53 61
47 54 75
47 55 17
47 56 23
47 57 21
47 58 30
47 59 39
47 60 42
47 61 55
47 62 63
47 63 76
47 64 37
47 65 36
47 66 44
47 67 51
47 68 55
47 69 62
47 70 66
47 71 72
47 72 82
47 73 66
47 74 51
47 75 59
47 76 70
47 77 69
47 78 69
47 79 82
47 80 78
47 81 89
47 82 85
47 83 85
47 84 79
47 85 80
47 86 90
47 87 94
47 88 92
47 89 104
47 90 110
47 91 100
47 92 106
47 93 99
47 94 107
47 95 98
47 96 111
47 97 109
47 98 118
47 99 118
48 49 21
48 50 22
48 51 34
48 52 43
48 53 50
48 54 64
48 55 32
48 56 33
48 57 27
48 58 31
48 59 39
48 60 35
48 61 50
48 62 57
48 63 68
48 64 50
48 65 46
48 66 51
48 67 55
48 68 59
48 69 61
48 70 64
48 71 69
48 72 77
48 73 78
48 74 61
48 75 67
48 76 76
48 77 73
48 78 70
48 79 82
48 80 76
48 81 86
48 82 96
48 83 95
48 84 87
48 85 86
48 86 95
48 87 97
48 88 94
48 89 105
48 90 110
48 91 110
48 92 116
48 93 108
48 94 114
48 95 103
48 96 116
48 97 112
48 98 120
48 99 118
49 50 14
49 51 22
49 52 30
49 53 36
49 54 51
49 55 36
49 56 26
49 57 18
49 58 12
49 59 18
49 60 16
49 61 30
49 62 37
49 63 50
49 64 45
49 65 36
49 66 36
49 67 36
49 68 39
49 69 40
49 70 43
49 71 47
49 72 57
49 73 67
49 74 50
49 75 52
49 76 58
49 77 54
49 78 50
49 79 61
49 80 55
49 81 64
49 82 84
49 83 81
49 84 71
49 85 68
49 86 76
49 87 77
49 88 73
49 89 84
49 90 89
49 91 97
49 92 101
49 93 92
49 94 97
49 95 84
49 96 96
49 97 91
49 98 99
49 99 97
50 51 12
50 52 21
50 53 29
50 54 42
50 55 47
50 56 40
50 57 32
50 58 26
50 59 30
50 60 17
50 61 33
50 62 37
50 63 47
50 64 59
50 65 50
50 66 51
50 67 49
50 68 51
50 69 48
50 70 48
50 71 52
50 72 58
50 73 81
50 74 64
50 75 65
50 76 71
50 77 65
50 78 60
50 79 70
50 80 60
50 81 68
50 82 98
50 83 95
50 84 84
50 85 80
50 86 88
50 87 88
50 88 83
50 89 91
50 90 95
50 91 111
50 92 115
50 93 106
50 94 110
50 95 96
50 96 107
50 97 101
50 98 108
50 99 105
51 52 9
51 53 16
51 54 30
51 55 58
51 56 48
51 57 40
51 58 30
51 59 31
51 60 14
51 61 25
51 62 28
51 63 35
51 64 67
51 65 56
51 66 54
51 67 49
51 68 51
51 69 44
51 70 42
51 71 44
51 72 48
51 73 85
51 74 69
51 75 68
51 76 71
51 77 63
51 78 56
51 79 64
51 80 53
51 81 59
51 82 102
51 83 97
51 84 85
51 85 80
51 86 86
51 87 84
51 88 78
51 89 85
51 90 88
51 91 113
51 92 116
51 93 106
51 94 109
51 95 94
51 96 103
51 97 96
51 98 102
51 99 98
52 53 8
52 54 21
52 55 66
52 56 55
52 57 48
52 58 37
52 59 37
52 60 19
52 61 25
52 62 25
52 63 28
52 64 74
52 65 63
52 66 60
52 67 54
52 68 54
52 69 45
52 70 41
52 71 41
52 72 43
52 73 91
52 74 75
52 75 72
52 76 74
52 77 65
52 78 57
52 79 64
52 80 51
52 81 55
52 82 107
52 83 101
52 84 88
52 85 82
52 86 88
52 87 85
52 88 78
52 89 84
52 90 86
52 91 117
52 92 120
52 93 110
52 94 111
52 95 95
52 96 103
52 97 96
52 98 101
52 99 96
53 54 14
53 55 73
53 56 61
53 57 53
53 58 42
53 59 40
53 60 23
53 61 25
53 62 21
53 63 21
53 64 79
53 65 67
53 66 63
53 67 55
53 68 55
53 69 44
53 70 39
53 71 38
53 72 38
53 73 94
53 74 78
53 75 74
53 76 75
53 77 65
53 78 57
53 79 62
53 80 48
53 81 50
53 82 109
53 83 102
53 84 89
53 85 82
53 86 87
53 87 83
53 88 76
53 89 80
53 90 82
53 91 118
53 92 121
53 93 110
53 94 110
53 95 94
53 96 101
53 97 93
53 98 97
53 99 92
54 55 87
54 56 75
54 57 68
54 58 56
54 59 53
54 60 37
54 61 35
54 62 29
54 63 19
54 64 93
54 65 81
54 66 76
54 67 67
54 68 66
54 69 54
54 70 47
54 71 44
54 72 39
54 73 107
54 74 91
54 75 86
54 76 85
54 77 75
54 78 66
54 79 68
54 80 53
54 81 52
54 82 121
54 83 113
54 84 99
54 85 92
54 86 95
54 87 90
54 88 82
54 89 84
54 90 84
54 91 129
54 92 131
54 93 120
54 94 119
54 95 102
54 96 107
54 97 98
54 98 100
54 99 94
55 56 18
55 57 22
55 58 35
55 59 42
55 60 51
55 61 62
55 62 71
55 63 85
55 64 22
55 65 27
55 66 37
55 67 48
55 68 52
55 69 63
55 70 69
55 71 76
55 72 88
55 73 53
55 74 40
55 75 51
55 76 62
55 77 65
55 78 67
55 79 80
55 80 80
55 81 92
55 82 71
55 83 73
55 84 70
55 85 73
55 86 84
55 87 89
55 88 88
55 89 102
55 90 109
55 91 87
55 92 94
55 93 88
55 94 97
55 95 91
55 96 105
55 97 104
55 98 115
55 99 115
56 57 8
56 58 19
56 59 25
56 60 38
56 61 46
56 62 55
56 63 70
56 64 19
56 65 13
56 66 21
56 67 30
56 68 35
56 69 45
56 70 52
56 71 59
56 72 71
56 73 45
56 74 28
56 75 36
56 76 47
56 77 48
56 78 49
56 79 62
56 80 62
56 81 74
56 82 63
56 83 62
56 84 56
56 85 57
56 86 68
56 87 72
56 88 71
56 89 84
56 90 91
56 91 78
56 92 83
56 93 76
56 94 84
56 95 75
56 96 89
56 97 87
56 98 97
56 99 98
57 58 13
57 59 21
57 60 31
57 61 40
57 62 49
57 63 64
57 64 27
57 65 19
57 66 24
57 67 30
57 68 35
57 69 42
57 70 48
57 71 55
57 72 66
57 73 51
57 74 34
57 75 40
57 76 49
57 77 49
57 78 48
57 79 62
57 80 59
57 81 71
57 82 69
57 83 68
57 84 60
57 85 60
57 86 70
57 87 73
57 88 71
57 89 84
57 90 90
57 91 83
57 92 89
57 93 81
57 94 88
57 95 78
57 96 91
57 97 88
57 98 98
57 99 97
58 59 8
58 60 19
58 61 27
58 62 36
58 63 51
58 64 37
58 65 26
58 66 25
58 67 24
58 68 28
58 69 31
58 70 36
58 71 42
58 72 53
58 73 55
58 74 39
58 75 40
58 76 46
58 77 42
58 78 39
58 79 52
58 80 48
58 81 59
58 82 72
58 83 69
58 84 59
58 85 56
58 86 65
58 87 66
58 88 63
58 89 74
58 90 80
58 91 85
58 92 89
58 93 80
58 94 85
58 95 73
58 96 85
58 97 81
58 98 89
58 99 88
59 60 18
59 61 21
59 62 30
59 63 46
59 64 41
59 65 28
59 66 23
59 67 18
59 68 21
59 69 23
59 70 28
59 71 34
59 72 46
59 73 54
59 74 38
59 75 36
59 76 41
59 77 35
59 78 31
59 79 44
59 80 39
59 81 51
59 82 70
59 83 65
59 84 54
59 85 50
59 86 58
59 87 59
59 88 55
59 89 66
59 90 71
59 91 81
59 92 85
59 93 76
59 94 79
59 95 66
59 96 78
59 97 73
59 98 81
59 99 80
60 61 16
60 62 22
60 63 35
60 64 56
60 65 44
60 66 41
60 67 35
60 68 37
60 69 31
60 70 31
60 71 34
60 72 42
60 73 72
60 74 56
60 75 54
60 76 57
60 77 49
60 78 43
60 79 52
60 80 43
60 81 51
60 82 88
60 83 83
60 84 71
60 85 66
60 86 72
60 87 71
60 88 66
60 89 74
60 90 78
60 91 99
60 92 103
60 93 92
60 94 95
60 95 80
60 96 90
60 97 84
60 98 91
60 99 87
61 62 9
61 63 25
61 64 62
61 65 49
61 66 42
61 67 32
61 68 31
61 69 20
61 70 16
61 71 19
61 72 27
61 73 72
61 74 57
61 75 51
61 76 50
61 77 41
61 78 32
61 79 39
61 80 28
61 81 35
61 82 86
61 83 78
61 84 64
61 85 58
61 86 62
61 87 59
61 88 53
61 89 60
61 90 63
61 91 94
61 92 97
61 93 85
61 94 86
61 95 70
61 96 78
61 97 71
61 98 76
61 99 72
62 63 16
62 64 71
62 65 57
62 66 51
62 67 40
62 68 38
62 69 25
62 70 18
62 71 17
62 72 21
62 73 80
62 74 65
62 75 59
62 76 57
62 77 46
62 78 37
62 79 41
62 80 27
62 81 31
62 82 93
62 83 85
62 84 70
62 85 63
62 86 66
62 87 62
62 88 55
62 89 59
62 90 61
62 91 100
62 92 102
62 93 91
62 94 90
62 95 73
62 96 80
62 97 72
62 98 76
62 99 71
63 64 87
63 65 73
63 66 66
63 67 55
63 68 54
63 69 39
63 70 30
63 71 26
63 72 20
63 73 95
63 74 81
63 75 74
63 76 71
63 77 59
63 78 50
63 79 50
63 80 35
63 81 33
63 82 108
63 83 99
63 84 84
63 85 76
63 86 78
63 87 72
63 88 64
63 89 65
63 90 65
63 91 114
63 92 116
63 93 104
63 94 102
63 95 84
63 96 89
63 97 80
63 98 81
63 99 75
64 65 14
64 66 24
64 67 37
64 68 42
64 69 56
64 70 64
64 71 71
64 72 84
64 73 31
64 74 19
64 75 33
64 76 45
64 77 51
64 78 56
64 79 69
64 80 73
64 81 86
64 82 49
64 83 51
64 84 50
64 85 55
64 86 66
64 87 73
64 88 74
64 89 89
64 90 96
64 91 65
64 92 72
64 93 67
64 94 77
64 95 73
64 96 87
64 97 88
64 98 99
64 99 101
65 66 11
65 67 23
65 68 28
65 69 42
65 70 50
65 71 57
65 72 70
65 73 32
65 74 15
65 75 24
65 76 36
65 77 39
65 78 42
65 79 56
65 80 59
65 81 72
65 82 50
65 83 49
65 84 44
65 85 46
65 86 57
65 87 62
65 88 62
65 89 76
65 90 83
65 91 64
65 92 70
65 93 63
65 94 71
65 95 64
65 96 78
65 97 77
65 98 88
65 99 89
66 67 13
66 68 18
66 69 32
66 70 41
66 71 48
66 72 61
66 73 31
66 74 15
66 75 16
66 76 26
66 77 28
66 78 32
66 79 45
66 80 49
66 81 62
66 82 48
66 83 44
66 84 36
66 85 36
66 86 47
66 87 52
66 88 52
66 89 66
66 90 73
66 91 60
66 92 65
66 93 57
66 94 64
66 95 55
66 96 68
66 97 67
66 98 78
66 99 79
67 68 5
67 69 19
67 70 28
67 71 35
67 72 48
67 73 40
67 74 26
67 75 19
67 76 22
67 77 19
67 78 19
67 79 33
67 80 36
67 81 49
67 82 54
67 83 48
67 84 35
67 85 32
67 86 41
67 87 43
67 88 41
67 89 54
67 90 61
67 91 64
67 92 67
67 93 57
67 94 61
67 95 49
67 96 61
67 97 58
67 98 68
67 99 68
68 69 16
68 70 25
68 71 32
68 72 45
68 73 42
68 74 29
68 75 20
68 76 20
68 77 15
68 78 14
68 79 28
68 80 31
68 81 44
68 82 54
68 83 47
68 84 34
68 85 29
68 86 37
68 87 39
68 88 37
68 89 49
68 90 56
68 91 63
68 92 66
68 93 56
68 94 59
68 95 45
68 96 57
68 97 54
68 98 63
68 99 63
69 70 9
69 71 16
69 72 29
69 73 57
69 74 45
69 75 35
69 76 32
69 77 21
69 78 12
69 79 22
69 80 17
69 81 30
69 82 69
69 83 60
69 84 45
69 85 38
69 86 42
69 87 40
69 88 35
69 89 44
69 90 49
69 91 75
69 92 77
69 93 66
69 94 66
69 95 50
69 96 59
69 97 53
69 98 60
69 99 57
70 71 7
70 72 20
70 73 66
70 74 54
70 75 45
70 76 40
70 77 29
70 78 19
70 79 23
70 80 12
70 81 23
70 82 78
70 83 69
70 84 54
70 85 46
70 86 48
70 87 44
70 88 37
70 89 43
70 90 47
70 91 83
70 92 85
70 93 74
70 94 72
70 95 55
70 96 63
70 97 55
70 98 60
70 99 56
71 72 13
71 73 73
71 74 61
71 75 51
71 76 46
71 77 34
71 78 24
71 79 24
71 80 10
71 81 17
71 82 84
71 83 74
71 84 59
71 85 50
71 86 52
71 87 46
71 88 38
71 89 42
71 90 45
71 91 88
71 92 90
71 93 78
71 94 76
71 95 58
71 96 64
71 97 55
71 98 59
71 99 54
72 73 86
72 74 74
72 75 64
72 76 58
72 77 46
72 78 36
72 79 33
72 80 18
72 81 13
72 82 96
72 83 86
72 84 70
72 85 61
72 86 61
72 87 54
72 88 45
72 89 45
72 90 45
72 91 100
72 92 100
72 93 88
72 94 85
72 95 67
72 96 70
72 97 60
72 98 62
72 99 55
73 74 17
73 75 22
73 76 30
73 77 41
73 78 50
73 79 60
73 80 70
73 81 82
73 82 18
73 83 21
73 84 26
73 85 34
73 86 45
73 87 55
73 88 59
73 89 74
73 90 82
73 91 34
73 92 41
73 93 37
73 94 49
73 95 49
73 96 64
73 97 68
73 98 80
73 99 84
74 75 14
74 76 27
74 77 34
74 78 41
74 79 53
74 80 60
74 81 73
74 82 35
74 83 34
74 84 31
74 85 35
74 86 47
74 87 54
74 88 56
74 89 71
74 90 79
74 91 49
74 92 55
74 93 49
74 94 58
74 95 53
74 96 68
74 97 69
74 98 81
74 99 83
75 76 13
75 77 21
75 78 29
75 79 40
75 80 49
75 81 61
75 82 35
75 83 29
75 84 20
75 85 22
75 86 33
75 87 41
75 88 42
75 89 57
75 90 65
75 91 45
75 92 50
75 93 41
75 94 48
75 95 40
75 96 55
75 97 55
75 98 67
75 99 69
76 77 12
76 78 22
76 79 30
76 80 41
76 81 53
76 82 38
76 83 28
76 84 14
76 85 10
76 86 21
76 87 28
76 88 30
76 89 45
76 90 53
76 91 43
76 92 46
76 93 35
76 94 39
76 95 29
76 96 43
76 97 42
76 98 54
76 99 57
77 78 10
77 79 19
77 80 29
77 81 41
77 82 50
77 83 40
77 84 25
77 85 17
77 86 23
77 87 25
77 88 23
77 89 37
77 90 45
77 91 54
77 92 56
77 93 45
77 94 46
77 95 31
77 96 43
77 97 39
77 98 50
77 99 50
78 79 14
78 80 20
78 81 32
78 82 60
78 83 50
78 84 35
78 85 26
78 86 30
78 87 28
78 88 24
78 89 35
78 90 42
78 91 64
78 92 66
78 93 54
78 94 54
78 95 38
78 96 47
78 97 42
78 98 50
78 99 49
79 80 15
79 81 24
79 82 66
79 83 56
79 84 40
79 85 30
79 86 28
79 87 22
79 88 14
79 89 22
79 90 28
79 91 68
79 92 68
79 93 56
79 94 52
79 95 34
79 96 40
79 97 32
79 98 38
79 99 36
80 81 13
80 82 79
80 83 69
80 84 53
80 85 44
80 86 43
80 87 37
80 88 29
80 89 32
80 90 35
80 91 82
80 92 83
80 93 71
80 94 67
80 95 49
80 96 54
80 97 46
80 98 49
80 99 45
81 82 90
81 83 80
81 84 64
81 85 54
81 86 52
81 87 43
81 88 35
81 89 32
81 90 32
81 91 92
81 92 92
81 93 80
81 94 75
81 95 57
81 96 58
81 97 48
81 98 49
81 99 42
82 83 12
82 84 27
82 85 37
82 86 44
82 87 55
82 88 61
82 89 75
82 90 83
82 91 17
82 92 24
82 93 25
82 94 38
82 95 46
82 96 59
82 97 65
82 98 77
82 99 83
83 84 16
83 85 26
83 86 32
83 87 43
83 88 50
83 89 63
83 90 71
83 91 16
83 92 21
83 93 16
83 94 28
83 95 34
83 96 47
83 97 53
83 98 66
83 99 71
84 85 10
84 86 19
84 87 29
84 88 35
84 89 49
84 90 57
84 91 30
84 92 32
84 93 22
84 94 28
84 95 24
84 96 38
84 97 42
84 98 54
84 99 59
85 86 11
85 87 20
85 88 25
85 89 39
85 90 48
85 91 38
85 92 40
85 93 28
85 94 29
85 95 18
85 96 33
85 97 34
85 98 46
85 99 50
86 87 11
86 88 18
86 89 31
86 90 39
86 91 41
86 92 40
86 93 28
86 94 24
86 95 8
86 96 22
86 97 23
86 98 35
86 99 40
87 88 8
87 89 20
87 90 28
87 91 52
87 92 51
87 93 38
87 94 32
87 95 13
87 96 19
87 97 15
87 98 26
87 99 30
88 89 15
88 90 23
88 91 60
88 92 59
88 93 47
88 94 40
88 95 22
88 96 25
88 97 18
88 98 27
88 99 27
89 90 8
89 91 71
89 92 69
89 93 58
89 94 49
89 95 32
89 96 28
89 97 17
89 98 17
89 99 14
90 91 79
90 92 77
90 93 65
90 94 56
90 95 39
90 96 33
90 97 22
90 98 17
90 99 10
91 92 7
91 93 14
91 94 26
91 95 40
91 96 50
91 97 58
91 98 70
91 99 77
92 93 12
92 94 22
92 95 38
92 96 46
92 97 55
92 98 66
92 99 74
93 94 13
93 95 26
93 96 36
93 97 44
93 98 56
93 99 63
94 95 18
94 96 24
94 97 34
94 98 44
94 99 52
95 96 15
95 97 19
95 98 32
95 99 38
96 97 11
96 98 20
96 99 28
97 98 13
97 99 19
98 99 9
